Virus,Setting,YearWeek,Week,Week_Ending_Date,Count
COVID-19,Acute care,202435,35,2024-08-31,78
COVID-19,Acute care,202436,36,2024-09-07,66
COVID-19,Acute care,202437,37,2024-09-14,62
COVID-19,Acute care,202438,38,2024-09-21,77
COVID-19,Acute care,202439,39,2024-09-28,79
COVID-19,Acute care,202440,40,2024-10-05,62
COVID-19,Acute care,202441,41,2024-10-12,65
COVID-19,Acute care,202442,42,2024-10-19,57
COVID-19,Acute care,202443,43,2024-10-26,69
COVID-19,Acute care,202444,44,2024-11-02,81
COVID-19,Acute care,202445,45,2024-11-09,48
COVID-19,Acute care,202446,46,2024-11-16,49
COVID-19,Acute care,202447,47,2024-11-23,42
COVID-19,Acute care,202448,48,2024-11-30,36
COVID-19,Acute care,202449,49,2024-12-07,50
COVID-19,Acute care,202450,50,2024-12-14,58
COVID-19,Acute care,202451,51,2024-12-21,54
COVID-19,Acute care,202452,52,2024-12-28,54
COVID-19,Acute care,202501,1,2025-01-04,52
COVID-19,Acute care,202502,2,2025-01-11,50
COVID-19,Acute care,202503,3,2025-01-18,34
COVID-19,Acute care,202504,4,2025-01-25,23
COVID-19,Acute care,202505,5,2025-02-01,20
COVID-19,Acute care,202506,6,2025-02-08,23
COVID-19,Acute care,202507,7,2025-02-15,16
COVID-19,Acute care,202508,8,2025-02-22,23
COVID-19,Acute care,202509,9,2025-03-01,17
COVID-19,Long-term care,202435,35,2024-08-31,126
COVID-19,Long-term care,202436,36,2024-09-07,105
COVID-19,Long-term care,202437,37,2024-09-14,116
COVID-19,Long-term care,202438,38,2024-09-21,118
COVID-19,Long-term care,202439,39,2024-09-28,108
COVID-19,Long-term care,202440,40,2024-10-05,100
COVID-19,Long-term care,202441,41,2024-10-12,105
COVID-19,Long-term care,202442,42,2024-10-19,92
COVID-19,Long-term care,202443,43,2024-10-26,96
COVID-19,Long-term care,202444,44,2024-11-02,76
COVID-19,Long-term care,202445,45,2024-11-09,58
COVID-19,Long-term care,202446,46,2024-11-16,67
COVID-19,Long-term care,202447,47,2024-11-23,53
COVID-19,Long-term care,202448,48,2024-11-30,60
COVID-19,Long-term care,202449,49,2024-12-07,54
COVID-19,Long-term care,202450,50,2024-12-14,80
COVID-19,Long-term care,202451,51,2024-12-21,79
COVID-19,Long-term care,202452,52,2024-12-28,60
COVID-19,Long-term care,202501,1,2025-01-04,69
COVID-19,Long-term care,202502,2,2025-01-11,66
COVID-19,Long-term care,202503,3,2025-01-18,45
COVID-19,Long-term care,202504,4,2025-01-25,36
COVID-19,Long-term care,202505,5,2025-02-01,46
COVID-19,Long-term care,202506,6,2025-02-08,34
COVID-19,Long-term care,202507,7,2025-02-15,31
COVID-19,Long-term care,202508,8,2025-02-22,26
COVID-19,Long-term care,202509,9,2025-03-01,23
COVID-19,Other,202435,35,2024-08-31,33
COVID-19,Other,202436,36,2024-09-07,32
COVID-19,Other,202437,37,2024-09-14,45
COVID-19,Other,202438,38,2024-09-21,56
COVID-19,Other,202439,39,2024-09-28,37
COVID-19,Other,202440,40,2024-10-05,35
COVID-19,Other,202441,41,2024-10-12,31
COVID-19,Other,202442,42,2024-10-19,48
COVID-19,Other,202443,43,2024-10-26,40
COVID-19,Other,202444,44,2024-11-02,33
COVID-19,Other,202445,45,2024-11-09,30
COVID-19,Other,202446,46,2024-11-16,17
COVID-19,Other,202447,47,2024-11-23,24
COVID-19,Other,202448,48,2024-11-30,19
COVID-19,Other,202449,49,2024-12-07,22
COVID-19,Other,202450,50,2024-12-14,22
COVID-19,Other,202451,51,2024-12-21,24
COVID-19,Other,202452,52,2024-12-28,17
COVID-19,Other,202501,1,2025-01-04,35
COVID-19,Other,202502,2,2025-01-11,19
COVID-19,Other,202503,3,2025-01-18,15
COVID-19,Other,202504,4,2025-01-25,9
COVID-19,Other,202505,5,2025-02-01,7
COVID-19,Other,202506,6,2025-02-08,3
COVID-19,Other,202507,7,2025-02-15,10
COVID-19,Other,202508,8,2025-02-22,10
COVID-19,Other,202509,9,2025-03-01,8
COVID-19,Retirement home,202435,35,2024-08-31,47
COVID-19,Retirement home,202436,36,2024-09-07,51
COVID-19,Retirement home,202437,37,2024-09-14,48
COVID-19,Retirement home,202438,38,2024-09-21,52
COVID-19,Retirement home,202439,39,2024-09-28,70
COVID-19,Retirement home,202440,40,2024-10-05,52
COVID-19,Retirement home,202441,41,2024-10-12,56
COVID-19,Retirement home,202442,42,2024-10-19,55
COVID-19,Retirement home,202443,43,2024-10-26,53
COVID-19,Retirement home,202444,44,2024-11-02,38
COVID-19,Retirement home,202445,45,2024-11-09,28
COVID-19,Retirement home,202446,46,2024-11-16,42
COVID-19,Retirement home,202447,47,2024-11-23,24
COVID-19,Retirement home,202448,48,2024-11-30,41
COVID-19,Retirement home,202449,49,2024-12-07,32
COVID-19,Retirement home,202450,50,2024-12-14,27
COVID-19,Retirement home,202451,51,2024-12-21,30
COVID-19,Retirement home,202452,52,2024-12-28,35
COVID-19,Retirement home,202501,1,2025-01-04,49
COVID-19,Retirement home,202502,2,2025-01-11,42
COVID-19,Retirement home,202503,3,2025-01-18,32
COVID-19,Retirement home,202504,4,2025-01-25,23
COVID-19,Retirement home,202505,5,2025-02-01,16
COVID-19,Retirement home,202506,6,2025-02-08,13
COVID-19,Retirement home,202507,7,2025-02-15,10
COVID-19,Retirement home,202508,8,2025-02-22,8
COVID-19,Retirement home,202509,9,2025-03-01,9
Influenza,Acute care,202435,35,2024-08-31,0
Influenza,Acute care,202436,36,2024-09-07,0
Influenza,Acute care,202437,37,2024-09-14,0
Influenza,Acute care,202438,38,2024-09-21,1
Influenza,Acute care,202439,39,2024-09-28,0
Influenza,Acute care,202440,40,2024-10-05,0
Influenza,Acute care,202441,41,2024-10-12,0
Influenza,Acute care,202442,42,2024-10-19,0
Influenza,Acute care,202443,43,2024-10-26,0
Influenza,Acute care,202444,44,2024-11-02,2
Influenza,Acute care,202445,45,2024-11-09,1
Influenza,Acute care,202446,46,2024-11-16,0
Influenza,Acute care,202447,47,2024-11-23,2
Influenza,Acute care,202448,48,2024-11-30,1
Influenza,Acute care,202449,49,2024-12-07,2
Influenza,Acute care,202450,50,2024-12-14,7
Influenza,Acute care,202451,51,2024-12-21,10
Influenza,Acute care,202452,52,2024-12-28,10
Influenza,Acute care,202501,1,2025-01-04,24
Influenza,Acute care,202502,2,2025-01-11,27
Influenza,Acute care,202503,3,2025-01-18,39
Influenza,Acute care,202504,4,2025-01-25,30
Influenza,Acute care,202505,5,2025-02-01,36
Influenza,Acute care,202506,6,2025-02-08,69
Influenza,Acute care,202507,7,2025-02-15,60
Influenza,Acute care,202508,8,2025-02-22,55
Influenza,Acute care,202509,9,2025-03-01,41
Influenza,Long-term care,202435,35,2024-08-31,2
Influenza,Long-term care,202436,36,2024-09-07,0
Influenza,Long-term care,202437,37,2024-09-14,1
Influenza,Long-term care,202438,38,2024-09-21,0
Influenza,Long-term care,202439,39,2024-09-28,0
Influenza,Long-term care,202440,40,2024-10-05,0
Influenza,Long-term care,202441,41,2024-10-12,1
Influenza,Long-term care,202442,42,2024-10-19,1
Influenza,Long-term care,202443,43,2024-10-26,2
Influenza,Long-term care,202444,44,2024-11-02,0
Influenza,Long-term care,202445,45,2024-11-09,1
Influenza,Long-term care,202446,46,2024-11-16,2
Influenza,Long-term care,202447,47,2024-11-23,0
Influenza,Long-term care,202448,48,2024-11-30,5
Influenza,Long-term care,202449,49,2024-12-07,8
Influenza,Long-term care,202450,50,2024-12-14,13
Influenza,Long-term care,202451,51,2024-12-21,28
Influenza,Long-term care,202452,52,2024-12-28,29
Influenza,Long-term care,202501,1,2025-01-04,63
Influenza,Long-term care,202502,2,2025-01-11,58
Influenza,Long-term care,202503,3,2025-01-18,64
Influenza,Long-term care,202504,4,2025-01-25,55
Influenza,Long-term care,202505,5,2025-02-01,92
Influenza,Long-term care,202506,6,2025-02-08,109
Influenza,Long-term care,202507,7,2025-02-15,120
Influenza,Long-term care,202508,8,2025-02-22,122
Influenza,Long-term care,202509,9,2025-03-01,98
Influenza,Other,202435,35,2024-08-31,0
Influenza,Other,202436,36,2024-09-07,0
Influenza,Other,202437,37,2024-09-14,0
Influenza,Other,202438,38,2024-09-21,0
Influenza,Other,202439,39,2024-09-28,0
Influenza,Other,202440,40,2024-10-05,0
Influenza,Other,202441,41,2024-10-12,1
Influenza,Other,202442,42,2024-10-19,0
Influenza,Other,202443,43,2024-10-26,1
Influenza,Other,202444,44,2024-11-02,0
Influenza,Other,202445,45,2024-11-09,0
Influenza,Other,202446,46,2024-11-16,0
Influenza,Other,202447,47,2024-11-23,1
Influenza,Other,202448,48,2024-11-30,0
Influenza,Other,202449,49,2024-12-07,0
Influenza,Other,202450,50,2024-12-14,0
Influenza,Other,202451,51,2024-12-21,3
Influenza,Other,202452,52,2024-12-28,3
Influenza,Other,202501,1,2025-01-04,4
Influenza,Other,202502,2,2025-01-11,7
Influenza,Other,202503,3,2025-01-18,1
Influenza,Other,202504,4,2025-01-25,4
Influenza,Other,202505,5,2025-02-01,10
Influenza,Other,202506,6,2025-02-08,10
Influenza,Other,202507,7,2025-02-15,17
Influenza,Other,202508,8,2025-02-22,11
Influenza,Other,202509,9,2025-03-01,3
Influenza,Retirement home,202435,35,2024-08-31,0
Influenza,Retirement home,202436,36,2024-09-07,0
Influenza,Retirement home,202437,37,2024-09-14,0
Influenza,Retirement home,202438,38,2024-09-21,0
Influenza,Retirement home,202439,39,2024-09-28,1
Influenza,Retirement home,202440,40,2024-10-05,0
Influenza,Retirement home,202441,41,2024-10-12,0
Influenza,Retirement home,202442,42,2024-10-19,0
Influenza,Retirement home,202443,43,2024-10-26,1
Influenza,Retirement home,202444,44,2024-11-02,0
Influenza,Retirement home,202445,45,2024-11-09,0
Influenza,Retirement home,202446,46,2024-11-16,0
Influenza,Retirement home,202447,47,2024-11-23,0
Influenza,Retirement home,202448,48,2024-11-30,1
Influenza,Retirement home,202449,49,2024-12-07,0
Influenza,Retirement home,202450,50,2024-12-14,6
Influenza,Retirement home,202451,51,2024-12-21,2
Influenza,Retirement home,202452,52,2024-12-28,5
Influenza,Retirement home,202501,1,2025-01-04,12
Influenza,Retirement home,202502,2,2025-01-11,13
Influenza,Retirement home,202503,3,2025-01-18,18
Influenza,Retirement home,202504,4,2025-01-25,16
Influenza,Retirement home,202505,5,2025-02-01,10
Influenza,Retirement home,202506,6,2025-02-08,17
Influenza,Retirement home,202507,7,2025-02-15,30
Influenza,Retirement home,202508,8,2025-02-22,17
Influenza,Retirement home,202509,9,2025-03-01,22
RSV,Acute care,202435,35,2024-08-31,0
RSV,Acute care,202436,36,2024-09-07,1
RSV,Acute care,202437,37,2024-09-14,0
RSV,Acute care,202438,38,2024-09-21,0
RSV,Acute care,202439,39,2024-09-28,0
RSV,Acute care,202440,40,2024-10-05,1
RSV,Acute care,202441,41,2024-10-12,0
RSV,Acute care,202442,42,2024-10-19,0
RSV,Acute care,202443,43,2024-10-26,0
RSV,Acute care,202444,44,2024-11-02,0
RSV,Acute care,202445,45,2024-11-09,0
RSV,Acute care,202446,46,2024-11-16,0
RSV,Acute care,202447,47,2024-11-23,2
RSV,Acute care,202448,48,2024-11-30,4
RSV,Acute care,202449,49,2024-12-07,2
RSV,Acute care,202450,50,2024-12-14,6
RSV,Acute care,202451,51,2024-12-21,8
RSV,Acute care,202452,52,2024-12-28,8
RSV,Acute care,202501,1,2025-01-04,13
RSV,Acute care,202502,2,2025-01-11,11
RSV,Acute care,202503,3,2025-01-18,13
RSV,Acute care,202504,4,2025-01-25,14
RSV,Acute care,202505,5,2025-02-01,15
RSV,Acute care,202506,6,2025-02-08,15
RSV,Acute care,202507,7,2025-02-15,10
RSV,Acute care,202508,8,2025-02-22,9
RSV,Acute care,202509,9,2025-03-01,6
RSV,Long-term care,202435,35,2024-08-31,1
RSV,Long-term care,202436,36,2024-09-07,1
RSV,Long-term care,202437,37,2024-09-14,0
RSV,Long-term care,202438,38,2024-09-21,0
RSV,Long-term care,202439,39,2024-09-28,0
RSV,Long-term care,202440,40,2024-10-05,0
RSV,Long-term care,202441,41,2024-10-12,0
RSV,Long-term care,202442,42,2024-10-19,3
RSV,Long-term care,202443,43,2024-10-26,2
RSV,Long-term care,202444,44,2024-11-02,2
RSV,Long-term care,202445,45,2024-11-09,2
RSV,Long-term care,202446,46,2024-11-16,3
RSV,Long-term care,202447,47,2024-11-23,1
RSV,Long-term care,202448,48,2024-11-30,3
RSV,Long-term care,202449,49,2024-12-07,6
RSV,Long-term care,202450,50,2024-12-14,7
RSV,Long-term care,202451,51,2024-12-21,15
RSV,Long-term care,202452,52,2024-12-28,15
RSV,Long-term care,202501,1,2025-01-04,9
RSV,Long-term care,202502,2,2025-01-11,36
RSV,Long-term care,202503,3,2025-01-18,22
RSV,Long-term care,202504,4,2025-01-25,21
RSV,Long-term care,202505,5,2025-02-01,19
RSV,Long-term care,202506,6,2025-02-08,7
RSV,Long-term care,202507,7,2025-02-15,8
RSV,Long-term care,202508,8,2025-02-22,15
RSV,Long-term care,202509,9,2025-03-01,7
RSV,Other,202435,35,2024-08-31,0
RSV,Other,202436,36,2024-09-07,0
RSV,Other,202437,37,2024-09-14,0
RSV,Other,202438,38,2024-09-21,0
RSV,Other,202439,39,2024-09-28,0
RSV,Other,202440,40,2024-10-05,0
RSV,Other,202441,41,2024-10-12,0
RSV,Other,202442,42,2024-10-19,0
RSV,Other,202443,43,2024-10-26,0
RSV,Other,202444,44,2024-11-02,0
RSV,Other,202445,45,2024-11-09,0
RSV,Other,202446,46,2024-11-16,1
RSV,Other,202447,47,2024-11-23,0
RSV,Other,202448,48,2024-11-30,1
RSV,Other,202449,49,2024-12-07,1
RSV,Other,202450,50,2024-12-14,1
RSV,Other,202451,51,2024-12-21,2
RSV,Other,202452,52,2024-12-28,1
RSV,Other,202501,1,2025-01-04,4
RSV,Other,202502,2,2025-01-11,4
RSV,Other,202503,3,2025-01-18,5
RSV,Other,202504,4,2025-01-25,3
RSV,Other,202505,5,2025-02-01,2
RSV,Other,202506,6,2025-02-08,2
RSV,Other,202507,7,2025-02-15,2
RSV,Other,202508,8,2025-02-22,3
RSV,Other,202509,9,2025-03-01,0
RSV,Retirement home,202435,35,2024-08-31,0
RSV,Retirement home,202436,36,2024-09-07,0
RSV,Retirement home,202437,37,2024-09-14,0
RSV,Retirement home,202438,38,2024-09-21,0
RSV,Retirement home,202439,39,2024-09-28,0
RSV,Retirement home,202440,40,2024-10-05,0
RSV,Retirement home,202441,41,2024-10-12,0
RSV,Retirement home,202442,42,2024-10-19,0
RSV,Retirement home,202443,43,2024-10-26,0
RSV,Retirement home,202444,44,2024-11-02,0
RSV,Retirement home,202445,45,2024-11-09,0
RSV,Retirement home,202446,46,2024-11-16,0
RSV,Retirement home,202447,47,2024-11-23,0
RSV,Retirement home,202448,48,2024-11-30,0
RSV,Retirement home,202449,49,2024-12-07,1
RSV,Retirement home,202450,50,2024-12-14,6
RSV,Retirement home,202451,51,2024-12-21,1
RSV,Retirement home,202452,52,2024-12-28,3
RSV,Retirement home,202501,1,2025-01-04,3
RSV,Retirement home,202502,2,2025-01-11,7
RSV,Retirement home,202503,3,2025-01-18,12
RSV,Retirement home,202504,4,2025-01-25,6
RSV,Retirement home,202505,5,2025-02-01,4
RSV,Retirement home,202506,6,2025-02-08,1
RSV,Retirement home,202507,7,2025-02-15,1
RSV,Retirement home,202508,8,2025-02-22,2
RSV,Retirement home,202509,9,2025-03-01,1