file	figure	geographic	xaxis	yaxis	yaxis2	xaxis2	xaxis3	yaxis3	legend
htmlwidget-7756a33f20713ff6e89c	Laboratory-confirmed influenza by age group, 2023-2024		Age group	Rate (per 100,000 population)					
htmlwidget-414d1ca5c36a28bb50e2	Laboratory-confirmed COVID-19 by age group, 2023-2024		Age group	Rate (per 100,000 population)					
htmlwidget-d5964335c28f6b2b5afd	Laboratory confirmed seasonal influenza cases in Alberta by zone, 2023-2024		Week	Influenza cases (n)					
htmlwidget-9fda544a7c619b393734	Laboratory confirmed seasonal influenza cases in Alberta by zone, 2019-2020 to 2023-2024		Week	Influenza cases (n)					
htmlwidget-defd9ee6b093e71e9bc7	Map of laboratory-confirmed seasonal influenza case rates by Zone compared to Alberta, 2023-2024	True							
htmlwidget-15ce0c00139c63fbd3f0	Laboratory confirmed COVID-19 cases in Alberta by zone, 2023-2024		Week	COVID-19 cases (n)					
htmlwidget-b3b0f72b1a63a9211826	Laboratory confirmed COVID-19 cases in Alberta by zone, 2019-2020 to 2023-2024		Week	COVID-19 cases (n)					
htmlwidget-05df3c5af7a8e3c24768	Map of laboratory-confirmed COVID-19 case rates by Zone compared to Alberta, 2023-2024	True							
htmlwidget-1ae01c8259cd8719bff9	Cumulative COVID-19 vaccine doses administered by week in Alberta, 2023-2024		Weeks since campaign start	Influenza vaccine doses (n)					
htmlwidget-13745cc88d6d6b695c20	Cumulative COVID-19 vaccine doses administered by week in Alberta, 2023-2024		Weeks since campaign start	Influenza vaccine doses (n)					
htmlwidget-77188b3c09e18359dbf6	Cumulative COVID-19 vaccine doses administered by week in Alberta, 2023-2024		Weeks since campaign start	Influenza vaccine coverage (%)					
htmlwidget-329d46dc39ddd14c852e	Cumulative COVID-19 vaccine doses administered by week in Alberta, 2023-2024	True							
htmlwidget-90bd3a02d005864f1bdc	Cumulative COVID-19 vaccine doses administered by week in Alberta, 2023-2024		Number of events						
htmlwidget-d095d84e08a4c5564605	Cumulative COVID-19 vaccine doses administered by week in Alberta, 2023-2024		Week	COVID-19 vaccine doses (n)					
htmlwidget-4bb2fa49bc7e4b043f07	COVID-19 vaccine doses administered by week in Alberta, 2023-2024		Week	COVID-19 vaccine doses (n)					
htmlwidget-f52bd82f14f382685c88	COVID-19 vaccine coverage by week and age group in Alberta, 2023-2024		Week	COVID-19 vaccine coverage (%)					
htmlwidget-5499f69736d5445f58a2	COVID-19 vaccine coverage rate by local geographic area, 2023-2024	True							
htmlwidget-142ecdfb677428e60182	Number of adverse events following COVID-19 immunization (AEFI) by condition reported in Alberta, 2023-2024		Number of events (n)						
htmlwidget-2951188303610c0b6537	Respiratory virus test positivity by week, 2023-2024		Week	Percent Positivity (%)					
htmlwidget-6f0ec9273dc2bd2bcc64	Respiratory virus test positivity by week for the 2023-2024 season compared to historical trends		Week	Test Positivity (%)					
htmlwidget-61b69466b7de3f06595e	SARS-CoV-2 testing and positivity by week, 2019-2020 to 2023-2024		Week	Total tests (n)	Percent Positivity				
htmlwidget-e60a6e40258c28691f2d	Influenza testing and positivity by week, 2019-2020 to 2023-2024		Week	Total tests (n)	Percent Positivity				
htmlwidget-ca5357665f3e408c3614	Respiratory syncytial virus testing and positivity by week, 2019-2020 to 2023-2024		Week	Total tests (n)	Percent Positivity				
htmlwidget-9b1e967e01955bbc32d1	Adenovirus testing and positivity by week, 2019-2020 to 2023-2024		Week	Total tests (n)	Percent Positivity				
htmlwidget-51b56a8e0f568ebad25f	Coronavirus testing and positivity by week, 2019-2020 to 2023-2024		Week	Total tests (n)	Percent Positivity				
htmlwidget-767bb471e1523cf16e5d	Rhinovirus/enterovirus testing and positivity by week, 2019-2020 to 2023-2024		Week	Total tests (n)	Percent Positivity				
htmlwidget-791f173b193b9a75e9b0	Human metapneumovirus (hMPV) testing and positivity by week, 2019-2020 to 2023-2024		Week	Total tests (n)	Percent Positivity				
htmlwidget-3900991231f452e2342f	Parainfluenza testing and positivity by week, 2019-2020 to 2023-2024		Week	Total tests (n)	Percent Positivity				
htmlwidget-5b71d2c854183bba1000	Number of respiratory virus outbreaks by week, 2019-2020 to 2023-2024		Date	Outbreaks (n)					
htmlwidget-5e83c865e7ee085bdd0d	Total hospital admissions, ICU admissions, and deaths among laboratory-confirmed seasonal influenza cases in Alberta by age group, 2023-2024							Age Group	
htmlwidget-a93b9c7bab15cea6e16d	Number of weekly hospital admissions (ICU and non-ICU) and deaths due to laboratory-confirmed seasonal influenza, 2019-2020 to 2023-2024		Week	Hospitalization/ICU/Deaths (n)					
htmlwidget-de33946156d47192996c	Total hospital admissions, ICU admissions, and deaths among COVID-19 cases in Alberta by age group, 2023-2024							Age Group	
htmlwidget-31bd85a6d8ff9092f681	Number of weekly hospital admissions (ICU and non-ICU) and deaths due to COVID-19		Week	Hospitalization/ICU/Deaths (n)					
htmlwidget-09c55dde90bb30b8d4c0	Total weekly laboratory-confirmed seasonal influenza cases by subtype in Alberta, 2023-2024		Week	Influenza cases (n)					
htmlwidget-5029b172ef9c559ec715	Total weekly laboratory-confirmed seasonal influenza cases by subtype in Alberta, 2019-2020 to 2023-2024		Week	Influenza cases (n)					
htmlwidget-648645c6710a5b4f64fe	Laboratory-confirmed seasonal influenza cases in Alberta since the 2009-2010 season		Week	Influenza cases (n)					
htmlwidget-c087cdb58061779d14b4	Total weekly laboratory-confirmed RSV cases in Alberta, 2023-2024		Week	RSV cases (n)					
htmlwidget-bf254eeab3806c02e40e	Total weekly laboratory-confirmed RSV cases in Alberta, 2019-2020 to 2023-2024		Week	RSV cases (n)					
htmlwidget-6ae3f019c2be418d3e71	Total weekly laboratory-confirmed COVID-19 cases in Alberta, 2023-2024		Week	COVID-19 cases (n)					
htmlwidget-bf2ee70e8bf3a14ff5cb	Proportion of whole genome sequenced COVID-19 variants by type (10 weeks).		Date Reported to Alberta Health	COVID-19 Sequencing Results (Percentage)					
htmlwidget-d15cccc1b85f53c4a5b7	Population normalized quantity of SARS CoV-2 virus over time		Date	Normalized viral <br> copies per person					['Calgary Zone', 'Calgary Zone', 'Calgary Zone', 'Calgary Zone', 'Calgary Zone', 'Calgary Zone', 'Calgary Zone', 'Calgary Zone', 'Calgary Zone', 'Calgary Zone', 'Calgary Zone', 'Calgary Zone', 'Calgary Zone', 'Calgary Zone', 'Calgary Zone', 'Calgary Zone', 'Calgary Zone', 'Calgary Zone', 'Calgary Zone', 'Calgary Zone', 'Calgary Zone', 'Calgary Zone', 'Calgary Zone', 'Calgary Zone', 'Calgary Zone', 'Calgary Zone', 'Calgary Zone', 'Calgary Zone', 'Calgary Zone', 'Calgary Zone', 'Calgary Zone', 'Calgary Zone', 'Calgary Zone', 'Calgary Zone', 'Calgary Zone', 'Calgary Zone', 'Calgary Zone', 'Calgary Zone', 'Calgary Zone', 'Calgary Zone', 'Calgary Zone', 'Calgary Zone', 'Calgary Zone', 'Calgary Zone', 'Calgary Zone', 'Calgary Zone', 'Calgary Zone', 'Calgary Zone', 'Calgary Zone', 'Calgary Zone', 'Calgary Zone', 'Calgary Zone', 'Calgary Zone', 'Calgary Zone', 'Calgary Zone', 'Calgary Zone', 'Calgary Zone', 'Calgary Zone', 'Calgary Zone', 'Calgary Zone', 'Calgary Zone', 'Calgary Zone', 'Calgary Zone', 'Calgary Zone', 'Calgary Zone', 'Calgary Zone', 'Calgary Zone', 'Calgary Zone', 'Calgary Zone', 'Calgary Zone', 'Calgary Zone', 'Calgary Zone', 'Calgary Zone', 'Calgary Zone', 'Calgary Zone', 'Calgary Zone', 'Calgary Zone', 'Calgary Zone', 'Calgary Zone', 'Calgary Zone', 'Calgary Zone', 'Calgary Zone', 'Calgary Zone', 'Calgary Zone', 'Calgary Zone', 'Calgary Zone', 'Calgary Zone', 'Calgary Zone', 'Calgary Zone', 'Calgary Zone', 'Calgary Zone', 'Calgary Zone', 'Calgary Zone', 'Calgary Zone', 'Calgary Zone', 'Calgary Zone', 'Calgary Zone', 'Calgary Zone', 'Calgary Zone', 'Calgary Zone', 'Calgary Zone', 'Calgary Zone', 'Calgary Zone', 'Calgary Zone', 'Calgary Zone', 'Calgary Zone', 'Calgary Zone', 'Calgary Zone', 'Calgary Zone', 'Calgary Zone', 'Edmonton Zone', 'Edmonton Zone', 'Edmonton Zone', 'Edmonton Zone', 'Edmonton Zone', 'Edmonton Zone', 'Edmonton Zone', 'Edmonton Zone', 'Edmonton Zone', 'Edmonton Zone', 'Edmonton Zone', 'Edmonton Zone', 'Edmonton Zone', 'Edmonton Zone', 'Edmonton Zone', 'Edmonton Zone', 'Edmonton Zone', 'Edmonton Zone', 'Edmonton Zone', 'Edmonton Zone', 'Edmonton Zone', 'Edmonton Zone', 'Edmonton Zone', 'Edmonton Zone', 'Edmonton Zone', 'Edmonton Zone', 'Edmonton Zone', 'Edmonton Zone', 'Edmonton Zone', 'Edmonton Zone', 'Edmonton Zone', 'Edmonton Zone', 'Edmonton Zone', 'Edmonton Zone', 'Edmonton Zone', 'Edmonton Zone', 'Edmonton Zone', 'Edmonton Zone', 'Edmonton Zone', 'Edmonton Zone', 'Edmonton Zone', 'Edmonton Zone', 'Edmonton Zone', 'Edmonton Zone', 'Edmonton Zone', 'Edmonton Zone', 'Edmonton Zone', 'North Zone', 'North Zone', 'North Zone', 'North Zone', 'North Zone', 'North Zone', 'North Zone', 'North Zone', 'North Zone', 'North Zone', 'North Zone', 'North Zone', 'North Zone', 'North Zone', 'North Zone', 'North Zone', 'North Zone', 'North Zone', 'North Zone', 'North Zone', 'North Zone', 'North Zone', 'North Zone', 'North Zone', 'North Zone', 'North Zone', 'North Zone', 'North Zone', 'North Zone', 'North Zone', 'North Zone', 'North Zone', 'North Zone', 'North Zone', 'North Zone', 'North Zone', 'North Zone', 'North Zone', 'North Zone', 'North Zone', 'North Zone', 'North Zone', 'North Zone', 'Edmonton Zone', 'Edmonton Zone', 'Edmonton Zone', 'Edmonton Zone', 'Edmonton Zone', 'Edmonton Zone', 'Edmonton Zone', 'Edmonton Zone', 'Edmonton Zone', 'Edmonton Zone', 'Edmonton Zone', 'Edmonton Zone', 'Edmonton Zone', 'Edmonton Zone', 'Edmonton Zone', 'Edmonton Zone', 'Edmonton Zone', 'Edmonton Zone', 'Edmonton Zone', 'Edmonton Zone', 'Edmonton Zone', 'Edmonton Zone', 'Edmonton Zone', 'Edmonton Zone', 'Edmonton Zone', 'Edmonton Zone', 'Edmonton Zone', 'Edmonton Zone', 'Edmonton Zone', 'Edmonton Zone', 'Edmonton Zone', 'Edmonton Zone', 'Edmonton Zone', 'Edmonton Zone', 'Edmonton Zone', 'Edmonton Zone', 'Edmonton Zone', 'Edmonton Zone', 'Edmonton Zone', 'Edmonton Zone', 'Edmonton Zone', 'Edmonton Zone', 'North Zone', 'North Zone', 'North Zone', 'North Zone', 'North Zone', 'North Zone', 'North Zone', 'North Zone', 'North Zone', 'North Zone', 'North Zone', 'North Zone', 'North Zone', 'North Zone', 'North Zone', 'North Zone', 'North Zone', 'North Zone', 'North Zone', 'North Zone', 'North Zone', 'North Zone', 'North Zone', 'North Zone', 'North Zone', 'North Zone', 'North Zone', 'North Zone', 'North Zone', 'North Zone', 'North Zone', 'North Zone', 'North Zone', 'North Zone', 'North Zone', 'North Zone', 'North Zone', 'North Zone', 'North Zone', 'North Zone', 'North Zone', 'North Zone', 'North Zone', 'North Zone', 'North Zone', 'North Zone', 'North Zone', 'North Zone', 'North Zone', 'North Zone', 'North Zone', 'North Zone', 'North Zone', 'North Zone', 'North Zone', 'North Zone', 'North Zone', 'North Zone', 'North Zone', 'North Zone', 'North Zone', 'North Zone', 'North Zone', 'North Zone', 'North Zone', 'North Zone', 'North Zone', 'North Zone', 'North Zone', 'North Zone', 'North Zone', 'North Zone', 'North Zone', 'North Zone', 'North Zone', 'North Zone', 'North Zone', 'North Zone', 'North Zone', 'North Zone', 'North Zone', 'North Zone', 'North Zone', 'North Zone', 'North Zone', 'North Zone', 'North Zone', 'North Zone', 'South Zone', 'South Zone', 'South Zone', 'South Zone', 'South Zone', 'South Zone', 'South Zone', 'South Zone', 'South Zone', 'South Zone', 'South Zone', 'South Zone', 'South Zone', 'South Zone', 'South Zone', 'South Zone', 'South Zone', 'South Zone', 'South Zone', 'South Zone', 'South Zone', 'South Zone', 'South Zone', 'South Zone', 'South Zone', 'South Zone', 'South Zone', 'South Zone', 'South Zone', 'South Zone', 'South Zone', 'South Zone', 'South Zone', 'South Zone', 'South Zone', 'South Zone', 'South Zone', 'South Zone', 'South Zone', 'South Zone', 'South Zone', 'South Zone', 'South Zone', 'South Zone', 'South Zone', 'South Zone', 'South Zone', 'South Zone', 'South Zone', 'South Zone', 'South Zone', 'South Zone', 'South Zone', 'South Zone', 'South Zone', 'South Zone', 'South Zone', 'South Zone', 'South Zone', 'South Zone', 'South Zone', 'South Zone', 'South Zone', 'South Zone', 'South Zone', 'South Zone', 'South Zone', 'South Zone', 'South Zone', 'South Zone', 'South Zone', 'South Zone', 'South Zone', 'South Zone', 'South Zone', 'South Zone', 'South Zone', 'South Zone', 'South Zone', 'South Zone', 'South Zone', 'South Zone', 'South Zone', 'South Zone', 'South Zone', 'South Zone', 'South Zone', 'South Zone', 'South Zone', 'South Zone', 'South Zone', 'South Zone', 'Central Zone', 'Central Zone', 'Central Zone', 'Central Zone', 'Central Zone', 'Central Zone', 'Central Zone', 'Central Zone', 'Central Zone', 'Central Zone', 'Central Zone', 'Central Zone', 'Central Zone', 'Central Zone', 'Central Zone', 'Central Zone', 'Central Zone', 'Central Zone', 'Central Zone', 'Central Zone', 'Central Zone', 'Central Zone', 'Central Zone', 'Central Zone', 'Central Zone', 'Central Zone', 'Central Zone', 'Central Zone', 'Central Zone', 'Central Zone', 'Central Zone', 'Central Zone', 'Central Zone', 'Central Zone', 'Central Zone', 'Central Zone', 'Central Zone', 'Central Zone', 'Central Zone', 'Central Zone', 'Central Zone', 'Central Zone', 'Central Zone', 'Central Zone', 'Central Zone']
