date,location,n1,n2,avg
2023-07-03,Banff,0.0477,0.0464,0.047
2023-07-04,Banff,0.0526,0.0605,0.0566
2023-07-06,Banff,0.0324,0.034,0.0332
2023-07-10,Banff,0.0987,0.0982,0.0984
2023-07-13,Banff,0.0529,0.0521,0.0525
2023-07-17,Banff,0.137,0.137,0.137
2023-07-20,Banff,0.104,0.103,0.103
2023-07-24,Banff,0.0838,0.0843,0.0841
2023-07-27,Banff,0.0545,0.0584,0.0565
2023-07-31,Banff,0.0854,0.0867,0.086
2023-08-02,Banff,0.049,0.0485,0.0488
2023-08-09,Banff,0.0882,0.0922,0.0902
2023-08-14,Banff,0.163,0.162,0.162
2023-08-16,Banff,0.174,0.16,0.167
2023-08-21,Banff,0.0734,0.0764,0.0749
2023-08-28,Banff,0.103,0.101,0.102
2023-08-30,Banff,0.0658,0.0656,0.0657
2023-09-05,Banff,0.401,0.402,0.401
2023-09-06,Banff,0.233,0.225,0.229
2023-09-11,Banff,0.325,0.309,0.317
2023-09-13,Banff,0.442,0.422,0.432
2023-09-18,Banff,0.147,0.126,0.137
2023-09-20,Banff,0.227,0.229,0.228
2023-09-25,Banff,0.109,0.111,0.11
2023-09-27,Banff,0.1,0.101,0.101
2023-10-02,Banff,0.496,0.478,0.487
2023-10-04,Banff,0.956,0.91,0.933
2023-10-10,Banff,0.468,0.467,0.467
2023-10-11,Banff,0.345,0.329,0.337
2023-10-16,Banff,0.139,0.137,0.138
2023-10-18,Banff,0.359,0.363,0.361
2023-10-23,Banff,0.24,0.226,0.233
2023-10-25,Banff,0.236,0.212,0.224
2023-10-30,Banff,0.248,0.253,0.251
2023-10-31,Banff,0.168,0.156,0.162
2023-11-01,Banff,0.529,0.512,0.521
2023-11-06,Banff,0.392,0.371,0.382
2023-11-08,Banff,0.2,0.18,0.19
2023-11-13,Banff,0.316,0.289,0.302
2023-11-15,Banff,0.156,0.162,0.159
2023-11-20,Banff,0.184,0.174,0.179
2023-11-22,Banff,0.477,0.47,0.474
2023-11-27,Banff,0.307,0.326,0.317
2023-11-29,Banff,0.19,0.177,0.184
2023-12-06,Banff,0.129,0.128,0.129
2023-12-11,Banff,0.253,0.263,0.258
2023-12-13,Banff,0.243,0.251,0.247
2023-12-18,Banff,0.311,0.284,0.298
2023-12-20,Banff,0.277,0.277,0.277
2024-01-02,Banff,0.236,0.238,0.237
2024-01-03,Banff,0.157,0.158,0.157
2024-01-08,Banff,0.169,0.159,0.164
2024-01-10,Banff,0.187,0.189,0.188
2024-01-15,Banff,0.146,0.144,0.145
2024-01-17,Banff,0.0718,0.0726,0.0722
2024-01-22,Banff,0.0593,0.0578,0.0585
2024-01-24,Banff,0.14,0.137,0.139
2024-01-29,Banff,0.0733,0.0726,0.073
2024-01-31,Banff,0.04,0.0422,0.0411
2024-02-05,Banff,0.12,0.108,0.114
2024-02-07,Banff,0.0289,0.035,0.0319
2024-02-12,Banff,0.0304,0.0342,0.0323
2024-02-14,Banff,0.0388,0.0373,0.038
2024-02-21,Banff,0.0669,0.0692,0.0681
2024-02-26,Banff,0.135,0.139,0.137
2024-02-28,Banff,0.114,0.0951,0.105
2024-03-04,Banff,0.0666,0.0639,0.0652
2024-03-06,Banff,0.204,0.191,0.197
2024-03-13,Banff,0.085,0.0904,0.0877
2024-03-18,Banff,0.0326,0.0319,0.0323
2024-03-20,Banff,0.0374,0.0374,0.0374
2024-03-25,Banff,0.0404,0.0383,0.0393
2024-03-27,Banff,0.0259,0.0191,0.0225
2024-04-01,Banff,0.021,0.0174,0.0192
2024-04-03,Banff,0.0366,0.0395,0.038
2024-04-08,Banff,0.0236,0.0247,0.0241
2024-04-10,Banff,0.00531,0.00474,0.00502
2024-04-15,Banff,0.0153,0.0142,0.0147
2024-04-17,Banff,0.0131,0.0101,0.0116
2024-04-22,Banff,0.0655,0.0661,0.0658
2024-04-24,Banff,0.114,0.106,0.11
2024-04-29,Banff,0.0507,0.0537,0.0522
2024-05-01,Banff,0.0314,0.0293,0.0304
2024-05-06,Banff,0.0398,0.0387,0.0393
2024-05-13,Banff,0.224,0.236,0.23
2024-05-15,Banff,0.168,0.165,0.166
2024-05-22,Banff,0.174,0.162,0.168
2024-05-27,Banff,0.292,0.281,0.286
2024-05-29,Banff,0.33,0.328,0.329
2024-06-03,Banff,0.183,0.18,0.182
2024-06-05,Banff,0.0766,0.0735,0.075
2024-06-10,Banff,0.158,0.152,0.155
2024-06-12,Banff,0.246,0.236,0.241
2024-06-17,Banff,0.202,0.199,0.201
2024-06-21,Banff,0.2,0.193,0.197
2024-07-02,Banff,0.146,0.142,0.144
2024-07-03,Banff,0.171,0.143,0.157
2024-07-08,Banff,0.0764,0.0751,0.0757
2024-07-10,Banff,0.0915,0.0796,0.0855
2024-07-15,Banff,0.0978,0.0793,0.0886
2024-07-17,Banff,0.263,0.191,0.227
2024-07-22,Banff,0.0773,0.0659,0.0716
2024-07-24,Banff,0.152,0.139,0.146
2024-07-31,Banff,0.159,0.156,0.158
2024-08-06,Banff,0.119,0.104,0.111
2024-08-08,Banff,0.11,0.109,0.11
2024-08-14,Banff,0.125,0.105,0.115
2024-08-21,Banff,0.104,0.102,0.103
2024-08-26,Banff,0.159,0.143,0.151
2024-08-28,Banff,0.0986,0.0934,0.096
2024-09-03,Banff,0.175,0.161,0.168
2024-09-04,Banff,0.193,0.175,0.184
2024-09-09,Banff,0.161,0.0932,0.127
2024-09-09,Banff,0.161,0.0932,0.127
2024-09-11,Banff,0.121,0.111,0.116
2024-09-16,Banff,0.0657,0.0605,0.0631
2024-09-18,Banff,0.217,0.183,0.2
2024-09-23,Banff,0.179,0.176,0.177
2024-09-25,Banff,0.106,0.104,0.105
2024-10-01,Banff,0.221,0.208,0.214
2024-10-02,Banff,0.444,0.419,0.431
2024-10-07,Banff,0.254,0.235,0.245
2024-10-09,Banff,0.339,0.307,0.323
2024-10-15,Banff,0.13,0.124,0.127
2024-10-16,Banff,0.117,0.116,0.116
2024-10-21,Banff,0.105,0.11,0.107
2024-10-23,Banff,0.213,0.206,0.21
2024-10-29,Banff,0.182,0.162,0.172
2024-10-30,Banff,0.252,0.242,0.247
2024-11-04,Banff,0.0539,0.0603,0.0571
2024-11-07,Banff,0.0466,0.0561,0.0513
2024-11-12,Banff,0.0405,0.0405,0.0405
2024-11-13,Banff,0.073,0.0783,0.0757
2024-11-18,Banff,0.0418,0.0471,0.0445
2024-11-20,Banff,0.108,0.114,0.111
2024-11-25,Banff,0.0826,0.0784,0.0805
2024-11-27,Banff,0.251,0.258,0.254
2024-12-02,Banff,0.119,0.116,0.117
2024-12-09,Banff,0.0556,0.0638,0.0597
2024-12-11,Banff,0.084,0.0776,0.0808
2024-12-11,Banff,0.084,0.0776,0.0808
2024-12-11,Banff,0.084,0.0776,0.0808
2024-12-11,Banff,0.084,0.0776,0.0808
2024-12-16,Banff,0.0316,0.0352,0.0334
2025-01-02,Banff,0.0578,0.06,0.0589
2025-01-02,Banff,0.0578,0.06,0.0589
2025-01-06,Banff,0.0467,0.0341,0.0404
2025-01-08,Banff,0.0304,0.0274,0.0289
2025-01-13,Banff,0.0297,0.0267,0.0282
2025-01-15,Banff,0.0687,0.074,0.0714
2025-01-20,Banff,0.00889,0.00739,0.00814
2025-01-22,Banff,0.0111,0.00967,0.0104
2025-01-27,Banff,0.0171,0.0156,0.0163
2025-02-03,Banff,0.0114,0.0144,0.0129
2025-02-05,Banff,0.0129,0.0129,0.0129
2025-02-10,Banff,0.019,0.0228,0.0209
2025-02-12,Banff,0.0517,0.0494,0.0506
2025-02-18,Banff,0.0222,0.0183,0.0203
2025-02-19,Banff,0.0221,0.0213,0.0217
2025-02-24,Banff,0.0163,0.0178,0.017
2025-02-26,Banff,0.0678,0.0586,0.0632
2023-07-05,Calgary,0.00103,0.000999,0.00101
2023-07-09,Calgary,0.000756,0.000756,0.000756
2023-07-10,Calgary,0.000859,0.00077,0.000815
2023-07-12,Calgary,0.000815,0.000787,0.000801
2023-07-17,Calgary,0.00132,0.00116,0.00124
2023-07-19,Calgary,0.00333,0.00313,0.00323
2023-07-24,Calgary,0.00216,0.00218,0.00217
2023-07-26,Calgary,0.00203,0.0019,0.00197
2023-07-31,Calgary,0.00192,0.00174,0.00183
2023-08-02,Calgary,0.00156,0.00144,0.0015
2023-08-09,Calgary,0.000912,0.000796,0.000854
2023-08-13,Calgary,0.00207,0.00204,0.00205
2023-08-14,Calgary,0.00238,0.00232,0.00235
2023-08-16,Calgary,0.00231,0.00235,0.00233
2023-08-21,Calgary,0.00183,0.00188,0.00186
2023-08-23,Calgary,0.0023,0.00199,0.00215
2023-08-27,Calgary,0.00318,0.00324,0.00321
2023-08-28,Calgary,0.00192,0.00191,0.00192
2023-08-30,Calgary,0.00573,0.00571,0.00572
2023-09-06,Calgary,0.00572,0.00528,0.0055
2023-09-11,Calgary,0.00294,0.00297,0.00295
2023-09-12,Calgary,0.0084,0.00843,0.00842
2023-09-13,Calgary,0.00358,0.00354,0.00356
2023-09-17,Calgary,0.00867,0.00846,0.00857
2023-09-18,Calgary,0.00588,0.00527,0.00558
2023-09-19,Calgary,0.0182,0.0173,0.0177
2023-09-20,Calgary,0.00559,0.0057,0.00564
2023-09-25,Calgary,0.00497,0.00485,0.00491
2023-09-27,Calgary,0.00275,0.00271,0.00273
2023-10-01,Calgary,0.00374,0.00346,0.0036
2023-10-04,Calgary,0.00851,0.00782,0.00817
2023-10-11,Calgary,0.00865,0.00902,0.00884
2023-10-15,Calgary,0.00858,0.00864,0.00861
2023-10-16,Calgary,0.00534,0.00511,0.00522
2023-10-17,Calgary,0.0082,0.00822,0.00821
2023-10-22,Calgary,0.00534,0.00461,0.00498
2023-10-23,Calgary,0.00281,0.00254,0.00267
2023-10-24,Calgary,0.00521,0.00503,0.00512
2023-10-30,Calgary,0.0034,0.00343,0.00342
2023-11-01,Calgary,0.00603,0.00573,0.00588
2023-11-06,Calgary,0.00717,0.00677,0.00697
2023-11-07,Calgary,0.00619,0.00629,0.00624
2023-11-08,Calgary,0.00143,0.00122,0.00133
2023-11-14,Calgary,0.0126,0.012,0.0123
2023-11-15,Calgary,0.0142,0.0135,0.0139
2023-11-20,Calgary,0.00367,0.00357,0.00362
2023-11-21,Calgary,0.0201,0.0184,0.0192
2023-11-22,Calgary,0.00801,0.00815,0.00808
2023-11-27,Calgary,0.00608,0.00575,0.00591
2023-11-29,Calgary,0.00708,0.00689,0.00699
2023-12-04,Calgary,0.0037,0.00348,0.00359
2023-12-05,Calgary,0.00346,0.00353,0.00349
2023-12-11,Calgary,0.00483,0.00485,0.00484
2023-12-13,Calgary,0.00901,0.00942,0.00921
2023-12-17,Calgary,0.00429,0.00438,0.00433
2023-12-18,Calgary,0.00529,0.00511,0.0052
2023-12-19,Calgary,0.00881,0.00867,0.00874
2024-01-02,Calgary,0.00467,0.00488,0.00477
2024-01-03,Calgary,0.00245,0.00224,0.00235
2024-01-07,Calgary,0.0044,0.00418,0.00429
2024-01-09,Calgary,0.0121,0.0111,0.0116
2024-01-10,Calgary,0.00489,0.00476,0.00483
2024-01-15,Calgary,0.00332,0.00341,0.00336
2024-01-16,Calgary,0.00583,0.00564,0.00574
2024-01-21,Calgary,0.00308,0.00298,0.00303
2024-01-23,Calgary,0.00743,0.00737,0.0074
2024-01-24,Calgary,0.00623,0.00586,0.00604
2024-01-28,Calgary,0.00224,0.00213,0.00218
2024-01-29,Calgary,0.00202,0.00186,0.00194
2024-01-31,Calgary,0.00409,0.00396,0.00402
2024-02-04,Calgary,0.00264,0.00229,0.00246
2024-02-07,Calgary,0.0065,0.00662,0.00656
2024-02-11,Calgary,0.00365,0.0035,0.00357
2024-02-12,Calgary,0.00256,0.00258,0.00257
2024-02-13,Calgary,0.00392,0.00388,0.0039
2024-02-21,Calgary,0.00247,0.00222,0.00234
2024-02-25,Calgary,0.00338,0.00329,0.00334
2024-02-26,Calgary,0.0021,0.00189,0.002
2024-02-27,Calgary,0.00498,0.00473,0.00486
2024-03-03,Calgary,0.00254,0.00236,0.00245
2024-03-04,Calgary,0.0015,0.00149,0.0015
2024-03-05,Calgary,0.0052,0.00476,0.00498
2024-03-06,Calgary,0.00401,0.0042,0.00411
2024-03-11,Calgary,0.0013,0.00126,0.00128
2024-03-12,Calgary,0.00251,0.00231,0.00241
2024-03-17,Calgary,0.00123,0.00104,0.00113
2024-03-18,Calgary,0.00064,0.00064,0.00064
2024-03-19,Calgary,0.00114,0.00115,0.00114
2024-03-20,Calgary,0.00197,0.00194,0.00196
2024-03-25,Calgary,0.000796,0.000729,0.000763
2024-03-27,Calgary,0.000659,0.000737,0.000698
2024-03-31,Calgary,0.000807,0.000738,0.000772
2024-04-03,Calgary,0.000941,0.00099,0.000966
2024-04-07,Calgary,0.00122,0.00105,0.00113
2024-04-08,Calgary,0.000728,0.000581,0.000654
2024-04-10,Calgary,0.000905,0.000876,0.000891
2024-04-14,Calgary,0.000699,0.000729,0.000714
2024-04-16,Calgary,0.000904,0.000933,0.000918
2024-04-21,Calgary,0.00106,0.000766,0.000914
2024-04-22,Calgary,0.00186,0.00181,0.00184
2024-04-23,Calgary,0.00303,0.00268,0.00285
2024-04-24,Calgary,0.00397,0.004,0.00398
2024-04-28,Calgary,0.00171,0.0017,0.0017
2024-04-30,Calgary,0.00183,0.00162,0.00172
2024-05-01,Calgary,0.00246,0.00238,0.00242
2024-05-06,Calgary,0.00114,0.0011,0.00112
2024-05-08,Calgary,0.00153,0.00148,0.0015
2024-05-13,Calgary,0.002,0.00198,0.00199
2024-05-14,Calgary,0.00289,0.0028,0.00284
2024-05-21,Calgary,0.00147,0.00119,0.00133
2024-05-22,Calgary,0.00169,0.00148,0.00159
2024-05-26,Calgary,0.00259,0.00225,0.00242
2024-05-27,Calgary,0.00261,0.00246,0.00253
2024-05-29,Calgary,0.00527,0.00496,0.00511
2024-06-02,Calgary,0.00213,0.00204,0.00208
2024-06-04,Calgary,0.00233,0.00239,0.00236
2024-06-05,Calgary,0.00278,0.00264,0.00271
2024-06-09,Calgary,0.00289,0.00264,0.00276
2024-06-11,Calgary,0.00417,0.00395,0.00406
2024-06-17,Calgary,0.00406,0.004,0.00403
2024-06-18,Calgary,0.00403,0.004,0.00401
2024-06-19,Calgary,0.00258,0.00265,0.00262
2024-06-23,Calgary,0.00331,0.00333,0.00332
2024-07-02,Calgary,0.00366,0.00327,0.00347
2024-07-07,Calgary,0.00289,0.00266,0.00278
2024-07-10,Calgary,0.00331,0.00305,0.00318
2024-07-14,Calgary,0.00494,0.00497,0.00496
2024-07-15,Calgary,0.00467,0.00401,0.00434
2024-07-16,Calgary,0.00687,0.00508,0.00598
2024-07-20,Calgary,0.00521,0.0048,0.00501
2024-07-21,Calgary,0.00416,0.00391,0.00403
2024-07-24,Calgary,0.0037,0.0037,0.0037
2024-07-28,Calgary,0.00377,0.00356,0.00366
2024-07-29,Calgary,0.00477,0.00434,0.00456
2024-07-29,Calgary,0.00844,0.0088,0.00862
2024-07-30,Calgary,0.00411,0.00411,0.00411
2024-08-06,Calgary,0.00313,0.00266,0.00289
2024-08-11,Calgary,0.00284,0.00252,0.00268
2024-08-12,Calgary,0.00243,0.00226,0.00234
2024-08-13,Calgary,0.00537,0.00482,0.0051
2024-08-15,Calgary,0.008,0.0074,0.0077
2024-08-18,Calgary,0.00269,0.00248,0.00258
2024-08-19,Calgary,0.00238,0.00249,0.00243
2024-08-20,Calgary,0.0062,0.00584,0.00602
2024-08-21,Calgary,0.00234,0.0025,0.00242
2024-08-26,Calgary,0.00239,0.00218,0.00228
2024-08-27,Calgary,0.00563,0.00516,0.00539
2024-08-28,Calgary,0.00302,0.00305,0.00304
2024-09-03,Calgary,0.00357,0.00269,0.00313
2024-09-04,Calgary,0.00301,0.00267,0.00284
2024-09-09,Calgary,0.00333,0.00283,0.00308
2024-09-11,Calgary,0.0037,0.00354,0.00362
2024-09-15,Calgary,0.00336,0.003,0.00318
2024-09-18,Calgary,0.00373,0.0038,0.00376
2024-09-22,Calgary,0.00263,0.00248,0.00255
2024-09-23,Calgary,0.00322,0.00289,0.00305
2024-09-25,Calgary,0.00363,0.00352,0.00357
2024-10-02,Calgary,0.00539,0.00517,0.00528
2024-10-06,Calgary,0.00306,0.00359,0.00333
2024-10-07,Calgary,0.00108,0.00125,0.00117
2024-10-07,Calgary,0.00235,0.00213,0.00224
2024-10-08,Calgary,0.00284,0.00276,0.0028
2024-10-15,Calgary,0.00392,0.00369,0.0038
2024-10-16,Calgary,0.00283,0.003,0.00292
2024-10-21,Calgary,0.0036,0.0036,0.0036
2024-10-22,Calgary,0.00116,0.000591,0.000874
2024-10-23,Calgary,0.00216,0.00216,0.00216
2024-10-27,Calgary,0.00192,0.00201,0.00197
2024-10-28,Calgary,0.00122,0.00108,0.00115
2024-10-28,Calgary,0.00147,0.00147,0.00147
2024-10-29,Calgary,0.00816,0.00827,0.00821
2024-10-30,Calgary,0.00279,0.00296,0.00287
2024-11-04,Calgary,0.00467,0.0047,0.00469
2024-11-13,Calgary,0.00263,0.00273,0.00268
2024-11-17,Calgary,0.0028,0.00277,0.00279
2024-11-18,Calgary,0.00145,0.00131,0.00138
2024-11-19,Calgary,0.0036,0.00371,0.00365
2024-11-24,Calgary,0.00218,0.00198,0.00208
2024-11-26,Calgary,0.00465,0.0043,0.00447
2024-11-27,Calgary,0.00361,0.00383,0.00372
2024-12-01,Calgary,0.00224,0.00216,0.0022
2024-12-02,Calgary,0.00185,0.00166,0.00176
2024-12-03,Calgary,0.00243,0.00275,0.00259
2024-12-08,Calgary,0.00204,0.00214,0.00209
2024-12-10,Calgary,0.00277,0.00279,0.00278
2024-12-16,Calgary,0.000737,0.000747,0.000742
2025-01-05,Calgary,0.00114,0.000942,0.00104
2025-01-08,Calgary,0.001,0.000976,0.00099
2025-01-12,Calgary,0.00108,0.00105,0.00106
2025-01-13,Calgary,0.00095,0.000935,0.000943
2025-01-14,Calgary,0.000806,0.000835,0.000821
2025-01-19,Calgary,0.000611,0.000573,0.000592
2025-01-21,Calgary,0.000836,0.000904,0.00087
2025-01-26,Calgary,0.000874,0.000965,0.00092
2025-01-27,Calgary,0.000583,0.000511,0.000547
2025-02-02,Calgary,0.000378,0.000409,0.000394
2025-02-04,Calgary,0.000612,0.000581,0.000597
2025-02-05,Calgary,0.00152,0.00141,0.00146
2025-02-10,Calgary,0.000548,0.000597,0.000572
2025-02-11,Calgary,0.00068,0.000612,0.000646
2025-02-18,Calgary,0.00035,0.000378,0.000364
2025-02-19,Calgary,0.0007,0.000598,0.000649
2025-02-23,Calgary,0.000408,0.000408,0.000408
2025-02-23,Calgary,0.000502,0.000533,0.000517
2025-02-25,Calgary,0.00033,0.000379,0.000355
2025-03-02,Calgary,0.000504,0.000504,0.000504
2023-07-02,Edmonton,0.000485,0.000441,0.000463
2023-07-05,Edmonton,0.000133,0.000313,0.000223
2023-07-09,Edmonton,0.00164,0.0015,0.00157
2023-07-16,Edmonton,0.00164,0.00181,0.00173
2023-07-18,Edmonton,0.000665,0.000931,0.000798
2023-07-23,Edmonton,0.0016,0.00146,0.00153
2023-07-25,Edmonton,0.00235,0.00226,0.0023
2023-07-30,Edmonton,0.0023,0.00226,0.00228
2023-08-01,Edmonton,0.00152,0.00174,0.00163
2023-08-08,Edmonton,0.00136,0.0014,0.00138
2023-08-13,Edmonton,0.0019,0.00208,0.00199
2023-08-16,Edmonton,0.00652,0.00647,0.0065
2023-08-20,Edmonton,0.00274,0.00283,0.00279
2023-08-22,Edmonton,0.00363,0.00368,0.00365
2023-08-27,Edmonton,0.00305,0.00319,0.00312
2023-08-29,Edmonton,0.00359,0.00337,0.00348
2023-09-03,Edmonton,0.00617,0.00585,0.00601
2023-09-05,Edmonton,0.00672,0.00631,0.00651
2023-09-10,Edmonton,0.00615,0.00557,0.00586
2023-09-17,Edmonton,0.0088,0.00741,0.00811
2023-09-19,Edmonton,0.0161,0.0159,0.016
2023-09-24,Edmonton,0.0135,0.0136,0.0136
2023-09-26,Edmonton,0.00701,0.00746,0.00723
2023-10-03,Edmonton,0.0328,0.032,0.0324
2023-10-08,Edmonton,0.00522,0.00473,0.00497
2023-10-10,Edmonton,0.00341,0.00332,0.00337
2023-10-15,Edmonton,0.0108,0.0108,0.0108
2023-10-17,Edmonton,0.0161,0.0164,0.0162
2023-10-22,Edmonton,0.00837,0.00814,0.00826
2023-10-24,Edmonton,0.0183,0.0191,0.0187
2023-10-30,Edmonton,0.012,0.0117,0.0119
2023-10-31,Edmonton,0.0147,0.0139,0.0143
2023-11-05,Edmonton,0.0152,0.0144,0.0148
2023-11-07,Edmonton,0.0147,0.0143,0.0145
2023-11-12,Edmonton,0.0131,0.0123,0.0127
2023-11-14,Edmonton,0.0136,0.0129,0.0132
2023-11-19,Edmonton,0.0117,0.0109,0.0113
2023-11-22,Edmonton,0.0181,0.0184,0.0183
2023-11-27,Edmonton,0.0129,0.0124,0.0127
2023-11-28,Edmonton,0.0129,0.013,0.013
2023-12-03,Edmonton,0.0113,0.0108,0.0111
2023-12-05,Edmonton,0.0171,0.0163,0.0167
2023-12-10,Edmonton,0.0071,0.00719,0.00715
2023-12-13,Edmonton,0.0131,0.0161,0.0146
2023-12-17,Edmonton,0.00692,0.00647,0.0067
2023-12-19,Edmonton,0.013,0.0129,0.013
2024-01-03,Edmonton,0.00875,0.00857,0.00866
2024-01-07,Edmonton,0.00809,0.00765,0.00787
2024-01-09,Edmonton,0.00844,0.00831,0.00838
2024-01-14,Edmonton,0.00795,0.00839,0.00817
2024-01-16,Edmonton,0.0112,0.0104,0.0108
2024-01-21,Edmonton,0.00483,0.00545,0.00514
2024-01-23,Edmonton,0.00766,0.00645,0.00706
2024-01-28,Edmonton,0.00554,0.00523,0.00539
2024-01-30,Edmonton,0.00209,0.00186,0.00198
2024-02-04,Edmonton,0.00608,0.00514,0.00561
2024-02-06,Edmonton,0.00737,0.00661,0.00699
2024-02-11,Edmonton,0.00643,0.00563,0.00603
2024-02-13,Edmonton,0.0102,0.00995,0.0101
2024-02-18,Edmonton,0.00359,0.00337,0.00348
2024-02-20,Edmonton,0.00567,0.0055,0.00559
2024-02-25,Edmonton,0.00381,0.00319,0.0035
2024-02-27,Edmonton,0.00652,0.00617,0.00634
2024-03-03,Edmonton,0.00346,0.00283,0.00315
2024-03-05,Edmonton,0.00332,0.00323,0.00328
2024-03-10,Edmonton,0.00267,0.00267,0.00267
2024-03-12,Edmonton,0.00137,0.00128,0.00133
2024-03-17,Edmonton,0.00204,0.00186,0.00195
2024-03-19,Edmonton,0.00288,0.00239,0.00263
2024-03-24,Edmonton,0.000931,0.000884,0.000907
2024-03-26,Edmonton,0.00279,0.00261,0.0027
2024-03-31,Edmonton,0.00172,0.00119,0.00146
2024-04-07,Edmonton,0.00138,0.00179,0.00159
2024-04-09,Edmonton,0.00374,0.00378,0.00376
2024-04-14,Edmonton,0.00266,0.00244,0.00255
2024-04-16,Edmonton,0.00297,0.00226,0.00261
2024-04-21,Edmonton,0.00648,0.00568,0.00608
2024-04-23,Edmonton,0.00388,0.00352,0.0037
2024-04-28,Edmonton,0.00403,0.00314,0.00359
2024-04-30,Edmonton,0.0133,0.0124,0.0128
2024-05-05,Edmonton,0.00212,0.00208,0.0021
2024-05-12,Edmonton,0.00314,0.00274,0.00294
2024-05-14,Edmonton,0.00403,0.00412,0.00408
2024-05-19,Edmonton,0.00212,0.00199,0.00206
2024-05-21,Edmonton,0.00361,0.0033,0.00346
2024-05-26,Edmonton,0.0039,0.0035,0.0037
2024-05-28,Edmonton,0.00768,0.00737,0.00752
2024-06-02,Edmonton,0.00492,0.00457,0.00474
2024-06-04,Edmonton,0.00337,0.00266,0.00301
2024-06-09,Edmonton,0.00164,0.00133,0.00148
2024-06-11,Edmonton,0.0031,0.0031,0.0031
2024-06-16,Edmonton,0.00488,0.00448,0.00468
2024-06-18,Edmonton,0.0067,0.00617,0.00643
2024-06-23,Edmonton,0.00572,0.00608,0.0059
2024-06-30,Edmonton,0.00661,0.00594,0.00628
2024-07-02,Edmonton,0.00396,0.00388,0.00392
2024-07-07,Edmonton,0.0047,0.00403,0.00436
2024-07-09,Edmonton,0.00405,0.00359,0.00382
2024-07-10,Edmonton,0.00377,0.00306,0.00341
2024-07-16,Edmonton,0.00394,0.00314,0.00354
2024-07-17,Edmonton,0.00801,0.00796,0.00798
2024-07-23,Edmonton,0.00492,0.0047,0.00481
2024-07-24,Edmonton,0.00559,0.00559,0.00559
2024-07-30,Edmonton,0.00398,0.00407,0.00403
2024-07-31,Edmonton,0.00221,0.00208,0.00215
2024-08-06,Edmonton,0.00248,0.0027,0.00259
2024-08-07,Edmonton,0.00339,0.00317,0.00328
2024-08-13,Edmonton,0.00436,0.00418,0.00427
2024-08-14,Edmonton,0.00428,0.00392,0.0041
2024-08-20,Edmonton,0.00317,0.0029,0.00304
2024-08-21,Edmonton,0.00301,0.00301,0.00301
2024-08-27,Edmonton,0.00307,0.00262,0.00284
2024-08-28,Edmonton,0.00381,0.00328,0.00355
2024-09-03,Edmonton,0.00538,0.0048,0.00509
2024-09-04,Edmonton,0.00556,0.00501,0.00529
2024-09-04,Edmonton,0.00556,0.00501,0.00529
2024-09-08,Edmonton,0.00321,0.00267,0.00294
2024-09-08,Edmonton,0.00321,0.00267,0.00294
2024-09-10,Edmonton,0.00493,0.00533,0.00513
2024-09-15,Edmonton,0.00356,0.00309,0.00332
2024-09-17,Edmonton,0.00578,0.00511,0.00545
2024-09-22,Edmonton,0.00499,0.00481,0.0049
2024-09-24,Edmonton,0.00462,0.00435,0.00449
2024-09-29,Edmonton,0.00474,0.00452,0.00463
2024-10-01,Edmonton,0.00701,0.00617,0.00659
2024-10-06,Edmonton,0.00381,0.00341,0.00361
2024-10-08,Edmonton,0.00577,0.00484,0.0053
2024-10-13,Edmonton,0.006,0.00667,0.00634
2024-10-15,Edmonton,0.00688,0.00777,0.00732
2024-10-20,Edmonton,0.00608,0.00648,0.00628
2024-10-22,Edmonton,0.00519,0.00456,0.00488
2024-10-27,Edmonton,0.00328,0.00302,0.00315
2024-10-29,Edmonton,0.00737,0.00714,0.00725
2024-11-03,Edmonton,0.00715,0.00657,0.00686
2024-11-10,Edmonton,0.00739,0.0069,0.00714
2024-11-12,Edmonton,0.00614,0.00703,0.00658
2024-11-17,Edmonton,0.00445,0.00418,0.00431
2024-11-19,Edmonton,0.0056,0.0056,0.0056
2024-11-24,Edmonton,0.00585,0.0055,0.00568
2024-11-26,Edmonton,0.00491,0.00504,0.00497
2024-12-01,Edmonton,0.0067,0.00617,0.00644
2024-12-03,Edmonton,0.00546,0.00569,0.00557
2024-12-08,Edmonton,0.00442,0.00399,0.0042
2024-12-10,Edmonton,0.00568,0.00546,0.00557
2024-12-16,Edmonton,0.0044,0.00431,0.00435
2024-12-16,Edmonton,0.0044,0.00431,0.00435
2024-12-16,Edmonton,0.0044,0.00431,0.00435
2024-12-16,Edmonton,0.0044,0.00431,0.00435
2024-12-31,Edmonton,0.0031,0.00292,0.00301
2025-01-08,Edmonton,0.00133,0.00106,0.0012
2025-01-12,Edmonton,0.000931,0.00164,0.00128
2025-01-14,Edmonton,0.0012,0.00142,0.00131
2025-01-19,Edmonton,0.000532,0.000399,0.000465
2025-01-21,Edmonton,0.00116,0.00125,0.00121
2025-01-26,Edmonton,0.000884,0.000665,0.000774
2025-02-02,Edmonton,0.00133,0.00133,0.00133
2025-02-04,Edmonton,0.000931,0.000755,0.000843
2025-02-09,Edmonton,0.000622,0.000532,0.000577
2025-02-12,Edmonton,0.000751,0.000575,0.000663
2025-02-16,Edmonton,0.000266,0.000223,0.000245
2025-02-18,Edmonton,0.000849,0.000583,0.000716
2025-02-23,Edmonton,0.000899,0.00043,0.000665
2025-02-25,Edmonton,0.000489,0.000532,0.00051
2025-03-02,Edmonton,0.000223,0.000223,0.000223
2023-07-06,Fort McMurray,0.00134,0.00134,0.00134
2023-07-10,Fort McMurray,0.0122,0.0116,0.0119
2023-07-13,Fort McMurray,0.00426,0.00491,0.00458
2023-07-17,Fort McMurray,0.00426,0.00549,0.00488
2023-07-24,Fort McMurray,0.022,0.0207,0.0214
2023-07-27,Fort McMurray,0.00857,0.00732,0.00795
2023-07-31,Fort McMurray,0.00549,0.00668,0.00609
2023-08-02,Fort McMurray,0.000598,0.000598,0.000598
2023-08-09,Fort McMurray,0.0195,0.0152,0.0174
2023-08-14,Fort McMurray,0.0147,0.0129,0.0138
2023-08-16,Fort McMurray,0.00916,0.00851,0.00883
2023-08-21,Fort McMurray,0.0325,0.0319,0.0322
2023-08-23,Fort McMurray,0.0264,0.0252,0.0258
2023-09-06,Fort McMurray,0.0574,0.0592,0.0583
2023-09-11,Fort McMurray,0.0464,0.0451,0.0458
2023-09-13,Fort McMurray,0.0439,0.0402,0.0421
2023-09-18,Fort McMurray,0.0201,0.0207,0.0204
2023-09-20,Fort McMurray,0.0473,0.0473,0.0473
2023-09-25,Fort McMurray,0.0439,0.0409,0.0424
2023-09-27,Fort McMurray,0.0692,0.0618,0.0655
2023-10-02,Fort McMurray,0.0341,0.0274,0.0308
2023-10-04,Fort McMurray,0.0287,0.0336,0.0311
2023-10-11,Fort McMurray,0.0543,0.0543,0.0543
2023-10-16,Fort McMurray,0.0561,0.0512,0.0537
2023-10-18,Fort McMurray,0.0519,0.05,0.051
2023-10-23,Fort McMurray,0.0592,0.0561,0.0577
2023-10-25,Fort McMurray,0.0947,0.0868,0.0908
2023-10-30,Fort McMurray,0.0778,0.0741,0.0759
2023-11-01,Fort McMurray,0.111,0.111,0.111
2023-11-06,Fort McMurray,0.14,0.145,0.143
2023-11-08,Fort McMurray,0.116,0.124,0.12
2023-11-15,Fort McMurray,0.143,0.138,0.141
2023-11-20,Fort McMurray,0.111,0.0953,0.103
2023-11-22,Fort McMurray,0.21,0.19,0.2
2023-11-27,Fort McMurray,0.172,0.164,0.168
2023-11-29,Fort McMurray,0.178,0.182,0.18
2023-12-04,Fort McMurray,0.178,0.17,0.174
2023-12-06,Fort McMurray,0.0403,0.0379,0.0391
2023-12-11,Fort McMurray,0.108,0.103,0.105
2023-12-13,Fort McMurray,0.178,0.182,0.18
2023-12-18,Fort McMurray,0.077,0.08,0.0785
2023-12-20,Fort McMurray,0.106,0.1,0.103
2024-01-04,Fort McMurray,0.0904,0.0825,0.0865
2024-01-08,Fort McMurray,0.15,0.142,0.146
2024-01-10,Fort McMurray,0.205,0.195,0.2
2024-01-15,Fort McMurray,0.00668,0.0103,0.00851
2024-01-17,Fort McMurray,0.14,0.135,0.137
2024-01-22,Fort McMurray,0.298,0.28,0.289
2024-01-24,Fort McMurray,0.297,0.284,0.29
2024-01-29,Fort McMurray,0.174,0.167,0.171
2024-01-31,Fort McMurray,0.0506,0.0476,0.0491
2024-02-05,Fort McMurray,0.164,0.15,0.157
2024-02-07,Fort McMurray,0.295,0.283,0.289
2024-02-12,Fort McMurray,0.33,0.318,0.324
2024-02-14,Fort McMurray,0.389,0.383,0.386
2024-02-21,Fort McMurray,0.0881,0.0966,0.0923
2024-02-26,Fort McMurray,0.07,0.0638,0.0669
2024-02-28,Fort McMurray,0.0809,0.0784,0.0797
2024-03-04,Fort McMurray,0.0879,0.0788,0.0834
2024-03-06,Fort McMurray,0.108,0.104,0.106
2024-03-11,Fort McMurray,0.0366,0.0341,0.0354
2024-03-13,Fort McMurray,0.069,0.0709,0.07
2024-03-18,Fort McMurray,0.0226,0.0195,0.021
2024-03-20,Fort McMurray,0.0313,0.0227,0.027
2024-03-25,Fort McMurray,0.0214,0.0208,0.0211
2024-03-27,Fort McMurray,0.014,0.0122,0.0131
2024-04-02,Fort McMurray,0.0293,0.0268,0.0281
2024-04-03,Fort McMurray,0.00668,0.00485,0.00576
2024-04-08,Fort McMurray,0.014,0.0122,0.0131
2024-04-15,Fort McMurray,0.00549,0.00426,0.00488
2024-04-17,Fort McMurray,0.0244,0.0237,0.0241
2024-04-22,Fort McMurray,0.0341,0.0354,0.0348
2024-04-24,Fort McMurray,0.0128,0.00974,0.0113
2024-04-29,Fort McMurray,0.0415,0.0324,0.0369
2024-05-01,Fort McMurray,0.0256,0.0189,0.0223
2024-05-06,Fort McMurray,0.00792,0.00732,0.00762
2024-05-08,Fort McMurray,0.0238,0.0207,0.0223
2024-05-13,Fort McMurray,0.0232,0.0207,0.022
2024-05-22,Fort McMurray,0.0604,0.0506,0.0555
2024-05-27,Fort McMurray,0.0545,0.0539,0.0542
2024-05-29,Fort McMurray,0.0757,0.0721,0.0739
2024-06-03,Fort McMurray,0.0336,0.0366,0.0351
2024-06-05,Fort McMurray,0.0635,0.061,0.0623
2024-06-10,Fort McMurray,0.0275,0.022,0.0247
2024-06-12,Fort McMurray,0.0617,0.0512,0.0565
2024-06-17,Fort McMurray,0.0244,0.0299,0.0272
2024-06-19,Fort McMurray,0.0152,0.0268,0.021
2024-06-24,Fort McMurray,0.0268,0.0274,0.0271
2024-07-02,Fort McMurray,0.0134,0.0103,0.0119
2024-07-08,Fort McMurray,0.0201,0.0171,0.0186
2024-07-22,Fort McMurray,0.0173,0.0186,0.018
2024-07-24,Fort McMurray,0.0251,0.0233,0.0242
2024-07-29,Fort McMurray,0.0465,0.0465,0.0465
2024-07-31,Fort McMurray,0.0362,0.0319,0.034
2024-08-05,Fort McMurray,0.0201,0.022,0.0211
2024-08-07,Fort McMurray,0.0281,0.0238,0.0259
2024-08-12,Fort McMurray,0.0208,0.0232,0.022
2024-08-14,Fort McMurray,0.0798,0.0718,0.0758
2024-08-19,Fort McMurray,0.0276,0.0307,0.0292
2024-08-21,Fort McMurray,0.0134,0.0207,0.0171
2024-08-26,Fort McMurray,0.0336,0.0299,0.0317
2024-08-28,Fort McMurray,0.022,0.0214,0.0217
2024-09-04,Fort McMurray,0.124,0.117,0.12
2024-09-09,Fort McMurray,0.126,0.111,0.119
2024-09-09,Fort McMurray,0.126,0.111,0.119
2024-09-16,Fort McMurray,0.0804,0.0595,0.07
2024-09-18,Fort McMurray,0.0879,0.0823,0.0851
2024-09-23,Fort McMurray,0.0675,0.0626,0.0651
2024-09-25,Fort McMurray,0.0527,0.0514,0.0521
2024-10-02,Fort McMurray,0.025,0.022,0.0235
2024-10-07,Fort McMurray,0.0281,0.0268,0.0274
2024-10-09,Fort McMurray,0.0727,0.0751,0.0739
2024-10-16,Fort McMurray,0.0691,0.0556,0.0624
2024-10-21,Fort McMurray,0.0385,0.0471,0.0428
2024-10-23,Fort McMurray,0.0893,0.0831,0.0862
2024-10-28,Fort McMurray,0.0153,0.0135,0.0144
2024-10-30,Fort McMurray,0.0248,0.0436,0.0342
2024-11-04,Fort McMurray,0.0624,0.0594,0.0609
2024-11-13,Fort McMurray,0.0501,0.0452,0.0477
2024-11-18,Fort McMurray,0.0592,0.0482,0.0537
2024-11-20,Fort McMurray,0.057,0.0539,0.0555
2024-11-25,Fort McMurray,0.0244,0.0238,0.0241
2024-11-27,Fort McMurray,0.0448,0.0473,0.0461
2024-12-02,Fort McMurray,0.0568,0.0574,0.0571
2024-12-04,Fort McMurray,0.111,0.109,0.11
2024-12-09,Fort McMurray,0.0439,0.0415,0.0427
2024-12-11,Fort McMurray,0.0351,0.0326,0.0338
2025-01-06,Fort McMurray,0.0214,0.0214,0.0214
2025-01-08,Fort McMurray,0.0196,0.019,0.0193
2025-01-13,Fort McMurray,0.022,0.0275,0.0247
2025-01-15,Fort McMurray,0.0992,0.101,0.1
2025-01-20,Fort McMurray,0.0214,0.0201,0.0208
2025-01-22,Fort McMurray,0.0281,0.0349,0.0315
2025-02-03,Fort McMurray,0.0287,0.0275,0.0281
2025-02-05,Fort McMurray,0.0233,0.0159,0.0196
2025-02-10,Fort McMurray,0.0178,0.0171,0.0175
2025-02-12,Fort McMurray,0.00857,0.00857,0.00857
2025-02-19,Fort McMurray,0.00916,0.0104,0.00978
2025-02-24,Fort McMurray,0.0306,0.0257,0.0281
2025-02-26,Fort McMurray,0.00922,0.00922,0.00922
2025-03-03,Fort McMurray,0.00851,0.0122,0.0103
2023-07-06,Fort Saskatchewan,0.0,0.0,0.0
2023-07-10,Fort Saskatchewan,0.00102,0.00102,0.00102
2023-07-12,Fort Saskatchewan,0.00102,0.00136,0.00119
2023-07-17,Fort Saskatchewan,0.00283,0.0026,0.00271
2023-07-20,Fort Saskatchewan,0.0026,0.00294,0.00277
2023-07-24,Fort Saskatchewan,0.00204,0.00226,0.00215
2023-07-27,Fort Saskatchewan,0.00249,0.00147,0.00198
2023-07-31,Fort Saskatchewan,0.00283,0.00362,0.00322
2023-08-03,Fort Saskatchewan,0.00271,0.0017,0.0022
2023-08-14,Fort Saskatchewan,0.00147,0.00136,0.00141
2023-08-17,Fort Saskatchewan,0.00351,0.00261,0.00306
2023-08-21,Fort Saskatchewan,0.00181,0.00181,0.00181
2023-08-24,Fort Saskatchewan,0.00362,0.00306,0.00334
2023-08-28,Fort Saskatchewan,0.0109,0.00894,0.00991
2023-08-31,Fort Saskatchewan,0.00792,0.00701,0.00747
2023-09-05,Fort Saskatchewan,0.00803,0.00871,0.00837
2023-09-06,Fort Saskatchewan,0.00588,0.00555,0.00571
2023-09-10,Fort Saskatchewan,0.00905,0.00803,0.00854
2023-09-17,Fort Saskatchewan,0.00656,0.00599,0.00628
2023-09-21,Fort Saskatchewan,0.0194,0.0183,0.0188
2023-09-24,Fort Saskatchewan,0.0127,0.0125,0.0126
2023-09-28,Fort Saskatchewan,0.00826,0.00882,0.00854
2023-10-05,Fort Saskatchewan,0.00701,0.00679,0.0069
2023-10-16,Fort Saskatchewan,0.0112,0.0117,0.0114
2023-10-18,Fort Saskatchewan,0.00531,0.00656,0.00594
2023-10-22,Fort Saskatchewan,0.0242,0.0229,0.0236
2023-10-26,Fort Saskatchewan,0.0218,0.021,0.0214
2023-10-30,Fort Saskatchewan,0.00487,0.00431,0.00459
2023-11-02,Fort Saskatchewan,0.0239,0.0224,0.0231
2023-11-06,Fort Saskatchewan,0.0154,0.0147,0.015
2023-11-09,Fort Saskatchewan,0.00713,0.00713,0.00713
2023-11-16,Fort Saskatchewan,0.0404,0.0399,0.0401
2023-11-20,Fort Saskatchewan,0.0476,0.0408,0.0442
2023-11-23,Fort Saskatchewan,0.0361,0.0356,0.0359
2023-11-27,Fort Saskatchewan,0.0315,0.0279,0.0297
2023-11-30,Fort Saskatchewan,0.0479,0.0472,0.0475
2023-12-04,Fort Saskatchewan,0.0136,0.0117,0.0126
2023-12-07,Fort Saskatchewan,0.0147,0.0147,0.0147
2023-12-11,Fort Saskatchewan,0.0137,0.0118,0.0127
2023-12-13,Fort Saskatchewan,0.045,0.0569,0.0509
2023-12-18,Fort Saskatchewan,0.0228,0.0259,0.0243
2023-12-21,Fort Saskatchewan,0.0213,0.0183,0.0198
2024-01-04,Fort Saskatchewan,0.00774,0.00694,0.00734
2024-01-08,Fort Saskatchewan,0.0139,0.0129,0.0134
2024-01-11,Fort Saskatchewan,0.00351,0.00373,0.00362
2024-01-15,Fort Saskatchewan,0.0156,0.0162,0.0159
2024-01-18,Fort Saskatchewan,0.013,0.0128,0.0129
2024-01-22,Fort Saskatchewan,0.0148,0.0135,0.0142
2024-01-25,Fort Saskatchewan,0.0176,0.0167,0.0172
2024-02-01,Fort Saskatchewan,0.0177,0.0166,0.0171
2024-02-05,Fort Saskatchewan,0.00895,0.00768,0.00832
2024-02-08,Fort Saskatchewan,0.0191,0.0207,0.0199
2024-02-11,Fort Saskatchewan,0.00593,0.00571,0.00582
2024-02-15,Fort Saskatchewan,0.0142,0.0136,0.0139
2024-02-22,Fort Saskatchewan,0.0106,0.00837,0.00951
2024-02-26,Fort Saskatchewan,0.00861,0.00895,0.00878
2024-02-29,Fort Saskatchewan,0.0155,0.0155,0.0155
2024-03-04,Fort Saskatchewan,0.00724,0.00679,0.00702
2024-03-06,Fort Saskatchewan,0.00667,0.00837,0.00752
2024-03-11,Fort Saskatchewan,0.00452,0.00452,0.00452
2024-03-14,Fort Saskatchewan,0.00508,0.00487,0.00497
2024-03-18,Fort Saskatchewan,0.00679,0.00789,0.00734
2024-03-21,Fort Saskatchewan,0.00306,0.00373,0.00339
2024-03-25,Fort Saskatchewan,0.00215,0.00294,0.00254
2024-03-28,Fort Saskatchewan,0.00226,0.00271,0.00248
2024-04-01,Fort Saskatchewan,0.0048,0.0048,0.0048
2024-04-04,Fort Saskatchewan,0.00091,0.00228,0.00159
2024-04-08,Fort Saskatchewan,0.0102,0.00789,0.00904
2024-04-11,Fort Saskatchewan,0.00396,0.00339,0.00367
2024-04-15,Fort Saskatchewan,0.00272,0.00339,0.00305
2024-04-22,Fort Saskatchewan,0.00815,0.00725,0.0077
2024-04-25,Fort Saskatchewan,0.00701,0.00621,0.00661
2024-04-29,Fort Saskatchewan,0.0034,0.0023,0.00285
2024-05-02,Fort Saskatchewan,0.00679,0.0034,0.00509
2024-05-06,Fort Saskatchewan,0.0069,0.0061,0.0065
2024-05-13,Fort Saskatchewan,0.00521,0.00497,0.00509
2024-05-16,Fort Saskatchewan,0.00752,0.00775,0.00764
2024-05-23,Fort Saskatchewan,0.00828,0.0085,0.00839
2024-05-27,Fort Saskatchewan,0.0108,0.00837,0.00957
2024-05-30,Fort Saskatchewan,0.00848,0.00769,0.00809
2024-06-03,Fort Saskatchewan,0.00939,0.00678,0.00809
2024-06-06,Fort Saskatchewan,0.00407,0.00475,0.00441
2024-06-10,Fort Saskatchewan,0.00475,0.0043,0.00452
2024-06-13,Fort Saskatchewan,0.0119,0.012,0.0119
2024-06-17,Fort Saskatchewan,0.00996,0.00905,0.00951
2024-06-20,Fort Saskatchewan,0.00881,0.00985,0.00933
2024-06-24,Fort Saskatchewan,0.00837,0.00882,0.0086
2024-07-04,Fort Saskatchewan,0.00453,0.0043,0.00441
2024-07-08,Fort Saskatchewan,0.00577,0.00565,0.00571
2024-07-15,Fort Saskatchewan,0.00527,0.00527,0.00527
2024-07-18,Fort Saskatchewan,0.00563,0.00437,0.005
2024-07-22,Fort Saskatchewan,0.00375,0.00398,0.00386
2024-07-25,Fort Saskatchewan,0.00408,0.00509,0.00459
2024-07-29,Fort Saskatchewan,0.00746,0.00577,0.00661
2024-08-08,Fort Saskatchewan,0.00883,0.00792,0.00838
2024-08-12,Fort Saskatchewan,0.00771,0.006,0.00686
2024-08-15,Fort Saskatchewan,0.011,0.011,0.011
2024-08-19,Fort Saskatchewan,0.00334,0.00265,0.00299
2024-08-22,Fort Saskatchewan,0.00555,0.00442,0.00498
2024-08-26,Fort Saskatchewan,0.00396,0.00419,0.00407
2024-08-29,Fort Saskatchewan,0.00977,0.00988,0.00983
2024-09-05,Fort Saskatchewan,0.0101,0.00931,0.00971
2024-09-09,Fort Saskatchewan,0.00966,0.00897,0.00932
2024-09-09,Fort Saskatchewan,0.00966,0.00897,0.00932
2024-09-12,Fort Saskatchewan,0.00936,0.00924,0.0093
2024-09-16,Fort Saskatchewan,0.0124,0.00791,0.0101
2024-09-19,Fort Saskatchewan,0.058,0.041,0.0495
2024-09-23,Fort Saskatchewan,0.0135,0.0116,0.0125
2024-09-26,Fort Saskatchewan,0.015,0.0164,0.0157
2024-10-03,Fort Saskatchewan,0.011,0.011,0.011
2024-10-07,Fort Saskatchewan,0.0125,0.0636,0.0381
2024-10-09,Fort Saskatchewan,0.0109,0.012,0.0115
2024-10-17,Fort Saskatchewan,0.00505,0.00448,0.00476
2024-10-21,Fort Saskatchewan,0.0118,0.0117,0.0117
2024-10-24,Fort Saskatchewan,0.0092,0.00874,0.00897
2024-10-28,Fort Saskatchewan,0.00622,0.00679,0.00651
2024-10-31,Fort Saskatchewan,0.00909,0.00909,0.00909
2024-11-04,Fort Saskatchewan,0.015,0.0155,0.0152
2024-11-07,Fort Saskatchewan,0.0102,0.013,0.0116
2024-11-14,Fort Saskatchewan,0.0084,0.00874,0.00857
2024-11-18,Fort Saskatchewan,0.0109,0.0109,0.0109
2024-11-21,Fort Saskatchewan,0.00615,0.00501,0.00558
2024-11-25,Fort Saskatchewan,0.00374,0.00396,0.00385
2024-11-28,Fort Saskatchewan,0.00681,0.00749,0.00715
2024-12-02,Fort Saskatchewan,0.016,0.0155,0.0158
2024-12-05,Fort Saskatchewan,0.0138,0.0134,0.0136
2024-12-09,Fort Saskatchewan,0.0111,0.00992,0.0105
2024-12-12,Fort Saskatchewan,0.0238,0.026,0.0249
2024-12-16,Fort Saskatchewan,0.0121,0.0118,0.012
2024-12-16,Fort Saskatchewan,0.0121,0.0118,0.012
2024-12-16,Fort Saskatchewan,0.0121,0.0118,0.012
2024-12-16,Fort Saskatchewan,0.0121,0.0118,0.012
2025-01-02,Fort Saskatchewan,0.0129,0.0127,0.0128
2025-01-02,Fort Saskatchewan,0.0129,0.0127,0.0128
2025-01-09,Fort Saskatchewan,0.00364,0.00341,0.00352
2025-01-13,Fort Saskatchewan,0.00497,0.00531,0.00514
2025-01-16,Fort Saskatchewan,0.00238,0.00294,0.00266
2025-01-20,Fort Saskatchewan,0.00114,0.00125,0.00119
2025-01-23,Fort Saskatchewan,0.0034,0.0023,0.00285
2025-01-27,Fort Saskatchewan,0.00136,0.00136,0.00136
2025-01-30,Fort Saskatchewan,0.00136,0.00136,0.00136
2025-02-03,Fort Saskatchewan,0.0017,0.00114,0.00142
2025-02-06,Fort Saskatchewan,0.00204,0.00181,0.00192
2025-02-10,Fort Saskatchewan,0.00113,0.00102,0.00107
2025-02-20,Fort Saskatchewan,0.0023,0.0034,0.00285
2025-02-24,Fort Saskatchewan,0.0,0.0,0.0
2025-02-27,Fort Saskatchewan,0.00079,0.00034,0.000565
2025-03-03,Fort Saskatchewan,0.00181,0.00147,0.00164
2023-07-03,Grande Prairie,0.00394,0.0033,0.00362
2023-07-04,Grande Prairie,0.00197,0.00134,0.00166
2023-07-10,Grande Prairie,0.00394,0.00592,0.00493
2023-07-12,Grande Prairie,0.00853,0.0105,0.00951
2023-07-17,Grande Prairie,0.0111,0.00853,0.00983
2023-07-19,Grande Prairie,0.0033,0.00528,0.00429
2023-07-24,Grande Prairie,0.0026,0.00134,0.00197
2023-07-26,Grande Prairie,0.00655,0.0033,0.00492
2023-07-31,Grande Prairie,0.0033,0.0033,0.0033
2023-08-02,Grande Prairie,0.0033,0.0026,0.00295
2023-08-07,Grande Prairie,0.0131,0.0111,0.0121
2023-08-09,Grande Prairie,0.00592,0.00592,0.00592
2023-08-21,Grande Prairie,0.0177,0.0151,0.0164
2023-08-23,Grande Prairie,0.0166,0.0166,0.0166
2023-08-28,Grande Prairie,0.0401,0.0348,0.0374
2023-08-30,Grande Prairie,0.0302,0.0322,0.0312
2023-09-04,Grande Prairie,0.0256,0.0243,0.0249
2023-09-06,Grande Prairie,0.0908,0.0987,0.0948
2023-09-11,Grande Prairie,0.00853,0.00853,0.00853
2023-09-13,Grande Prairie,0.00592,0.00592,0.00592
2023-09-18,Grande Prairie,0.0954,0.0848,0.0901
2023-09-20,Grande Prairie,0.0631,0.0604,0.0618
2023-09-25,Grande Prairie,0.0466,0.0427,0.0447
2023-09-27,Grande Prairie,0.119,0.111,0.115
2023-10-04,Grande Prairie,0.13,0.131,0.131
2023-10-09,Grande Prairie,0.157,0.153,0.155
2023-10-11,Grande Prairie,0.122,0.127,0.125
2023-10-16,Grande Prairie,0.0981,0.0981,0.0981
2023-10-18,Grande Prairie,0.081,0.0843,0.0827
2023-10-23,Grande Prairie,0.0453,0.0499,0.0476
2023-10-25,Grande Prairie,0.102,0.0955,0.0987
2023-10-30,Grande Prairie,0.0898,0.0957,0.0928
2023-11-01,Grande Prairie,0.0613,0.0593,0.0603
2023-11-06,Grande Prairie,0.0941,0.0862,0.0901
2023-11-08,Grande Prairie,0.0158,0.0177,0.0168
2023-11-13,Grande Prairie,0.164,0.149,0.157
2023-11-15,Grande Prairie,0.263,0.282,0.273
2023-11-20,Grande Prairie,0.165,0.166,0.166
2023-11-22,Grande Prairie,0.0776,0.0815,0.0796
2023-11-27,Grande Prairie,0.0604,0.0572,0.0588
2023-11-29,Grande Prairie,0.0429,0.0461,0.0445
2023-12-04,Grande Prairie,0.0651,0.0664,0.0657
2023-12-06,Grande Prairie,0.112,0.104,0.108
2023-12-11,Grande Prairie,0.0434,0.0427,0.0431
2023-12-12,Grande Prairie,0.077,0.0724,0.0747
2024-01-01,Grande Prairie,0.0532,0.0545,0.0539
2024-01-03,Grande Prairie,0.127,0.13,0.128
2024-01-08,Grande Prairie,0.0651,0.0585,0.0618
2024-01-10,Grande Prairie,0.0943,0.0808,0.0876
2024-01-15,Grande Prairie,0.0822,0.0782,0.0802
2024-01-22,Grande Prairie,0.0453,0.0394,0.0424
2024-01-23,Grande Prairie,0.0204,0.0171,0.0187
2024-01-29,Grande Prairie,0.00719,0.00592,0.00655
2024-01-31,Grande Prairie,0.0559,0.0598,0.0578
2024-02-05,Grande Prairie,0.0717,0.0644,0.0681
2024-02-07,Grande Prairie,0.0624,0.0559,0.0592
2024-02-12,Grande Prairie,0.0448,0.0442,0.0445
2024-02-14,Grande Prairie,0.0585,0.0506,0.0545
2024-02-19,Grande Prairie,0.103,0.115,0.109
2024-02-21,Grande Prairie,0.106,0.101,0.103
2024-02-26,Grande Prairie,0.0634,0.0661,0.0648
2024-02-28,Grande Prairie,0.0954,0.071,0.0832
2024-03-04,Grande Prairie,0.0552,0.0486,0.0519
2024-03-06,Grande Prairie,0.0611,0.0526,0.0568
2024-03-13,Grande Prairie,0.0237,0.0237,0.0237
2024-03-18,Grande Prairie,0.00916,0.00986,0.00951
2024-03-20,Grande Prairie,0.0171,0.0145,0.0158
2024-03-25,Grande Prairie,0.021,0.021,0.021
2024-03-27,Grande Prairie,0.0387,0.0348,0.0368
2024-04-01,Grande Prairie,0.0226,0.018,0.0203
2024-04-08,Grande Prairie,0.00719,0.00522,0.0062
2024-04-15,Grande Prairie,0.017,0.0164,0.0167
2024-04-17,Grande Prairie,0.0216,0.0243,0.023
2024-04-22,Grande Prairie,0.0279,0.0226,0.0252
2024-04-24,Grande Prairie,0.0749,0.0611,0.068
2024-04-29,Grande Prairie,0.0415,0.0349,0.0382
2024-05-01,Grande Prairie,0.0548,0.0515,0.0531
2024-05-06,Grande Prairie,0.0278,0.0232,0.0255
2024-05-13,Grande Prairie,0.125,0.111,0.118
2024-05-15,Grande Prairie,0.0257,0.027,0.0264
2024-05-20,Grande Prairie,0.0743,0.0703,0.0723
2024-05-22,Grande Prairie,0.02,0.0173,0.0187
2024-05-27,Grande Prairie,0.0499,0.0466,0.0483
2024-05-29,Grande Prairie,0.0519,0.0486,0.0503
2024-06-03,Grande Prairie,0.0467,0.0513,0.049
2024-06-05,Grande Prairie,0.0263,0.0276,0.0269
2024-06-10,Grande Prairie,0.0466,0.046,0.0463
2024-06-12,Grande Prairie,0.0276,0.0269,0.0273
2024-06-17,Grande Prairie,0.0237,0.0223,0.023
2024-06-19,Grande Prairie,0.0496,0.045,0.0473
2024-06-24,Grande Prairie,0.042,0.0394,0.0407
2024-07-01,Grande Prairie,0.0665,0.0717,0.0691
2024-07-03,Grande Prairie,0.0249,0.0243,0.0246
2024-07-08,Grande Prairie,0.0521,0.0488,0.0505
2024-07-10,Grande Prairie,0.0809,0.0625,0.0717
2024-07-15,Grande Prairie,0.0815,0.0661,0.0738
2024-07-17,Grande Prairie,0.067,0.0611,0.0641
2024-07-22,Grande Prairie,0.069,0.0517,0.0604
2024-07-24,Grande Prairie,0.0982,0.104,0.101
2024-07-29,Grande Prairie,0.0519,0.0466,0.0493
2024-07-31,Grande Prairie,0.0379,0.04,0.0389
2024-08-05,Grande Prairie,0.0697,0.0644,0.0671
2024-08-07,Grande Prairie,0.0612,0.05,0.0556
2024-08-12,Grande Prairie,0.0525,0.0485,0.0505
2024-08-14,Grande Prairie,0.118,0.0895,0.104
2024-08-19,Grande Prairie,0.0636,0.0536,0.0586
2024-08-21,Grande Prairie,0.0776,0.067,0.0723
2024-08-26,Grande Prairie,0.0533,0.0474,0.0503
2024-08-28,Grande Prairie,0.0987,0.0861,0.0924
2024-09-02,Grande Prairie,0.0804,0.0751,0.0777
2024-09-04,Grande Prairie,0.107,0.114,0.111
2024-09-09,Grande Prairie,0.0875,0.0504,0.069
2024-09-09,Grande Prairie,0.0875,0.0504,0.069
2024-09-11,Grande Prairie,0.109,0.116,0.112
2024-09-16,Grande Prairie,0.105,0.115,0.11
2024-09-18,Grande Prairie,0.083,0.0637,0.0734
2024-09-23,Grande Prairie,0.0423,0.039,0.0406
2024-09-25,Grande Prairie,0.0485,0.0365,0.0425
2024-09-30,Grande Prairie,0.0779,0.0726,0.0752
2024-10-02,Grande Prairie,0.181,0.181,0.181
2024-10-07,Grande Prairie,0.0442,0.0436,0.0439
2024-10-09,Grande Prairie,0.0963,0.0903,0.0933
2024-10-14,Grande Prairie,0.085,0.0817,0.0833
2024-10-16,Grande Prairie,0.114,0.119,0.117
2024-10-21,Grande Prairie,0.108,0.113,0.11
2024-10-23,Grande Prairie,0.0323,0.0343,0.0333
2024-10-28,Grande Prairie,0.0343,0.0369,0.0356
2024-10-30,Grande Prairie,0.0519,0.0639,0.0579
2024-11-04,Grande Prairie,0.14,0.141,0.14
2024-11-11,Grande Prairie,0.0804,0.0759,0.0781
2024-11-13,Grande Prairie,0.0454,0.0454,0.0454
2024-11-18,Grande Prairie,0.0579,0.0532,0.0556
2024-11-20,Grande Prairie,0.0931,0.0845,0.0888
2024-11-25,Grande Prairie,0.0428,0.0494,0.0461
2024-11-27,Grande Prairie,0.0958,0.0978,0.0968
2024-12-02,Grande Prairie,0.0743,0.075,0.0747
2024-12-04,Grande Prairie,0.0915,0.0855,0.0885
2024-12-09,Grande Prairie,0.083,0.0817,0.0823
2024-12-11,Grande Prairie,0.0657,0.0598,0.0628
2024-12-16,Grande Prairie,0.0927,0.096,0.0944
2024-12-16,Grande Prairie,0.0927,0.096,0.0944
2024-12-16,Grande Prairie,0.0927,0.096,0.0944
2024-12-16,Grande Prairie,0.0927,0.096,0.0944
2025-01-06,Grande Prairie,0.0342,0.0348,0.0345
2025-01-08,Grande Prairie,0.023,0.0211,0.022
2025-01-13,Grande Prairie,0.0106,0.0119,0.0112
2025-01-15,Grande Prairie,0.00656,0.00459,0.00557
2025-01-20,Grande Prairie,0.0261,0.0197,0.0229
2025-01-22,Grande Prairie,0.0112,0.0138,0.0125
2025-01-27,Grande Prairie,0.00394,0.00331,0.00363
2025-02-03,Grande Prairie,0.000644,0.00197,0.00131
2025-02-05,Grande Prairie,0.00134,0.000644,0.000992
2025-02-10,Grande Prairie,0.00197,0.00197,0.00197
2025-02-12,Grande Prairie,0.00134,0.00197,0.00166
2025-02-19,Grande Prairie,0.00262,0.00262,0.00262
2025-02-24,Grande Prairie,0.00197,0.000644,0.00131
2025-02-26,Grande Prairie,0.00394,0.00459,0.00427
2025-03-03,Grande Prairie,0.00923,0.00726,0.00824
2023-07-10,Jasper,0.131,0.125,0.128
2023-07-17,Jasper,0.125,0.128,0.127
2023-07-19,Jasper,0.078,0.0772,0.0776
2023-07-24,Jasper,0.0678,0.0645,0.0661
2023-07-31,Jasper,0.205,0.201,0.203
2023-08-02,Jasper,0.072,0.0712,0.0716
2023-08-09,Jasper,0.0543,0.0493,0.0518
2023-08-14,Jasper,0.142,0.138,0.14
2023-08-16,Jasper,0.123,0.134,0.128
2023-08-21,Jasper,0.21,0.202,0.206
2023-08-23,Jasper,0.129,0.123,0.126
2023-08-28,Jasper,0.208,0.205,0.207
2023-08-30,Jasper,0.244,0.232,0.238
2023-09-06,Jasper,0.145,0.149,0.147
2023-09-11,Jasper,0.283,0.265,0.274
2023-09-13,Jasper,0.201,0.193,0.197
2023-09-18,Jasper,0.0531,0.052,0.0525
2023-09-20,Jasper,0.61,0.572,0.591
2023-09-25,Jasper,0.443,0.425,0.434
2023-10-16,Jasper,0.655,0.614,0.635
2023-10-18,Jasper,0.429,0.451,0.44
2023-10-23,Jasper,1.02,0.979,1.0
2023-10-25,Jasper,0.38,0.358,0.369
2023-10-30,Jasper,0.18,0.193,0.186
2023-11-01,Jasper,0.575,0.578,0.576
2023-11-06,Jasper,0.129,0.109,0.119
2023-11-08,Jasper,0.268,0.274,0.271
2023-11-13,Jasper,0.635,0.618,0.627
2023-11-15,Jasper,0.889,0.868,0.878
2023-11-20,Jasper,0.17,0.164,0.167
2023-11-22,Jasper,0.0775,0.0892,0.0834
2023-11-27,Jasper,0.566,0.609,0.588
2023-11-29,Jasper,0.107,0.115,0.111
2023-12-04,Jasper,0.209,0.201,0.205
2023-12-06,Jasper,0.122,0.111,0.117
2023-12-11,Jasper,0.218,0.236,0.227
2023-12-13,Jasper,1.17,1.13,1.15
2023-12-18,Jasper,0.144,0.122,0.133
2023-12-19,Jasper,0.139,0.112,0.126
2023-12-20,Jasper,0.524,0.486,0.505
2024-01-03,Jasper,0.144,0.144,0.144
2024-01-08,Jasper,0.276,0.271,0.274
2024-01-10,Jasper,0.748,0.722,0.735
2024-01-15,Jasper,0.465,0.439,0.452
2024-01-17,Jasper,0.204,0.209,0.206
2024-01-22,Jasper,0.1,0.105,0.103
2024-01-24,Jasper,0.343,0.352,0.348
2024-01-29,Jasper,0.558,0.542,0.55
2024-01-31,Jasper,0.386,0.379,0.382
2024-02-05,Jasper,0.249,0.247,0.248
2024-02-07,Jasper,0.0942,0.101,0.0978
2024-02-12,Jasper,0.888,0.868,0.878
2024-02-26,Jasper,0.388,0.383,0.385
2024-03-04,Jasper,0.109,0.0905,0.1
2024-03-06,Jasper,0.0422,0.0338,0.038
2024-03-11,Jasper,0.0548,0.0632,0.059
2024-03-13,Jasper,0.101,0.0989,0.0999
2024-03-18,Jasper,0.0294,0.0294,0.0294
2024-03-20,Jasper,0.044,0.0357,0.0398
2024-03-25,Jasper,0.0126,0.0106,0.0116
2024-03-27,Jasper,0.00206,0.00206,0.00206
2024-04-01,Jasper,0.0184,0.0173,0.0179
2024-04-03,Jasper,0.0862,0.0651,0.0757
2024-04-08,Jasper,0.0394,0.0394,0.0394
2024-04-10,Jasper,0.0206,0.0217,0.0211
2024-04-15,Jasper,0.013,0.00977,0.0114
2024-04-17,Jasper,0.00651,0.00326,0.00489
2024-04-22,Jasper,0.16,0.143,0.152
2024-04-24,Jasper,0.0749,0.0696,0.0722
2024-04-29,Jasper,0.108,0.0891,0.0984
2024-05-01,Jasper,0.194,0.175,0.185
2024-05-06,Jasper,0.203,0.193,0.198
2024-05-13,Jasper,0.61,0.561,0.586
2024-05-15,Jasper,0.248,0.242,0.245
2024-05-21,Jasper,0.148,0.143,0.146
2024-05-22,Jasper,0.206,0.188,0.197
2024-05-27,Jasper,0.428,0.385,0.406
2024-05-29,Jasper,0.25,0.235,0.242
2024-06-03,Jasper,0.55,0.52,0.535
2024-06-05,Jasper,0.316,0.299,0.307
2024-06-10,Jasper,0.239,0.226,0.233
2024-06-12,Jasper,0.327,0.295,0.311
2024-06-17,Jasper,0.576,0.519,0.548
2024-06-19,Jasper,0.51,0.507,0.509
2024-06-24,Jasper,0.553,0.556,0.555
2024-07-02,Jasper,0.252,0.236,0.244
2024-07-03,Jasper,0.298,0.291,0.295
2024-07-08,Jasper,0.107,0.106,0.107
2024-07-10,Jasper,0.117,0.107,0.112
2024-07-17,Jasper,0.0685,0.0517,0.0601
2024-07-22,Jasper,0.174,0.158,0.166
2024-09-03,Jasper,0.0682,0.0569,0.0626
2024-09-09,Jasper,0.0942,0.0801,0.0872
2024-09-09,Jasper,0.0942,0.0801,0.0872
2024-09-11,Jasper,0.0306,0.0247,0.0276
2024-09-16,Jasper,0.0935,0.0815,0.0875
2024-09-18,Jasper,0.092,0.0882,0.0901
2024-09-23,Jasper,0.119,0.112,0.116
2024-09-25,Jasper,0.0498,0.0514,0.0506
2024-10-01,Jasper,0.289,0.28,0.285
2024-10-02,Jasper,0.374,0.365,0.369
2024-10-07,Jasper,0.117,0.108,0.113
2024-10-09,Jasper,0.0949,0.0861,0.0905
2024-10-15,Jasper,0.096,0.0984,0.0972
2024-10-17,Jasper,0.316,0.307,0.312
2024-10-21,Jasper,0.379,0.352,0.365
2024-10-23,Jasper,0.0993,0.0993,0.0993
2024-10-28,Jasper,0.152,0.148,0.15
2024-10-30,Jasper,0.561,0.614,0.588
2024-11-04,Jasper,0.648,0.651,0.65
2024-11-12,Jasper,0.0374,0.0519,0.0446
2024-11-13,Jasper,0.0229,0.0374,0.0301
2024-11-18,Jasper,0.107,0.107,0.107
2024-11-20,Jasper,0.158,0.156,0.157
2024-11-25,Jasper,0.118,0.167,0.143
2024-11-27,Jasper,0.156,0.15,0.153
2024-12-02,Jasper,0.073,0.0783,0.0757
2024-12-04,Jasper,0.0584,0.0584,0.0584
2024-12-09,Jasper,0.146,0.13,0.138
2024-12-11,Jasper,0.016,0.0134,0.0147
2024-12-16,Jasper,0.0514,0.0678,0.0596
2024-12-16,Jasper,0.0514,0.0678,0.0596
2024-12-16,Jasper,0.0514,0.0678,0.0596
2024-12-16,Jasper,0.0514,0.0678,0.0596
2025-01-06,Jasper,0.0688,0.0523,0.0605
2025-01-08,Jasper,0.0713,0.0785,0.0749
2025-01-13,Jasper,0.0359,0.0,0.018
2025-01-15,Jasper,0.00946,0.00946,0.00946
2025-01-20,Jasper,0.012,0.00946,0.0107
2025-01-22,Jasper,0.163,0.132,0.147
2025-01-27,Jasper,0.00485,0.00485,0.00485
2025-02-03,Jasper,0.194,0.223,0.208
2025-02-05,Jasper,0.263,0.249,0.256
2025-02-10,Jasper,0.063,0.0558,0.0594
2025-02-12,Jasper,0.0171,0.0171,0.0171
2025-02-18,Jasper,0.0145,0.0169,0.0157
2025-02-19,Jasper,0.00963,0.00963,0.00963
2025-02-24,Jasper,0.0,0.00494,0.00247
2025-02-26,Jasper,0.0508,0.0532,0.052
2025-03-03,Jasper,0.0946,0.0842,0.0894
2023-07-03,Lethbridge,0.00649,0.00789,0.00719
2023-07-05,Lethbridge,0.00329,0.0014,0.00234
2023-07-10,Lethbridge,0.00464,0.00649,0.00556
2023-07-12,Lethbridge,0.0303,0.0335,0.0319
2023-07-17,Lethbridge,0.00703,0.00468,0.00585
2023-07-19,Lethbridge,0.00698,0.00698,0.00698
2023-07-24,Lethbridge,0.0126,0.0112,0.0119
2023-07-26,Lethbridge,0.0437,0.0405,0.0421
2023-07-31,Lethbridge,0.0103,0.0117,0.011
2023-08-02,Lethbridge,0.0172,0.0172,0.0172
2023-08-08,Lethbridge,0.013,0.0144,0.0137
2023-08-13,Lethbridge,0.00509,0.00509,0.00509
2023-08-15,Lethbridge,0.0274,0.0223,0.0249
2023-08-20,Lethbridge,0.0186,0.0191,0.0188
2023-08-22,Lethbridge,0.0158,0.0107,0.0132
2023-08-27,Lethbridge,0.0107,0.0116,0.0112
2023-08-29,Lethbridge,0.0116,0.0149,0.0132
2023-09-05,Lethbridge,0.0167,0.0149,0.0158
2023-09-10,Lethbridge,0.0545,0.0503,0.0524
2023-09-12,Lethbridge,0.0228,0.0195,0.0212
2023-09-17,Lethbridge,0.0321,0.0237,0.0279
2023-09-19,Lethbridge,0.0559,0.0512,0.0535
2023-09-24,Lethbridge,0.0149,0.00883,0.0119
2023-09-26,Lethbridge,0.0563,0.0489,0.0526
2023-10-03,Lethbridge,0.0545,0.0489,0.0517
2023-10-10,Lethbridge,0.0615,0.0568,0.0591
2023-10-15,Lethbridge,0.0349,0.0354,0.0351
2023-10-17,Lethbridge,0.0811,0.0811,0.0811
2023-10-22,Lethbridge,0.0764,0.0778,0.0771
2023-10-24,Lethbridge,0.0732,0.0685,0.0708
2023-10-29,Lethbridge,0.0713,0.069,0.0701
2023-10-31,Lethbridge,0.0479,0.0536,0.0507
2023-11-06,Lethbridge,0.0484,0.0344,0.0414
2023-11-07,Lethbridge,0.0554,0.0554,0.0554
2023-11-14,Lethbridge,0.0801,0.0792,0.0797
2023-11-20,Lethbridge,0.0722,0.0694,0.0708
2023-11-22,Lethbridge,0.11,0.0848,0.0973
2023-11-27,Lethbridge,0.055,0.0563,0.0556
2023-11-29,Lethbridge,0.0493,0.0536,0.0514
2023-12-04,Lethbridge,0.0335,0.0284,0.0309
2023-12-05,Lethbridge,0.0568,0.0493,0.0531
2023-12-10,Lethbridge,0.0163,0.0144,0.0153
2023-12-12,Lethbridge,0.034,0.0381,0.0361
2023-12-17,Lethbridge,0.0135,0.0158,0.0146
2023-12-19,Lethbridge,0.0817,0.0685,0.0751
2024-01-02,Lethbridge,0.0349,0.0316,0.0332
2024-01-07,Lethbridge,0.0149,0.0163,0.0156
2024-01-09,Lethbridge,0.0672,0.0634,0.0653
2024-01-14,Lethbridge,0.0265,0.0265,0.0265
2024-01-16,Lethbridge,0.0508,0.0433,0.0471
2024-01-21,Lethbridge,0.0318,0.0299,0.0309
2024-01-23,Lethbridge,0.0591,0.0582,0.0587
2024-01-29,Lethbridge,0.0561,0.0508,0.0534
2024-01-30,Lethbridge,0.0486,0.0481,0.0484
2024-02-04,Lethbridge,0.0126,0.0145,0.0135
2024-02-07,Lethbridge,0.0396,0.0363,0.0379
2024-02-13,Lethbridge,0.042,0.0358,0.0389
2024-02-20,Lethbridge,0.0313,0.0318,0.0316
2024-02-26,Lethbridge,0.0271,0.0285,0.0278
2024-02-27,Lethbridge,0.0498,0.0475,0.0486
2024-03-03,Lethbridge,0.0405,0.0391,0.0398
2024-03-05,Lethbridge,0.0512,0.0531,0.0521
2024-03-10,Lethbridge,0.0223,0.02,0.0212
2024-03-12,Lethbridge,0.0368,0.0396,0.0382
2024-03-17,Lethbridge,0.0508,0.047,0.0489
2024-03-19,Lethbridge,0.0707,0.0598,0.0653
2024-03-24,Lethbridge,0.0526,0.0433,0.0479
2024-03-26,Lethbridge,0.0526,0.0437,0.0482
2024-04-02,Lethbridge,0.0788,0.0764,0.0776
2024-04-07,Lethbridge,0.0116,0.00838,0.01
2024-04-09,Lethbridge,0.0284,0.0307,0.0296
2024-04-14,Lethbridge,0.00933,0.0102,0.00977
2024-04-16,Lethbridge,0.0386,0.0381,0.0384
2024-04-21,Lethbridge,0.0326,0.0302,0.0314
2024-04-23,Lethbridge,0.0442,0.0344,0.0393
2024-04-28,Lethbridge,0.0493,0.0465,0.0479
2024-04-30,Lethbridge,0.0521,0.0475,0.0498
2024-05-08,Lethbridge,0.0168,0.014,0.0154
2024-05-12,Lethbridge,0.00235,0.00325,0.0028
2024-05-14,Lethbridge,0.00838,0.00883,0.00861
2024-05-21,Lethbridge,0.00883,0.0102,0.00953
2024-05-26,Lethbridge,0.00514,0.00235,0.00374
2024-05-28,Lethbridge,0.00465,0.00419,0.00442
2024-06-02,Lethbridge,0.00509,0.0037,0.00439
2024-06-04,Lethbridge,0.0125,0.0125,0.0125
2024-06-09,Lethbridge,0.00928,0.00789,0.00858
2024-06-11,Lethbridge,0.0149,0.014,0.0144
2024-06-17,Lethbridge,0.0209,0.02,0.0205
2024-06-18,Lethbridge,0.0363,0.0377,0.037
2024-07-02,Lethbridge,0.0113,0.0104,0.0109
2024-07-09,Lethbridge,0.0223,0.0177,0.02
2024-07-14,Lethbridge,0.00279,0.00325,0.00302
2024-07-15,Lethbridge,0.0182,0.0126,0.0154
2024-07-21,Lethbridge,0.0163,0.0135,0.0149
2024-07-23,Lethbridge,0.0111,0.00838,0.00976
2024-07-28,Lethbridge,0.0294,0.0294,0.0294
2024-07-30,Lethbridge,0.0261,0.0261,0.0261
2024-08-06,Lethbridge,0.0284,0.0256,0.027
2024-08-11,Lethbridge,0.00838,0.00883,0.00861
2024-08-13,Lethbridge,0.0436,0.034,0.0388
2024-08-18,Lethbridge,0.00789,0.00838,0.00813
2024-08-20,Lethbridge,0.0215,0.0238,0.0227
2024-08-25,Lethbridge,0.00977,0.00883,0.0093
2024-08-27,Lethbridge,0.0186,0.0135,0.0161
2024-09-03,Lethbridge,0.0214,0.0145,0.0179
2024-09-08,Lethbridge,0.00423,0.00189,0.00306
2024-09-11,Lethbridge,0.0201,0.0154,0.0177
2024-09-15,Lethbridge,0.032,0.0306,0.0313
2024-09-17,Lethbridge,0.0365,0.0327,0.0346
2024-09-22,Lethbridge,0.0522,0.0489,0.0505
2024-09-24,Lethbridge,0.028,0.0336,0.0308
2024-10-02,Lethbridge,0.0247,0.0257,0.0252
2024-10-06,Lethbridge,0.00977,0.00838,0.00908
2024-10-09,Lethbridge,0.0347,0.0318,0.0333
2024-10-20,Lethbridge,0.0135,0.0107,0.0121
2024-10-22,Lethbridge,0.0131,0.0178,0.0154
2024-10-27,Lethbridge,0.0298,0.034,0.0319
2024-10-29,Lethbridge,0.0471,0.0485,0.0478
2024-11-03,Lethbridge,0.0293,0.0279,0.0286
2024-11-05,Lethbridge,0.0793,0.0838,0.0815
2024-11-12,Lethbridge,0.0214,0.0256,0.0235
2024-11-17,Lethbridge,0.0191,0.0209,0.02
2024-11-19,Lethbridge,0.0503,0.0662,0.0583
2024-11-24,Lethbridge,0.00744,0.00604,0.00674
2024-11-26,Lethbridge,0.0654,0.0645,0.0649
2024-12-02,Lethbridge,0.0291,0.0282,0.0286
2024-12-03,Lethbridge,0.0404,0.0423,0.0413
2024-12-08,Lethbridge,0.0428,0.0447,0.0438
2024-12-10,Lethbridge,0.0635,0.0574,0.0604
2025-01-05,Lethbridge,0.00604,0.00604,0.00604
2025-01-07,Lethbridge,0.0237,0.0219,0.0228
2025-01-12,Lethbridge,0.0104,0.0109,0.0106
2025-01-14,Lethbridge,0.041,0.0321,0.0365
2025-01-19,Lethbridge,0.00604,0.00604,0.00604
2025-01-21,Lethbridge,0.00793,0.00977,0.00885
2025-01-26,Lethbridge,0.00514,0.00563,0.00538
2025-02-02,Lethbridge,0.026,0.0251,0.0256
2025-02-04,Lethbridge,0.0223,0.0205,0.0214
2025-02-09,Lethbridge,0.0163,0.0177,0.017
2025-02-11,Lethbridge,0.0149,0.0163,0.0156
2025-02-18,Lethbridge,0.00747,0.00703,0.00725
2025-02-23,Lethbridge,0.00649,0.00279,0.00464
2025-02-25,Lethbridge,0.00509,0.00604,0.00557
2025-03-02,Lethbridge,0.00419,0.00325,0.00372
2023-07-05,Medicine Hat,0.0044,0.00735,0.00588
2023-07-10,Medicine Hat,0.0224,0.0246,0.0235
2023-07-12,Medicine Hat,0.0176,0.0191,0.0184
2023-07-17,Medicine Hat,0.0368,0.0318,0.0343
2023-07-19,Medicine Hat,0.0311,0.0289,0.03
2023-07-24,Medicine Hat,0.0355,0.0282,0.0318
2023-07-26,Medicine Hat,0.0355,0.0376,0.0365
2023-07-31,Medicine Hat,0.0477,0.0521,0.0499
2023-08-02,Medicine Hat,0.039,0.0368,0.0379
2023-08-09,Medicine Hat,0.013,0.00721,0.0101
2023-08-14,Medicine Hat,0.0459,0.0473,0.0466
2023-08-16,Medicine Hat,0.0473,0.0364,0.0418
2023-08-21,Medicine Hat,0.0109,0.0109,0.0109
2023-08-23,Medicine Hat,0.0268,0.0224,0.0246
2023-08-28,Medicine Hat,0.0265,0.0229,0.0247
2023-08-30,Medicine Hat,0.0384,0.0421,0.0403
2023-09-06,Medicine Hat,0.0434,0.0448,0.0441
2023-09-11,Medicine Hat,0.0399,0.0385,0.0392
2023-09-13,Medicine Hat,0.0398,0.0443,0.042
2023-09-18,Medicine Hat,0.0833,0.0752,0.0793
2023-09-20,Medicine Hat,0.321,0.316,0.319
2023-09-25,Medicine Hat,0.136,0.138,0.137
2023-09-27,Medicine Hat,0.132,0.13,0.131
2023-10-04,Medicine Hat,0.151,0.144,0.147
2023-10-11,Medicine Hat,0.225,0.23,0.227
2023-10-16,Medicine Hat,0.118,0.115,0.117
2023-10-18,Medicine Hat,0.39,0.296,0.343
2023-10-23,Medicine Hat,0.354,0.325,0.34
2023-10-25,Medicine Hat,0.105,0.104,0.104
2023-10-30,Medicine Hat,0.434,0.505,0.469
2023-11-01,Medicine Hat,0.162,0.19,0.176
2023-11-06,Medicine Hat,0.2,0.209,0.205
2023-11-08,Medicine Hat,0.246,0.272,0.259
2023-11-13,Medicine Hat,0.354,0.275,0.315
2023-11-15,Medicine Hat,0.27,0.273,0.272
2023-11-20,Medicine Hat,0.117,0.125,0.121
2023-11-22,Medicine Hat,0.182,0.191,0.187
2023-11-27,Medicine Hat,0.0949,0.0848,0.0898
2023-11-29,Medicine Hat,0.478,0.427,0.452
2023-12-04,Medicine Hat,0.0949,0.104,0.0996
2023-12-06,Medicine Hat,0.0833,0.0928,0.0881
2023-12-11,Medicine Hat,0.195,0.144,0.17
2023-12-13,Medicine Hat,0.109,0.128,0.118
2023-12-18,Medicine Hat,0.0238,0.0217,0.0227
2023-12-20,Medicine Hat,0.061,0.061,0.061
2024-01-03,Medicine Hat,0.123,0.13,0.126
2024-01-08,Medicine Hat,0.0581,0.246,0.152
2024-01-10,Medicine Hat,0.181,0.188,0.184
2024-01-15,Medicine Hat,0.0939,0.109,0.101
2024-01-17,Medicine Hat,0.0792,0.0575,0.0683
2024-01-22,Medicine Hat,0.0869,0.0939,0.0904
2024-01-24,Medicine Hat,0.188,0.202,0.195
2024-01-29,Medicine Hat,0.181,0.152,0.166
2024-01-31,Medicine Hat,0.0197,0.0328,0.0262
2024-02-05,Medicine Hat,0.0287,0.0287,0.0287
2024-02-07,Medicine Hat,0.00651,0.00505,0.00578
2024-02-12,Medicine Hat,0.0722,0.0651,0.0687
2024-02-14,Medicine Hat,0.101,0.0581,0.0795
2024-02-21,Medicine Hat,0.109,0.0722,0.0904
2024-02-26,Medicine Hat,0.0144,0.0137,0.0141
2024-02-28,Medicine Hat,0.0217,0.0195,0.0206
2024-03-04,Medicine Hat,0.202,0.246,0.224
2024-03-06,Medicine Hat,0.167,0.159,0.163
2024-03-11,Medicine Hat,0.0364,0.0147,0.0255
2024-03-13,Medicine Hat,0.0276,0.0284,0.028
2024-03-18,Medicine Hat,0.0651,0.0651,0.0651
2024-03-20,Medicine Hat,0.144,0.109,0.126
2024-03-25,Medicine Hat,0.0505,0.0434,0.0469
2024-03-27,Medicine Hat,0.0505,0.0651,0.0578
2024-04-01,Medicine Hat,0.0575,0.0651,0.0613
2024-04-03,Medicine Hat,0.101,0.116,0.108
2024-04-08,Medicine Hat,0.0123,0.0109,0.0116
2024-04-10,Medicine Hat,0.0159,0.0144,0.0152
2024-04-15,Medicine Hat,0.0147,0.00703,0.0109
2024-04-17,Medicine Hat,0.00363,0.00721,0.00542
2024-04-22,Medicine Hat,0.0287,0.00703,0.0179
2024-04-24,Medicine Hat,0.0231,0.0217,0.0224
2024-04-29,Medicine Hat,0.0364,0.0434,0.0399
2024-05-01,Medicine Hat,0.0939,0.0651,0.0795
2024-05-06,Medicine Hat,0.0308,0.0278,0.0293
2024-05-13,Medicine Hat,0.0553,0.0466,0.0509
2024-05-15,Medicine Hat,0.0615,0.0767,0.0691
2024-05-22,Medicine Hat,0.0209,0.0173,0.0191
2024-05-27,Medicine Hat,0.0782,0.063,0.0706
2024-05-29,Medicine Hat,0.0783,0.0694,0.0739
2024-06-03,Medicine Hat,0.0254,0.0239,0.0246
2024-06-05,Medicine Hat,0.0456,0.0471,0.0463
2024-06-10,Medicine Hat,0.0282,0.0347,0.0315
2024-06-12,Medicine Hat,0.0363,0.037,0.0366
2024-06-17,Medicine Hat,0.0318,0.0296,0.0307
2024-06-19,Medicine Hat,0.0419,0.0593,0.0506
2024-06-24,Medicine Hat,0.0325,0.0289,0.0307
2024-07-03,Medicine Hat,0.0586,0.06,0.0593
2024-07-08,Medicine Hat,0.0593,0.0535,0.0564
2024-07-10,Medicine Hat,0.013,0.0116,0.0123
2024-07-15,Medicine Hat,0.0268,0.0247,0.0257
2024-07-17,Medicine Hat,0.0625,0.0531,0.0578
2024-07-22,Medicine Hat,0.0442,0.037,0.0406
2024-07-24,Medicine Hat,0.0361,0.0325,0.0343
2024-07-29,Medicine Hat,0.0507,0.0544,0.0525
2024-07-31,Medicine Hat,0.0599,0.0658,0.0628
2024-08-07,Medicine Hat,0.181,0.188,0.184
2024-08-12,Medicine Hat,0.0507,0.0544,0.0526
2024-08-14,Medicine Hat,0.0611,0.0495,0.0553
2024-08-19,Medicine Hat,0.0641,0.0758,0.0699
2024-08-21,Medicine Hat,0.0557,0.0615,0.0586
2024-08-26,Medicine Hat,0.0311,0.0413,0.0362
2024-08-28,Medicine Hat,0.0604,0.056,0.0582
2024-09-04,Medicine Hat,0.116,0.0939,0.105
2024-09-09,Medicine Hat,0.159,0.116,0.137
2024-09-11,Medicine Hat,0.129,0.136,0.133
2024-09-16,Medicine Hat,0.0747,0.0507,0.0627
2024-09-18,Medicine Hat,0.115,0.0986,0.107
2024-09-23,Medicine Hat,0.0697,0.0565,0.0631
2024-09-25,Medicine Hat,0.0915,0.0973,0.0944
2024-10-02,Medicine Hat,0.261,0.254,0.257
2024-10-07,Medicine Hat,0.282,0.354,0.318
2024-10-09,Medicine Hat,0.122,0.115,0.119
2024-10-16,Medicine Hat,0.24,0.297,0.268
2024-10-21,Medicine Hat,0.0452,0.0473,0.0462
2024-10-23,Medicine Hat,0.0753,0.0702,0.0728
2024-10-28,Medicine Hat,0.0406,0.0463,0.0434
2024-10-30,Medicine Hat,0.0601,0.0689,0.0645
2024-11-04,Medicine Hat,0.109,0.0792,0.0939
2024-11-13,Medicine Hat,0.0746,0.071,0.0728
2024-11-20,Medicine Hat,0.0763,0.0858,0.0811
2024-11-25,Medicine Hat,0.042,0.0369,0.0394
2024-11-27,Medicine Hat,0.0436,0.0291,0.0363
2024-12-02,Medicine Hat,0.0275,0.034,0.0308
2024-12-04,Medicine Hat,0.0209,0.0217,0.0213
2024-12-09,Medicine Hat,0.0798,0.0945,0.0872
2024-12-11,Medicine Hat,0.0575,0.0434,0.0505
2024-12-11,Medicine Hat,0.0575,0.0434,0.0505
2024-12-11,Medicine Hat,0.0575,0.0434,0.0505
2024-12-11,Medicine Hat,0.0575,0.0434,0.0505
2024-12-16,Medicine Hat,0.0792,0.101,0.0901
2025-01-06,Medicine Hat,0.0217,0.0287,0.0252
2025-01-08,Medicine Hat,0.0581,0.0294,0.0438
2025-01-13,Medicine Hat,0.0434,0.0434,0.0434
2025-01-15,Medicine Hat,0.0217,0.00703,0.0144
2025-01-20,Medicine Hat,0.0434,0.0287,0.0361
2025-01-22,Medicine Hat,0.0792,0.0939,0.0865
2025-01-27,Medicine Hat,0.0147,0.0217,0.0182
2025-02-12,Medicine Hat,0.0287,0.0217,0.0252
2025-02-24,Medicine Hat,0.00703,0.00703,0.00703
2023-07-06,Red Deer,0.000802,0.00212,0.00146
2023-07-10,Red Deer,0.00152,0.00176,0.00164
2023-07-13,Red Deer,0.00455,0.00455,0.00455
2023-07-17,Red Deer,0.000758,0.00178,0.00127
2023-07-20,Red Deer,0.00533,0.00508,0.0052
2023-07-24,Red Deer,0.00428,0.00428,0.00428
2023-07-27,Red Deer,0.0159,0.0156,0.0158
2023-07-31,Red Deer,0.00631,0.00706,0.00668
2023-08-02,Red Deer,0.00706,0.00807,0.00756
2023-08-09,Red Deer,0.00455,0.00479,0.00467
2023-08-14,Red Deer,0.0116,0.0109,0.0112
2023-08-16,Red Deer,0.0166,0.0156,0.0161
2023-08-21,Red Deer,0.00982,0.0109,0.0103
2023-08-23,Red Deer,0.00352,0.00328,0.0034
2023-08-28,Red Deer,0.0126,0.0119,0.0122
2023-08-29,Red Deer,0.0192,0.0194,0.0193
2023-08-30,Red Deer,0.00303,0.00276,0.0029
2023-09-06,Red Deer,0.019,0.019,0.019
2023-09-11,Red Deer,0.0154,0.0162,0.0158
2023-09-13,Red Deer,0.0217,0.0215,0.0216
2023-09-18,Red Deer,0.0207,0.0209,0.0208
2023-09-20,Red Deer,0.0291,0.0278,0.0284
2023-09-25,Red Deer,0.00455,0.00579,0.00517
2023-09-27,Red Deer,0.032,0.029,0.0305
2023-10-04,Red Deer,0.139,0.14,0.14
2023-10-11,Red Deer,0.106,0.106,0.106
2023-10-16,Red Deer,0.0225,0.022,0.0222
2023-10-18,Red Deer,0.0534,0.0549,0.0542
2023-10-23,Red Deer,0.0527,0.0499,0.0513
2023-10-30,Red Deer,0.0179,0.0179,0.0179
2023-11-01,Red Deer,0.071,0.0759,0.0734
2023-11-06,Red Deer,0.0516,0.0531,0.0523
2023-11-08,Red Deer,0.0288,0.0258,0.0273
2023-11-15,Red Deer,0.131,0.126,0.129
2023-11-20,Red Deer,0.0288,0.0258,0.0273
2023-11-22,Red Deer,0.102,0.101,0.102
2023-11-27,Red Deer,0.0136,0.0129,0.0133
2023-11-29,Red Deer,0.024,0.0227,0.0234
2023-12-04,Red Deer,0.0361,0.0306,0.0334
2023-12-06,Red Deer,0.0187,0.0182,0.0184
2023-12-11,Red Deer,0.0435,0.0451,0.0443
2023-12-13,Red Deer,0.0499,0.0456,0.0477
2023-12-18,Red Deer,0.0258,0.024,0.0249
2023-12-20,Red Deer,0.0613,0.0608,0.0611
2024-01-03,Red Deer,0.0402,0.0405,0.0403
2024-01-08,Red Deer,0.0207,0.0187,0.0197
2024-01-10,Red Deer,0.0471,0.0435,0.0453
2024-01-15,Red Deer,0.00684,0.0076,0.00722
2024-01-17,Red Deer,0.0448,0.0461,0.0455
2024-01-22,Red Deer,0.0272,0.0234,0.0253
2024-01-29,Red Deer,0.0334,0.0306,0.032
2024-01-31,Red Deer,0.0286,0.0271,0.0278
2024-02-05,Red Deer,0.0274,0.0254,0.0264
2024-02-07,Red Deer,0.0285,0.029,0.0288
2024-02-12,Red Deer,0.0341,0.032,0.0331
2024-02-14,Red Deer,0.027,0.0268,0.0269
2024-02-21,Red Deer,0.0506,0.0453,0.0479
2024-02-26,Red Deer,0.0392,0.0407,0.04
2024-02-28,Red Deer,0.0293,0.0273,0.0283
2024-03-04,Red Deer,0.0215,0.0174,0.0194
2024-03-06,Red Deer,0.0506,0.0584,0.0545
2024-03-11,Red Deer,0.0164,0.0154,0.0159
2024-03-13,Red Deer,0.0156,0.0154,0.0155
2024-03-18,Red Deer,0.0127,0.0109,0.0118
2024-03-20,Red Deer,0.0216,0.0199,0.0207
2024-03-25,Red Deer,0.00733,0.00782,0.00758
2024-03-27,Red Deer,0.0114,0.00985,0.0106
2024-04-03,Red Deer,0.0159,0.0169,0.0164
2024-04-08,Red Deer,0.00579,0.00479,0.00529
2024-04-10,Red Deer,0.00528,0.00604,0.00566
2024-04-15,Red Deer,0.00758,0.00512,0.00635
2024-04-17,Red Deer,0.0146,0.0126,0.0136
2024-04-22,Red Deer,0.0147,0.0139,0.0143
2024-04-24,Red Deer,0.0237,0.0202,0.022
2024-04-29,Red Deer,0.0124,0.0119,0.0121
2024-05-01,Red Deer,0.0141,0.0149,0.0145
2024-05-08,Red Deer,0.0149,0.0149,0.0149
2024-05-13,Red Deer,0.00707,0.0068,0.00693
2024-05-15,Red Deer,0.0129,0.0124,0.0126
2024-05-22,Red Deer,0.0149,0.0154,0.0151
2024-05-27,Red Deer,0.00958,0.00756,0.00857
2024-05-29,Red Deer,0.0207,0.0172,0.0189
2024-06-03,Red Deer,0.00782,0.00655,0.00719
2024-06-05,Red Deer,0.00782,0.00682,0.00732
2024-06-10,Red Deer,0.00479,0.00352,0.00416
2024-06-12,Red Deer,0.0209,0.0189,0.0199
2024-06-17,Red Deer,0.00481,0.00609,0.00545
2024-06-19,Red Deer,0.0149,0.0182,0.0165
2024-06-24,Red Deer,0.0151,0.0166,0.0159
2024-07-03,Red Deer,0.0258,0.0255,0.0257
2024-07-10,Red Deer,0.0148,0.015,0.0149
2024-07-15,Red Deer,0.0124,0.0116,0.012
2024-07-17,Red Deer,0.0074,0.00435,0.00587
2024-07-22,Red Deer,0.00989,0.00938,0.00964
2024-07-24,Red Deer,0.0253,0.0243,0.0248
2024-07-29,Red Deer,0.0285,0.0245,0.0265
2024-07-31,Red Deer,0.0126,0.00985,0.0112
2024-08-07,Red Deer,0.0225,0.0169,0.0197
2024-08-12,Red Deer,0.00934,0.00858,0.00896
2024-08-14,Red Deer,0.0174,0.0164,0.0169
2024-08-19,Red Deer,0.00176,0.00203,0.0019
2024-08-21,Red Deer,0.00404,0.00455,0.00429
2024-08-26,Red Deer,0.00909,0.00909,0.00909
2024-08-28,Red Deer,0.0226,0.0211,0.0218
2024-09-04,Red Deer,0.0296,0.0266,0.0281
2024-09-09,Red Deer,0.0185,0.018,0.0182
2024-09-09,Red Deer,0.0185,0.018,0.0182
2024-09-11,Red Deer,0.00707,0.00858,0.00782
2024-09-15,Red Deer,0.058,0.0469,0.0525
2024-09-18,Red Deer,0.057,0.0492,0.0531
2024-09-23,Red Deer,0.017,0.015,0.016
2024-09-25,Red Deer,0.0463,0.0425,0.0444
2024-10-02,Red Deer,0.0174,0.0174,0.0174
2024-10-07,Red Deer,0.0332,0.0301,0.0316
2024-10-09,Red Deer,0.0174,0.0207,0.0191
2024-10-16,Red Deer,0.0184,0.0205,0.0195
2024-10-21,Red Deer,0.0361,0.0323,0.0342
2024-10-23,Red Deer,0.0256,0.0277,0.0267
2024-10-28,Red Deer,0.0241,0.0231,0.0236
2024-10-30,Red Deer,0.0321,0.0182,0.0251
2024-11-04,Red Deer,0.0463,0.0435,0.0449
2024-11-13,Red Deer,0.0233,0.0251,0.0242
2024-11-18,Red Deer,0.041,0.0369,0.039
2024-11-20,Red Deer,0.0216,0.025,0.0233
2024-11-25,Red Deer,0.0187,0.0167,0.0177
2024-11-27,Red Deer,0.0207,0.0189,0.0198
2024-12-02,Red Deer,0.0192,0.0179,0.0186
2024-12-04,Red Deer,0.0172,0.0169,0.017
2024-12-09,Red Deer,0.0236,0.0256,0.0246
2024-12-11,Red Deer,0.0197,0.0316,0.0257
2024-12-16,Red Deer,0.00885,0.00936,0.0091
2025-01-06,Red Deer,0.0121,0.0152,0.0136
2025-01-08,Red Deer,0.00858,0.00907,0.00883
2025-01-13,Red Deer,0.00858,0.00782,0.0082
2025-01-15,Red Deer,0.00609,0.0066,0.00634
2025-01-20,Red Deer,0.00658,0.00658,0.00658
2025-01-22,Red Deer,0.00252,0.00279,0.00265
2025-01-27,Red Deer,0.00328,0.00328,0.00328
2025-02-10,Red Deer,0.00227,0.00227,0.00227
2025-02-12,Red Deer,0.00579,0.00479,0.00529
2025-02-19,Red Deer,0.00227,0.00176,0.00202
2025-02-24,Red Deer,0.00252,0.00328,0.0029
2025-03-03,Red Deer,0.00227,0.00227,0.00227
