Week,6mon-04,05-11,12-19,20-39,40-59,60-74,75+,ALL
2023-08-27,0.1,0.0,0.0,0.0,0.0,0.1,0.1,0.0
2023-09-03,0.1,0.0,0.0,0.0,0.0,0.2,0.2,0.1
2023-09-10,0.2,0.0,0.0,0.0,0.1,0.2,0.3,0.1
2023-09-17,0.2,0.1,0.0,0.1,0.1,0.3,0.3,0.1
2023-09-24,0.2,0.1,0.0,0.1,0.1,0.3,0.3,0.1
2023-10-01,0.2,0.1,0.0,0.1,0.1,0.4,1.1,0.2
2023-10-08,0.3,0.1,0.0,0.1,0.3,0.8,3.9,0.5
2023-10-15,1.8,1.5,1.3,1.9,4.0,13.0,22.7,5.3
2023-10-22,3.0,2.8,2.5,3.3,6.9,20.5,33.5,8.5
2023-10-29,3.8,3.5,3.4,4.3,8.9,25.5,40.8,10.7
2023-11-05,4.4,4.3,4.1,5.0,10.2,28.4,44.7,12.1
2023-11-12,4.9,4.7,4.8,5.6,11.2,30.4,47.3,13.1
2023-11-19,5.2,5.0,5.1,6.0,11.9,31.8,48.9,13.8
2023-11-26,5.5,5.3,5.4,6.3,12.4,33.0,50.2,14.3
2023-12-03,5.8,5.5,5.6,6.5,12.8,33.9,51.2,14.8
2023-12-10,6.0,5.7,5.8,6.8,13.2,34.8,52.2,15.2
2023-12-17,6.1,5.8,5.9,7.0,13.6,35.5,52.9,15.5
2023-12-24,6.2,5.9,6.1,7.1,13.7,35.8,53.1,15.7
2023-12-31,6.3,6.0,6.2,7.2,13.9,36.2,53.5,15.9
2024-01-07,6.4,6.1,6.3,7.3,14.1,36.5,53.7,16.0
2024-01-14,6.5,6.1,6.3,7.4,14.2,36.8,54.0,16.1
2024-01-21,6.5,6.1,6.4,7.5,14.3,37.0,54.3,16.2
2024-01-28,6.6,6.2,6.4,7.5,14.3,37.2,54.5,16.3
2024-02-04,6.7,6.2,6.4,7.5,14.4,37.3,54.7,16.4
2024-02-11,6.7,6.2,6.5,7.6,14.4,37.4,54.8,16.5
2024-02-18,6.7,6.2,6.5,7.6,14.5,37.5,54.9,16.5
2024-02-25,6.8,6.2,6.5,7.6,14.5,37.6,55.0,16.5
2024-03-03,6.8,6.3,6.5,7.7,14.5,37.7,55.1,16.6
2024-03-10,6.9,6.3,6.5,7.7,14.6,37.7,55.1,16.6
2024-03-17,6.9,6.3,6.5,7.7,14.6,37.8,55.2,16.6
2024-03-24,6.9,6.3,6.6,7.7,14.6,37.8,55.3,16.6
2024-03-31,6.9,6.3,6.6,7.7,14.6,37.9,55.3,16.7
2024-04-07,7.0,6.3,6.6,7.7,14.6,37.9,55.3,16.7
2024-04-14,7.0,6.3,6.6,7.7,14.7,37.9,55.4,16.7
2024-04-21,7.0,6.3,6.6,7.8,14.7,38.0,55.6,16.7
2024-04-28,7.0,6.3,6.6,7.8,14.7,38.0,55.7,16.8
2024-05-05,7.0,6.3,6.6,7.8,14.7,38.1,55.9,16.8
2024-05-12,7.0,6.3,6.6,7.8,14.7,38.1,56.1,16.8
2024-05-19,7.0,6.3,6.6,7.8,14.7,38.2,56.3,16.8
2024-05-26,7.1,6.3,6.6,7.8,14.7,38.2,56.5,16.9
2024-06-02,7.1,6.3,6.6,7.8,14.8,38.2,56.7,16.9
2024-06-09,7.1,6.3,6.6,7.8,14.8,38.2,56.8,16.9
2024-06-16,7.1,6.3,6.6,7.8,14.8,38.3,56.8,16.9
2024-06-23,7.1,6.3,6.6,7.8,14.8,38.3,56.9,16.9
2024-06-30,7.1,6.3,6.6,7.9,14.8,38.3,56.9,16.9
2024-07-07,7.1,6.3,6.7,7.9,14.8,38.3,57.0,16.9
2024-07-14,7.1,6.4,6.7,7.9,14.8,38.4,57.0,17.0
2024-07-21,7.2,6.4,6.7,7.9,14.8,38.4,57.0,17.0
2024-07-28,7.2,6.4,6.7,7.9,14.8,38.4,57.0,17.0
2024-08-04,7.2,6.4,6.7,7.9,14.9,38.4,57.0,17.0
2024-08-11,7.2,6.4,6.7,7.9,14.9,38.5,57.1,17.0
2024-08-18,7.2,6.4,6.7,7.9,14.9,38.5,57.1,17.0
