Age group,
Under 1 year,1908.2
1-4 years,214.7
5-9 years,66.2
10-19 years,90.5
20-29 years,211.7
30-39 years,227.6
40-49 years,225.6
50-59 years,351.0
60-69 years,603.4
70-79 years,1508.3
80+ years,4941.5
