date,ICU (All cause),Non ICU (All cause)
2020-03-08,0,0
2020-03-09,0,1
2020-03-10,0,1
2020-03-11,0,1
2020-03-12,1,1
2020-03-13,2,3
2020-03-14,2,3
2020-03-15,2,3
2020-03-16,2,4
2020-03-17,3,4
2020-03-18,3,9
2020-03-19,8,7
2020-03-20,9,7
2020-03-21,10,9
2020-03-22,10,10
2020-03-23,10,12
2020-03-24,11,18
2020-03-25,11,22
2020-03-26,11,23
2020-03-27,13,22
2020-03-28,14,24
2020-03-29,15,25
2020-03-30,17,25
2020-03-31,18,24
2020-04-01,20,21
2020-04-02,20,23
2020-04-03,19,26
2020-04-04,20,27
2020-04-05,20,24
2020-04-06,18,27
2020-04-07,16,30
2020-04-08,16,33
2020-04-09,15,35
2020-04-10,15,37
2020-04-11,15,37
2020-04-12,15,35
2020-04-13,14,35
2020-04-14,15,33
2020-04-15,12,43
2020-04-16,13,45
2020-04-17,14,49
2020-04-18,16,40
2020-04-19,19,43
2020-04-20,18,44
2020-04-21,20,41
2020-04-22,19,45
2020-04-23,18,47
2020-04-24,21,49
2020-04-25,19,51
2020-04-26,21,54
2020-04-27,20,57
2020-04-28,23,56
2020-04-29,22,64
2020-04-30,22,67
2020-05-01,23,59
2020-05-02,19,64
2020-05-03,21,62
2020-05-04,21,61
2020-05-05,20,64
2020-05-06,19,60
2020-05-07,18,60
2020-05-08,16,57
2020-05-09,14,50
2020-05-10,12,53
2020-05-11,11,53
2020-05-12,11,54
2020-05-13,9,52
2020-05-14,9,48
2020-05-15,9,43
2020-05-16,8,42
2020-05-17,9,41
2020-05-18,9,41
2020-05-19,8,37
2020-05-20,7,37
2020-05-21,6,36
2020-05-22,6,33
2020-05-23,7,28
2020-05-24,6,27
2020-05-25,5,28
2020-05-26,5,28
2020-05-27,4,27
2020-05-28,4,28
2020-05-29,5,28
2020-05-30,6,21
2020-05-31,6,18
2020-06-01,6,18
2020-06-02,6,19
2020-06-03,6,14
2020-06-04,5,13
2020-06-05,5,13
2020-06-06,5,13
2020-06-07,5,15
2020-06-08,5,14
2020-06-09,5,11
2020-06-10,4,12
2020-06-11,4,12
2020-06-12,5,15
2020-06-13,5,13
2020-06-14,6,14
2020-06-15,6,19
2020-06-16,7,20
2020-06-17,7,21
2020-06-18,6,24
2020-06-19,6,24
2020-06-20,7,20
2020-06-21,6,22
2020-06-22,6,20
2020-06-23,7,21
2020-06-24,8,19
2020-06-25,8,22
2020-06-26,8,24
2020-06-27,8,24
2020-06-28,9,23
2020-06-29,9,23
2020-06-30,8,24
2020-07-01,8,22
2020-07-02,9,24
2020-07-03,8,30
2020-07-04,7,39
2020-07-05,6,40
2020-07-06,6,41
2020-07-07,7,40
2020-07-08,7,34
2020-07-09,9,32
2020-07-10,8,35
2020-07-11,11,33
2020-07-12,13,33
2020-07-13,13,43
2020-07-14,7,54
2020-07-15,8,56
2020-07-16,15,53
2020-07-17,16,59
2020-07-18,15,60
2020-07-19,17,59
2020-07-20,16,69
2020-07-21,18,74
2020-07-22,21,73
2020-07-23,21,69
2020-07-24,16,72
2020-07-25,16,62
2020-07-26,17,62
2020-07-27,15,64
2020-07-28,16,60
2020-07-29,17,60
2020-07-30,16,59
2020-07-31,17,58
2020-08-01,18,53
2020-08-02,17,55
2020-08-03,22,50
2020-08-04,21,44
2020-08-05,19,43
2020-08-06,18,37
2020-08-07,17,37
2020-08-08,18,36
2020-08-09,15,36
2020-08-10,15,34
2020-08-11,14,33
2020-08-12,13,36
2020-08-13,13,35
2020-08-14,13,33
2020-08-15,13,35
2020-08-16,11,39
2020-08-17,14,39
2020-08-18,15,37
2020-08-19,15,35
2020-08-20,12,32
2020-08-21,12,36
2020-08-22,10,37
2020-08-23,10,38
2020-08-24,8,40
2020-08-25,8,43
2020-08-26,8,45
2020-08-27,8,43
2020-08-28,9,38
2020-08-29,9,35
2020-08-30,11,38
2020-08-31,11,41
2020-09-01,10,43
2020-09-02,10,40
2020-09-03,11,41
2020-09-04,13,39
2020-09-05,13,38
2020-09-06,11,38
2020-09-07,10,38
2020-09-08,7,42
2020-09-09,7,37
2020-09-10,6,36
2020-09-11,6,37
2020-09-12,7,37
2020-09-13,7,34
2020-09-14,9,39
2020-09-15,8,38
2020-09-16,8,39
2020-09-17,8,43
2020-09-18,9,49
2020-09-19,11,48
2020-09-20,12,48
2020-09-21,12,48
2020-09-22,13,48
2020-09-23,15,49
2020-09-24,15,53
2020-09-25,16,54
2020-09-26,16,53
2020-09-27,14,58
2020-09-28,12,58
2020-09-29,12,58
2020-09-30,13,61
2020-10-01,15,59
2020-10-02,16,63
2020-10-03,16,64
2020-10-04,14,62
2020-10-05,16,63
2020-10-06,15,73
2020-10-07,13,79
2020-10-08,11,80
2020-10-09,12,79
2020-10-10,14,84
2020-10-11,16,85
2020-10-12,13,90
2020-10-13,14,90
2020-10-14,15,93
2020-10-15,10,108
2020-10-16,12,106
2020-10-17,13,110
2020-10-18,16,105
2020-10-19,15,105
2020-10-20,15,99
2020-10-21,17,91
2020-10-22,14,93
2020-10-23,15,91
2020-10-24,17,91
2020-10-25,16,94
2020-10-26,16,101
2020-10-27,20,102
2020-10-28,18,113
2020-10-29,25,116
2020-10-30,24,112
2020-10-31,24,118
2020-11-01,28,124
2020-11-02,28,126
2020-11-03,32,126
2020-11-04,32,127
2020-11-05,32,139
2020-11-06,33,146
2020-11-07,35,149
2020-11-08,38,154
2020-11-09,42,165
2020-11-10,44,172
2020-11-11,50,174
2020-11-12,53,193
2020-11-13,55,206
2020-11-14,57,214
2020-11-15,56,227
2020-11-16,58,234
2020-11-17,59,246
2020-11-18,61,261
2020-11-19,59,286
2020-11-20,58,297
2020-11-21,62,294
2020-11-22,65,299
2020-11-23,66,317
2020-11-24,74,323
2020-11-25,85,351
2020-11-26,86,362
2020-11-27,89,373
2020-11-28,94,383
2020-11-29,95,399
2020-11-30,102,418
2020-12-01,100,450
2020-12-02,101,464
2020-12-03,100,487
2020-12-04,103,498
2020-12-05,106,520
2020-12-06,113,541
2020-12-07,115,580
2020-12-08,128,580
2020-12-09,127,598
2020-12-10,127,600
2020-12-11,128,598
2020-12-12,136,569
2020-12-13,138,591
2020-12-14,135,625
2020-12-15,142,632
2020-12-16,140,644
2020-12-17,145,647
2020-12-18,154,636
2020-12-19,152,637
2020-12-20,153,657
2020-12-21,152,670
2020-12-22,144,692
2020-12-23,150,702
2020-12-24,151,697
2020-12-25,147,689
2020-12-26,141,705
2020-12-27,150,714
2020-12-28,154,726
2020-12-29,152,751
2020-12-30,144,761
2020-12-31,141,751
2021-01-01,147,730
2021-01-02,142,747
2021-01-03,139,751
2021-01-04,141,761
2021-01-05,142,738
2021-01-06,140,707
2021-01-07,139,679
2021-01-08,135,663
2021-01-09,132,640
2021-01-10,136,657
2021-01-11,133,665
2021-01-12,137,654
2021-01-13,135,632
2021-01-14,127,638
2021-01-15,123,617
2021-01-16,123,594
2021-01-17,121,596
2021-01-18,122,601
2021-01-19,125,600
2021-01-20,121,580
2021-01-21,117,554
2021-01-22,115,534
2021-01-23,111,504
2021-01-24,114,488
2021-01-25,108,485
2021-01-26,109,466
2021-01-27,111,455
2021-01-28,108,453
2021-01-29,102,445
2021-01-30,101,426
2021-01-31,102,419
2021-02-01,96,428
2021-02-02,93,407
2021-02-03,92,384
2021-02-04,88,356
2021-02-05,83,340
2021-02-06,80,324
2021-02-07,77,322
2021-02-08,78,319
2021-02-09,75,311
2021-02-10,68,291
2021-02-11,63,269
2021-02-12,60,256
2021-02-13,56,257
2021-02-14,55,254
2021-02-15,53,269
2021-02-16,57,268
2021-02-17,53,263
2021-02-18,54,249
2021-02-19,50,239
2021-02-20,54,226
2021-02-21,53,239
2021-02-22,52,241
2021-02-23,58,222
2021-02-24,57,216
2021-02-25,56,216
2021-02-26,50,217
2021-02-27,45,208
2021-02-28,48,214
2021-03-01,50,208
2021-03-02,44,210
2021-03-03,43,204
2021-03-04,41,211
2021-03-05,40,213
2021-03-06,38,206
2021-03-07,34,218
2021-03-08,35,224
2021-03-09,36,212
2021-03-10,37,217
2021-03-11,38,219
2021-03-12,36,218
2021-03-13,36,213
2021-03-14,41,219
2021-03-15,41,218
2021-03-16,42,220
2021-03-17,42,224
2021-03-18,46,225
2021-03-19,47,227
2021-03-20,46,229
2021-03-21,46,234
2021-03-22,52,238
2021-03-23,51,237
2021-03-24,54,235
2021-03-25,57,224
2021-03-26,65,214
2021-03-27,62,213
2021-03-28,62,223
2021-03-29,57,238
2021-03-30,62,229
2021-03-31,59,225
2021-04-01,61,227
2021-04-02,69,225
2021-04-03,70,226
2021-04-04,76,232
2021-04-05,77,243
2021-04-06,78,245
2021-04-07,82,251
2021-04-08,83,259
2021-04-09,85,276
2021-04-10,91,290
2021-04-11,90,297
2021-04-12,88,311
2021-04-13,89,327
2021-04-14,85,330
2021-04-15,89,333
2021-04-16,90,354
2021-04-17,98,351
2021-04-18,100,361
2021-04-19,103,384
2021-04-20,111,394
2021-04-21,114,410
2021-04-22,121,429
2021-04-23,125,461
2021-04-24,136,460
2021-04-25,139,482
2021-04-26,142,493
2021-04-27,142,502
2021-04-28,144,482
2021-04-29,146,499
2021-04-30,147,494
2021-05-01,147,498
2021-05-02,145,504
2021-05-03,139,529
2021-05-04,134,520
2021-05-05,134,516
2021-05-06,136,505
2021-05-07,134,511
2021-05-08,140,509
2021-05-09,144,531
2021-05-10,151,540
2021-05-11,156,558
2021-05-12,162,542
2021-05-13,163,535
2021-05-14,166,509
2021-05-15,173,478
2021-05-16,169,491
2021-05-17,174,506
2021-05-18,175,498
2021-05-19,168,494
2021-05-20,166,469
2021-05-21,154,455
2021-05-22,152,426
2021-05-23,152,415
2021-05-24,150,410
2021-05-25,147,391
2021-05-26,143,385
2021-05-27,141,367
2021-05-28,134,338
2021-05-29,132,309
2021-05-30,125,312
2021-05-31,119,317
2021-06-01,117,318
2021-06-02,115,292
2021-06-03,105,270
2021-06-04,99,268
2021-06-05,92,270
2021-06-06,91,260
2021-06-07,83,255
2021-06-08,81,251
2021-06-09,80,229
2021-06-10,76,221
2021-06-11,71,218
2021-06-12,72,199
2021-06-13,70,201
2021-06-14,65,207
2021-06-15,64,194
2021-06-16,56,188
2021-06-17,55,185
2021-06-18,46,179
2021-06-19,49,166
2021-06-20,53,163
2021-06-21,52,153
2021-06-22,52,149
2021-06-23,48,145
2021-06-24,44,139
2021-06-25,43,139
2021-06-26,38,135
2021-06-27,36,142
2021-06-28,34,135
2021-06-29,32,130
2021-06-30,33,118
2021-07-01,31,110
2021-07-02,29,108
2021-07-03,29,105
2021-07-04,31,101
2021-07-05,30,105
2021-07-06,28,109
2021-07-07,29,98
2021-07-08,32,90
2021-07-09,33,80
2021-07-10,31,82
2021-07-11,32,75
2021-07-12,31,76
2021-07-13,31,76
2021-07-14,29,73
2021-07-15,26,79
2021-07-16,26,77
2021-07-17,26,74
2021-07-18,26,72
2021-07-19,26,69
2021-07-20,26,67
2021-07-21,26,64
2021-07-22,26,57
2021-07-23,23,61
2021-07-24,22,58
2021-07-25,21,60
2021-07-26,21,62
2021-07-27,18,66
2021-07-28,20,68
2021-07-29,19,70
2021-07-30,18,74
2021-07-31,17,74
2021-08-01,20,70
2021-08-02,22,67
2021-08-03,22,73
2021-08-04,23,77
2021-08-05,25,84
2021-08-06,25,91
2021-08-07,23,91
2021-08-08,26,100
2021-08-09,28,104
2021-08-10,30,111
2021-08-11,37,118
2021-08-12,37,121
2021-08-13,38,122
2021-08-14,42,113
2021-08-15,42,125
2021-08-16,43,136
2021-08-17,45,140
2021-08-18,41,160
2021-08-19,44,178
2021-08-20,45,194
2021-08-21,46,189
2021-08-22,51,197
2021-08-23,55,211
2021-08-24,56,235
2021-08-25,61,249
2021-08-26,71,265
2021-08-27,82,277
2021-08-28,82,300
2021-08-29,92,313
2021-08-30,101,338
2021-08-31,102,373
2021-09-01,110,384
2021-09-02,113,419
2021-09-03,122,435
2021-09-04,127,444
2021-09-05,133,453
2021-09-06,136,478
2021-09-07,143,521
2021-09-08,147,537
2021-09-09,163,536
2021-09-10,175,575
2021-09-11,178,589
2021-09-12,190,622
2021-09-13,205,630
2021-09-14,211,672
2021-09-15,215,690
2021-09-16,212,711
2021-09-17,208,718
2021-09-18,199,737
2021-09-19,215,748
2021-09-20,219,781
2021-09-21,230,805
2021-09-22,227,825
2021-09-23,239,829
2021-09-24,241,827
2021-09-25,246,798
2021-09-26,250,821
2021-09-27,244,860
2021-09-28,251,825
2021-09-29,247,830
2021-09-30,249,810
2021-10-01,245,810
2021-10-02,241,839
2021-10-03,240,832
2021-10-04,233,857
2021-10-05,230,858
2021-10-06,234,850
2021-10-07,236,840
2021-10-08,238,811
2021-10-09,224,790
2021-10-10,226,818
2021-10-11,222,817
2021-10-12,217,805
2021-10-13,215,790
2021-10-14,212,777
2021-10-15,208,771
2021-10-16,202,755
2021-10-17,211,752
2021-10-18,204,748
2021-10-19,195,729
2021-10-20,189,709
2021-10-21,182,697
2021-10-22,181,666
2021-10-23,184,632
2021-10-24,170,643
2021-10-25,168,657
2021-10-26,167,632
2021-10-27,168,603
2021-10-28,162,594
2021-10-29,154,576
2021-10-30,147,545
2021-10-31,144,539
2021-11-01,148,537
2021-11-02,139,545
2021-11-03,133,532
2021-11-04,130,519
2021-11-05,127,521
2021-11-06,128,492
2021-11-07,123,474
2021-11-08,119,480
2021-11-09,115,460
2021-11-10,104,455
2021-11-11,98,446
2021-11-12,95,439
2021-11-13,92,427
2021-11-14,91,420
2021-11-15,92,423
2021-11-16,90,418
2021-11-17,83,417
2021-11-18,82,404
2021-11-19,85,389
2021-11-20,80,374
2021-11-21,85,375
2021-11-22,83,386
2021-11-23,84,379
2021-11-24,85,369
2021-11-25,78,376
2021-11-26,72,378
2021-11-27,68,367
2021-11-28,68,360
2021-11-29,71,361
2021-11-30,71,346
2021-12-01,69,344
2021-12-02,66,323
2021-12-03,62,319
2021-12-04,62,311
2021-12-05,66,318
2021-12-06,67,322
2021-12-07,60,321
2021-12-08,62,313
2021-12-09,64,312
2021-12-10,64,321
2021-12-11,62,308
2021-12-12,63,303
2021-12-13,64,313
2021-12-14,66,306
2021-12-15,63,299
2021-12-16,61,290
2021-12-17,60,281
2021-12-18,65,259
2021-12-19,63,268
2021-12-20,65,274
2021-12-21,64,274
2021-12-22,63,269
2021-12-23,62,275
2021-12-24,57,268
2021-12-25,54,268
2021-12-26,53,276
2021-12-27,55,295
2021-12-28,50,326
2021-12-29,51,346
2021-12-30,51,373
2021-12-31,51,373
2022-01-01,54,382
2022-01-02,56,409
2022-01-03,54,428
2022-01-04,60,479
2022-01-05,65,501
2022-01-06,67,533
2022-01-07,72,595
2022-01-08,77,611
2022-01-09,76,657
2022-01-10,81,713
2022-01-11,84,745
2022-01-12,80,786
2022-01-13,82,836
2022-01-14,83,892
2022-01-15,92,909
2022-01-16,99,979
2022-01-17,104,1060
2022-01-18,111,1072
2022-01-19,113,1111
2022-01-20,110,1176
2022-01-21,107,1224
2022-01-22,107,1237
2022-01-23,111,1294
2022-01-24,113,1371
2022-01-25,110,1411
2022-01-26,109,1466
2022-01-27,107,1471
2022-01-28,105,1477
2022-01-29,103,1449
2022-01-30,103,1479
2022-01-31,111,1545
2022-02-01,107,1561
2022-02-02,114,1534
2022-02-03,122,1519
2022-02-04,122,1502
2022-02-05,117,1458
2022-02-06,119,1493
2022-02-07,130,1548
2022-02-08,135,1528
2022-02-09,128,1509
2022-02-10,127,1477
2022-02-11,119,1472
2022-02-12,122,1428
2022-02-13,122,1438
2022-02-14,123,1455
2022-02-15,121,1426
2022-02-16,116,1410
2022-02-17,118,1412
2022-02-18,121,1369
2022-02-19,108,1317
2022-02-20,96,1319
2022-02-21,94,1322
2022-02-22,92,1308
2022-02-23,92,1289
2022-02-24,88,1236
2022-02-25,77,1236
2022-02-26,75,1175
2022-02-27,81,1176
2022-02-28,81,1197
2022-03-01,82,1181
2022-03-02,78,1157
2022-03-03,75,1126
2022-03-04,74,1109
2022-03-05,73,1047
2022-03-06,75,1056
2022-03-07,75,1062
2022-03-08,77,1045
2022-03-09,76,1025
2022-03-10,75,1014
2022-03-11,77,989
2022-03-12,75,943
2022-03-13,72,942
2022-03-14,69,956
2022-03-15,68,944
2022-03-16,64,932
2022-03-17,59,937
2022-03-18,56,919
2022-03-19,55,891
2022-03-20,56,913
2022-03-21,54,934
2022-03-22,57,920
2022-03-23,58,903
2022-03-24,50,917
2022-03-25,50,910
2022-03-26,43,889
2022-03-27,45,909
2022-03-28,44,963
2022-03-29,44,953
2022-03-30,43,951
2022-03-31,37,938
2022-04-01,38,919
2022-04-02,39,905
2022-04-03,39,943
2022-04-04,42,991
2022-04-05,45,1009
2022-04-06,50,1012
2022-04-07,50,1014
2022-04-08,48,1019
2022-04-09,49,1002
2022-04-10,47,1035
2022-04-11,48,1057
2022-04-12,50,1067
2022-04-13,49,1057
2022-04-14,45,1060
2022-04-15,46,1049
2022-04-16,47,1052
2022-04-17,42,1102
2022-04-18,47,1143
2022-04-19,49,1155
2022-04-20,50,1158
2022-04-21,47,1177
2022-04-22,46,1197
2022-04-23,48,1171
2022-04-24,48,1205
2022-04-25,54,1248
2022-04-26,54,1252
2022-04-27,54,1246
2022-04-28,51,1224
2022-04-29,49,1214
2022-04-30,44,1183
2022-05-01,45,1232
2022-05-02,49,1287
2022-05-03,55,1292
2022-05-04,50,1258
2022-05-05,47,1254
2022-05-06,43,1228
2022-05-07,38,1180
2022-05-08,38,1207
2022-05-09,40,1236
2022-05-10,41,1222
2022-05-11,37,1200
2022-05-12,36,1185
2022-05-13,39,1158
2022-05-14,38,1132
2022-05-15,41,1142
2022-05-16,42,1168
2022-05-17,39,1176
2022-05-18,37,1148
2022-05-19,37,1135
2022-05-20,34,1061
2022-05-21,31,1033
2022-05-22,30,1035
2022-05-23,31,1048
2022-05-24,31,1066
2022-05-25,26,1047
2022-05-26,32,999
2022-05-27,35,966
2022-05-28,33,925
2022-05-29,34,915
2022-05-30,34,917
2022-05-31,32,911
2022-06-01,33,872
2022-06-02,32,839
2022-06-03,32,832
2022-06-04,30,798
2022-06-05,28,801
2022-06-06,25,819
2022-06-07,22,799
2022-06-08,22,770
2022-06-09,19,752
2022-06-10,22,745
2022-06-11,25,717
2022-06-12,22,713
2022-06-13,19,720
2022-06-14,21,698
2022-06-15,21,685
2022-06-16,17,674
2022-06-17,14,664
2022-06-18,18,645
2022-06-19,17,649
2022-06-20,18,664
2022-06-21,20,654
2022-06-22,15,645
2022-06-23,17,634
2022-06-24,15,617
2022-06-25,15,594
2022-06-26,15,590
2022-06-27,13,589
2022-06-28,14,570
2022-06-29,14,562
2022-06-30,16,546
2022-07-01,15,540
2022-07-02,17,547
2022-07-03,19,552
2022-07-04,23,569
2022-07-05,19,576
2022-07-06,21,554
2022-07-07,21,552
2022-07-08,18,545
2022-07-09,19,525
2022-07-10,16,539
2022-07-11,17,556
2022-07-12,22,540
2022-07-13,25,525
2022-07-14,25,527
2022-07-15,20,534
2022-07-16,22,539
2022-07-17,26,552
2022-07-18,27,575
2022-07-19,27,568
2022-07-20,25,566
2022-07-21,21,571
2022-07-22,23,583
2022-07-23,24,600
2022-07-24,26,629
2022-07-25,27,659
2022-07-26,25,680
2022-07-27,25,688
2022-07-28,22,717
2022-07-29,22,716
2022-07-30,21,704
2022-07-31,26,713
2022-08-01,28,722
2022-08-02,26,745
2022-08-03,24,733
2022-08-04,23,749
2022-08-05,32,740
2022-08-06,29,733
2022-08-07,27,751
2022-08-08,29,778
2022-08-09,30,759
2022-08-10,31,764
2022-08-11,32,773
2022-08-12,30,779
2022-08-13,31,772
2022-08-14,30,799
2022-08-15,31,835
2022-08-16,32,840
2022-08-17,34,861
2022-08-18,27,837
2022-08-19,30,822
2022-08-20,25,827
2022-08-21,25,834
2022-08-22,29,868
2022-08-23,30,874
2022-08-24,31,862
2022-08-25,26,863
2022-08-26,34,851
2022-08-27,29,829
2022-08-28,26,841
2022-08-29,20,860
2022-08-30,21,850
2022-08-31,20,820
2022-09-01,19,818
2022-09-02,22,804
2022-09-03,21,776
2022-09-04,22,780
2022-09-05,20,813
2022-09-06,17,829
2022-09-07,17,825
2022-09-08,17,828
2022-09-09,18,814
2022-09-10,20,799
2022-09-11,27,795
2022-09-12,26,840
2022-09-13,23,844
2022-09-14,21,855
2022-09-15,21,851
2022-09-16,26,862
2022-09-17,28,855
2022-09-18,27,875
2022-09-19,29,908
2022-09-20,28,921
2022-09-21,30,924
2022-09-22,32,941
2022-09-23,37,943
2022-09-24,38,947
2022-09-25,38,976
2022-09-26,40,991
2022-09-27,41,977
2022-09-28,41,979
2022-09-29,38,989
2022-09-30,33,1003
2022-10-01,27,1000
2022-10-02,33,1005
2022-10-03,33,1022
2022-10-04,32,1023
2022-10-05,31,1011
2022-10-06,30,1001
2022-10-07,31,984
2022-10-08,29,989
2022-10-09,28,1000
2022-10-10,30,1024
2022-10-11,32,1062
2022-10-12,30,1074
2022-10-13,30,1072
2022-10-14,33,1068
2022-10-15,37,1033
2022-10-16,35,1064
2022-10-17,32,1083
2022-10-18,30,1093
2022-10-19,31,1103
2022-10-20,33,1085
2022-10-21,32,1092
2022-10-22,30,1082
2022-10-23,30,1099
2022-10-24,30,1134
2022-10-25,28,1135
2022-10-26,28,1114
2022-10-27,28,1100
2022-10-28,28,1084
2022-10-29,27,1067
2022-10-30,25,1087
2022-10-31,25,1106
2022-11-01,25,1116
2022-11-02,29,1102
2022-11-03,27,1120
2022-11-04,28,1101
2022-11-05,31,1077
2022-11-06,37,1077
2022-11-07,41,1104
2022-11-08,34,1118
2022-11-09,33,1091
2022-11-10,30,1089
2022-11-11,35,1091
2022-11-12,37,1101
2022-11-13,41,1131
2022-11-14,43,1154
2022-11-15,45,1125
2022-11-16,47,1123
2022-11-17,49,1107
2022-11-18,47,1088
2022-11-19,43,1066
2022-11-20,39,1091
2022-11-21,40,1139
2022-11-22,44,1144
2022-11-23,49,1133
2022-11-24,48,1123
2022-11-25,48,1085
2022-11-26,45,1053
2022-11-27,45,1066
2022-11-28,47,1089
2022-11-29,45,1071
2022-11-30,41,1065
2022-12-01,40,1064
2022-12-02,40,1053
2022-12-03,41,1012
2022-12-04,40,1038
2022-12-05,41,1057
2022-12-06,41,1047
2022-12-07,43,1035
2022-12-08,40,1031
2022-12-09,46,1011
2022-12-10,46,978
2022-12-11,40,986
2022-12-12,43,997
2022-12-13,41,978
2022-12-14,39,956
2022-12-15,37,941
2022-12-16,41,930
2022-12-17,38,890
2022-12-18,30,906
2022-12-19,35,926
2022-12-20,39,914
2022-12-21,35,882
2022-12-22,30,861
2022-12-23,35,842
2022-12-24,33,818
2022-12-25,38,813
2022-12-26,41,843
2022-12-27,43,852
2022-12-28,43,868
2022-12-29,39,884
2022-12-30,41,887
2022-12-31,41,883
2023-01-01,42,901
2023-01-02,45,917
2023-01-03,48,916
2023-01-04,43,924
2023-01-05,35,917
2023-01-06,34,891
2023-01-07,33,869
2023-01-08,32,874
2023-01-09,33,898
2023-01-10,34,900
2023-01-11,33,894
2023-01-12,37,877
2023-01-13,37,858
2023-01-14,35,826
2023-01-15,32,838
2023-01-16,31,867
2023-01-17,35,848
2023-01-18,34,828
2023-01-19,31,819
2023-01-20,26,809
2023-01-21,28,777
2023-01-22,29,771
2023-01-23,30,786
2023-01-24,31,782
2023-01-25,31,769
2023-01-26,31,747
2023-01-27,26,731
2023-01-28,26,705
2023-01-29,27,698
2023-01-30,25,701
2023-01-31,27,692
2023-02-01,25,682
2023-02-02,22,683
2023-02-03,23,665
2023-02-04,22,653
2023-02-05,19,655
2023-02-06,21,685
2023-02-07,19,682
2023-02-08,19,673
2023-02-09,20,658
2023-02-10,16,642
2023-02-11,19,612
2023-02-12,17,611
2023-02-13,19,626
2023-02-14,20,618
2023-02-15,19,611
2023-02-16,17,603
2023-02-17,17,595
2023-02-18,17,573
2023-02-19,16,569
2023-02-20,16,582
2023-02-21,15,582
2023-02-22,15,570
2023-02-23,13,570
2023-02-24,16,561
2023-02-25,15,545
2023-02-26,14,553
2023-02-27,16,562
2023-02-28,14,540
2023-03-01,12,538
2023-03-02,12,528
2023-03-03,13,523
2023-03-04,14,521
2023-03-05,14,520
2023-03-06,13,530
2023-03-07,11,522
2023-03-08,13,509
2023-03-09,12,497
2023-03-10,11,486
2023-03-11,11,466
2023-03-12,13,479
2023-03-13,11,490
2023-03-14,13,478
2023-03-15,13,473
2023-03-16,16,465
2023-03-17,18,454
2023-03-18,16,447
2023-03-19,17,454
2023-03-20,20,470
2023-03-21,21,463
2023-03-22,22,457
2023-03-23,19,447
2023-03-24,19,448
2023-03-25,25,440
2023-03-26,26,451
2023-03-27,27,458
2023-03-28,26,452
2023-03-29,26,458
2023-03-30,21,457
2023-03-31,19,445
2023-04-01,18,451
2023-04-02,17,467
2023-04-03,19,483
2023-04-04,19,483
2023-04-05,17,479
2023-04-06,14,472
2023-04-07,15,457
2023-04-08,17,453
2023-04-09,17,449
2023-04-10,17,459
2023-04-11,20,446
2023-04-12,18,450
2023-04-13,18,459
2023-04-14,20,462
2023-04-15,17,447
2023-04-16,18,454
2023-04-17,19,464
2023-04-18,19,477
2023-04-19,23,479
2023-04-20,23,480
2023-04-21,21,473
2023-04-22,21,459
2023-04-23,20,471
2023-04-24,23,487
2023-04-25,26,491
2023-04-26,26,486
2023-04-27,22,489
2023-04-28,23,486
2023-04-29,24,476
2023-04-30,25,474
2023-05-01,23,485
2023-05-02,23,487
2023-05-03,19,489
2023-05-04,18,480
2023-05-05,18,481
2023-05-06,21,462
2023-05-07,21,460
2023-05-08,22,481
2023-05-09,22,494
2023-05-10,20,500
2023-05-11,21,481
2023-05-12,24,459
2023-05-13,21,459
2023-05-14,21,462
2023-05-15,20,474
2023-05-16,18,478
2023-05-17,17,466
2023-05-18,17,465
2023-05-19,14,446
2023-05-20,14,432
2023-05-21,13,444
2023-05-22,11,441
2023-05-23,13,449
2023-05-24,15,438
2023-05-25,14,435
2023-05-26,12,422
2023-05-27,11,416
2023-05-28,12,418
2023-05-29,13,427
2023-05-30,13,418
2023-05-31,13,415
2023-06-01,13,409
2023-06-02,13,410
2023-06-03,11,397
2023-06-04,9,394
2023-06-05,12,385
