"{'text': 'Week', 'standoff': 10}",
2024-08-25,291
2024-09-01,366
2024-09-08,388
2024-09-15,454
2024-09-22,504
2024-09-29,529
2024-10-06,685
2024-10-13,655
2024-10-20,590
2024-10-27,584
2024-11-03,559
2024-11-10,548
2024-11-17,546
2024-11-24,467
2024-12-01,442
2024-12-08,430
2024-12-15,443
2024-12-22,375
2024-12-29,370
2025-01-05,293
2025-01-12,241
2025-01-19,158
2025-01-26,109
2025-02-02,91
2025-02-09,78
2025-02-16,75
2025-02-23,77
