date,
2020-03-04,0
2020-03-05,0
2020-03-06,0
2020-03-07,0
2020-03-08,0
2020-03-09,0
2020-03-10,0
2020-03-11,0
2020-03-12,0
2020-03-13,0
2020-03-14,0
2020-03-15,0
2020-03-16,0
2020-03-17,0
2020-03-18,1
2020-03-19,0
2020-03-20,0
2020-03-21,0
2020-03-22,0
2020-03-23,0
2020-03-24,0
2020-03-25,0
2020-03-26,0
2020-03-27,0
2020-03-28,0
2020-03-29,4
2020-03-30,5
2020-03-31,1
2020-04-01,1
2020-04-02,3
2020-04-03,3
2020-04-04,5
2020-04-05,2
2020-04-06,3
2020-04-07,0
2020-04-08,4
2020-04-09,4
2020-04-10,4
2020-04-11,5
2020-04-12,0
2020-04-13,3
2020-04-14,0
2020-04-15,2
2020-04-16,0
2020-04-17,4
2020-04-18,3
2020-04-19,5
2020-04-20,4
2020-04-21,6
2020-04-22,3
2020-04-23,5
2020-04-24,0
2020-04-25,4
2020-04-26,4
2020-04-27,2
2020-04-28,4
2020-04-29,2
2020-04-30,4
2020-05-01,2
2020-05-02,2
2020-05-03,2
2020-05-04,1
2020-05-05,4
2020-05-06,1
2020-05-07,3
2020-05-08,0
2020-05-09,2
2020-05-10,1
2020-05-11,3
2020-05-12,3
2020-05-13,0
2020-05-14,1
2020-05-15,1
2020-05-16,2
2020-05-17,1
2020-05-18,2
2020-05-19,1
2020-05-20,4
2020-05-21,2
2020-05-22,0
2020-05-23,1
2020-05-24,0
2020-05-25,2
2020-05-26,2
2020-05-27,0
2020-05-28,0
2020-05-29,1
2020-05-30,0
2020-05-31,0
2020-06-01,1
2020-06-02,1
2020-06-03,1
2020-06-04,0
2020-06-05,1
2020-06-06,2
2020-06-07,0
2020-06-08,1
2020-06-09,0
2020-06-10,0
2020-06-11,0
2020-06-12,0
2020-06-13,0
2020-06-14,0
2020-06-15,0
2020-06-16,0
2020-06-17,1
2020-06-18,0
2020-06-19,0
2020-06-20,0
2020-06-21,1
2020-06-22,0
2020-06-23,0
2020-06-24,0
2020-06-25,1
2020-06-26,0
2020-06-27,0
2020-06-28,0
2020-06-29,0
2020-06-30,1
2020-07-01,0
2020-07-02,0
2020-07-03,0
2020-07-04,1
2020-07-05,0
2020-07-06,0
2020-07-07,2
2020-07-08,1
2020-07-09,3
2020-07-10,0
2020-07-11,0
2020-07-12,0
2020-07-13,1
2020-07-14,3
2020-07-15,0
2020-07-16,1
2020-07-17,0
2020-07-18,3
2020-07-19,1
2020-07-20,2
2020-07-21,2
2020-07-22,2
2020-07-23,2
2020-07-24,3
2020-07-25,2
2020-07-26,3
2020-07-27,3
2020-07-28,4
2020-07-29,1
2020-07-30,1
2020-07-31,4
2020-08-01,0
2020-08-02,0
2020-08-03,3
2020-08-04,1
2020-08-05,3
2020-08-06,2
2020-08-07,0
2020-08-08,5
2020-08-09,2
2020-08-10,2
2020-08-11,2
2020-08-12,2
2020-08-13,0
2020-08-14,0
2020-08-15,3
2020-08-16,1
2020-08-17,1
2020-08-18,1
2020-08-19,1
2020-08-20,0
2020-08-21,2
2020-08-22,1
2020-08-23,4
2020-08-24,0
2020-08-25,0
2020-08-26,1
2020-08-27,0
2020-08-28,0
2020-08-29,0
2020-08-30,1
2020-08-31,1
2020-09-01,1
2020-09-02,0
2020-09-03,1
2020-09-04,1
2020-09-05,2
2020-09-06,1
2020-09-07,4
2020-09-08,1
2020-09-09,0
2020-09-10,1
2020-09-11,1
2020-09-12,0
2020-09-13,0
2020-09-14,0
2020-09-15,0
2020-09-16,0
2020-09-17,0
2020-09-18,0
2020-09-19,1
2020-09-20,1
2020-09-21,2
2020-09-22,2
2020-09-23,2
2020-09-24,0
2020-09-25,1
2020-09-26,1
2020-09-27,1
2020-09-28,0
2020-09-29,1
2020-09-30,4
2020-10-01,3
2020-10-02,4
2020-10-03,2
2020-10-04,1
2020-10-05,0
2020-10-06,2
2020-10-07,1
2020-10-08,1
2020-10-09,1
2020-10-10,1
2020-10-11,1
2020-10-12,0
2020-10-13,2
2020-10-14,0
2020-10-15,1
2020-10-16,1
2020-10-17,0
2020-10-18,2
2020-10-19,2
2020-10-20,2
2020-10-21,2
2020-10-22,4
2020-10-23,3
2020-10-24,2
2020-10-25,1
2020-10-26,2
2020-10-27,5
2020-10-28,6
2020-10-29,3
2020-10-30,3
2020-10-31,7
2020-11-01,5
2020-11-02,3
2020-11-03,9
2020-11-04,4
2020-11-05,7
2020-11-06,7
2020-11-07,5
2020-11-08,10
2020-11-09,6
2020-11-10,8
2020-11-11,3
2020-11-12,7
2020-11-13,6
2020-11-14,9
2020-11-15,13
2020-11-16,14
2020-11-17,10
2020-11-18,7
2020-11-19,10
2020-11-20,8
2020-11-21,9
2020-11-22,11
2020-11-23,10
2020-11-24,10
2020-11-25,9
2020-11-26,12
2020-11-27,13
2020-11-28,9
2020-11-29,12
2020-11-30,16
2020-12-01,12
2020-12-02,18
2020-12-03,15
2020-12-04,26
2020-12-05,14
2020-12-06,19
2020-12-07,23
2020-12-08,13
2020-12-09,21
2020-12-10,19
2020-12-11,12
2020-12-12,25
2020-12-13,16
2020-12-14,20
2020-12-15,23
2020-12-16,24
2020-12-17,21
2020-12-18,28
2020-12-19,17
2020-12-20,13
2020-12-21,22
2020-12-22,25
2020-12-23,21
2020-12-24,22
2020-12-25,28
2020-12-26,24
2020-12-27,27
2020-12-28,16
2020-12-29,20
2020-12-30,18
2020-12-31,16
2021-01-01,24
2021-01-02,30
2021-01-03,24
2021-01-04,25
2021-01-05,23
2021-01-06,26
2021-01-07,20
2021-01-08,17
2021-01-09,24
2021-01-10,28
2021-01-11,18
2021-01-12,24
2021-01-13,10
2021-01-14,15
2021-01-15,17
2021-01-16,19
2021-01-17,18
2021-01-18,12
2021-01-19,24
2021-01-20,16
2021-01-21,15
2021-01-22,13
2021-01-23,17
2021-01-24,12
2021-01-25,16
2021-01-26,7
2021-01-27,9
2021-01-28,11
2021-01-29,8
2021-01-30,9
2021-01-31,7
2021-02-01,9
2021-02-02,8
2021-02-03,13
2021-02-04,5
2021-02-05,11
2021-02-06,5
2021-02-07,8
2021-02-08,5
2021-02-09,8
2021-02-10,8
2021-02-11,13
2021-02-12,7
2021-02-13,3
2021-02-14,3
2021-02-15,5
2021-02-16,5
2021-02-17,2
2021-02-18,6
2021-02-19,4
2021-02-20,1
2021-02-21,4
2021-02-22,5
2021-02-23,1
2021-02-24,3
2021-02-25,5
2021-02-26,5
2021-02-27,2
2021-02-28,3
2021-03-01,3
2021-03-02,4
2021-03-03,1
2021-03-04,2
2021-03-05,3
2021-03-06,3
2021-03-07,1
2021-03-08,5
2021-03-09,2
2021-03-10,5
2021-03-11,4
2021-03-12,5
2021-03-13,4
2021-03-14,4
2021-03-15,3
2021-03-16,1
2021-03-17,0
2021-03-18,3
2021-03-19,1
2021-03-20,3
2021-03-21,4
2021-03-22,4
2021-03-23,2
2021-03-24,2
2021-03-25,6
2021-03-26,4
2021-03-27,0
2021-03-28,3
2021-03-29,2
2021-03-30,3
2021-03-31,3
2021-04-01,1
2021-04-02,0
2021-04-03,3
2021-04-04,1
2021-04-05,0
2021-04-06,0
2021-04-07,3
2021-04-08,5
2021-04-09,0
2021-04-10,3
2021-04-11,5
2021-04-12,3
2021-04-13,4
2021-04-14,4
2021-04-15,2
2021-04-16,2
2021-04-17,3
2021-04-18,3
2021-04-19,2
2021-04-20,5
2021-04-21,5
2021-04-22,7
2021-04-23,5
2021-04-24,6
2021-04-25,6
2021-04-26,3
2021-04-27,6
2021-04-28,6
2021-04-29,3
2021-04-30,5
2021-05-01,3
2021-05-02,6
2021-05-03,5
2021-05-04,0
2021-05-05,3
2021-05-06,1
2021-05-07,3
2021-05-08,5
2021-05-09,3
2021-05-10,5
2021-05-11,2
2021-05-12,6
2021-05-13,6
2021-05-14,3
2021-05-15,3
2021-05-16,4
2021-05-17,5
2021-05-18,4
2021-05-19,2
2021-05-20,5
2021-05-21,8
2021-05-22,7
2021-05-23,8
2021-05-24,6
2021-05-25,4
2021-05-26,2
2021-05-27,7
2021-05-28,5
2021-05-29,3
2021-05-30,4
2021-05-31,2
2021-06-01,3
2021-06-02,11
2021-06-03,2
2021-06-04,1
2021-06-05,1
2021-06-06,4
2021-06-07,3
2021-06-08,2
2021-06-09,5
2021-06-10,5
2021-06-11,1
2021-06-12,2
2021-06-13,4
2021-06-14,5
2021-06-15,4
2021-06-16,0
2021-06-17,7
2021-06-18,1
2021-06-19,0
2021-06-20,3
2021-06-21,0
2021-06-22,0
2021-06-23,0
2021-06-24,1
2021-06-25,2
2021-06-26,1
2021-06-27,3
2021-06-28,1
2021-06-29,0
2021-06-30,0
2021-07-01,3
2021-07-02,0
2021-07-03,0
2021-07-04,1
2021-07-05,0
2021-07-06,1
2021-07-07,0
2021-07-08,0
2021-07-09,0
2021-07-10,0
2021-07-11,3
2021-07-12,0
2021-07-13,1
2021-07-14,2
2021-07-15,1
2021-07-16,1
2021-07-17,1
2021-07-18,0
2021-07-19,0
2021-07-20,2
2021-07-21,2
2021-07-22,0
2021-07-23,1
2021-07-24,0
2021-07-25,0
2021-07-26,1
2021-07-27,0
2021-07-28,2
2021-07-29,0
2021-07-30,1
2021-07-31,0
2021-08-01,0
2021-08-02,0
2021-08-03,0
2021-08-04,1
2021-08-05,2
2021-08-06,2
2021-08-07,0
2021-08-08,1
2021-08-09,0
2021-08-10,0
2021-08-11,0
2021-08-12,0
2021-08-13,2
2021-08-14,0
2021-08-15,2
2021-08-16,0
2021-08-17,2
2021-08-18,5
2021-08-19,2
2021-08-20,1
2021-08-21,2
2021-08-22,4
2021-08-23,5
2021-08-24,4
2021-08-25,1
2021-08-26,4
2021-08-27,4
2021-08-28,4
2021-08-29,3
2021-08-30,7
2021-08-31,6
2021-09-01,3
2021-09-02,5
2021-09-03,8
2021-09-04,10
2021-09-05,10
2021-09-06,9
2021-09-07,7
2021-09-08,7
2021-09-09,10
2021-09-10,9
2021-09-11,5
2021-09-12,11
2021-09-13,13
2021-09-14,12
2021-09-15,16
2021-09-16,14
2021-09-17,15
2021-09-18,15
2021-09-19,17
2021-09-20,14
2021-09-21,19
2021-09-22,10
2021-09-23,11
2021-09-24,17
2021-09-25,15
2021-09-26,18
2021-09-27,12
2021-09-28,15
2021-09-29,18
2021-09-30,13
2021-10-01,13
2021-10-02,27
2021-10-03,13
2021-10-04,15
2021-10-05,9
2021-10-06,12
2021-10-07,17
2021-10-08,14
2021-10-09,14
2021-10-10,21
2021-10-11,21
2021-10-12,13
2021-10-13,13
2021-10-14,13
2021-10-15,17
2021-10-16,7
2021-10-17,10
2021-10-18,12
2021-10-19,10
2021-10-20,10
2021-10-21,6
2021-10-22,10
2021-10-23,13
2021-10-24,10
2021-10-25,8
2021-10-26,6
2021-10-27,13
2021-10-28,6
2021-10-29,9
2021-10-30,11
2021-10-31,5
2021-11-01,5
2021-11-02,6
2021-11-03,4
2021-11-04,5
2021-11-05,5
2021-11-06,8
2021-11-07,4
2021-11-08,7
2021-11-09,5
2021-11-10,6
2021-11-11,7
2021-11-12,1
2021-11-13,9
2021-11-14,5
2021-11-15,4
2021-11-16,2
2021-11-17,2
2021-11-18,4
2021-11-19,5
2021-11-20,2
2021-11-21,8
2021-11-22,2
2021-11-23,1
2021-11-24,3
2021-11-25,4
2021-11-26,5
2021-11-27,2
2021-11-28,4
2021-11-29,5
2021-11-30,3
2021-12-01,2
2021-12-02,3
2021-12-03,2
2021-12-04,3
2021-12-05,4
2021-12-06,2
2021-12-07,0
2021-12-08,1
2021-12-09,1
2021-12-10,2
2021-12-11,2
2021-12-12,1
2021-12-13,1
2021-12-14,4
2021-12-15,1
2021-12-16,2
2021-12-17,3
2021-12-18,3
2021-12-19,1
2021-12-20,2
2021-12-21,2
2021-12-22,2
2021-12-23,2
2021-12-24,1
2021-12-25,0
2021-12-26,3
2021-12-27,3
2021-12-28,3
2021-12-29,2
2021-12-30,3
2021-12-31,1
2022-01-01,3
2022-01-02,4
2022-01-03,4
2022-01-04,3
2022-01-05,3
2022-01-06,4
2022-01-07,5
2022-01-08,4
2022-01-09,5
2022-01-10,10
2022-01-11,9
2022-01-12,9
2022-01-13,12
2022-01-14,9
2022-01-15,5
2022-01-16,9
2022-01-17,10
2022-01-18,9
2022-01-19,7
2022-01-20,15
2022-01-21,19
2022-01-22,12
2022-01-23,13
2022-01-24,16
2022-01-25,12
2022-01-26,13
2022-01-27,12
2022-01-28,14
2022-01-29,11
2022-01-30,16
2022-01-31,16
2022-02-01,11
2022-02-02,18
2022-02-03,19
2022-02-04,12
2022-02-05,14
2022-02-06,14
2022-02-07,9
2022-02-08,13
2022-02-09,19
2022-02-10,15
2022-02-11,13
2022-02-12,13
2022-02-13,11
2022-02-14,8
2022-02-15,17
2022-02-16,8
2022-02-17,14
2022-02-18,8
2022-02-19,8
2022-02-20,12
2022-02-21,9
2022-02-22,4
2022-02-23,11
2022-02-24,6
2022-02-25,12
2022-02-26,8
2022-02-27,9
2022-02-28,7
2022-03-01,5
2022-03-02,12
2022-03-03,8
2022-03-04,10
2022-03-05,3
2022-03-06,8
2022-03-07,2
2022-03-08,4
2022-03-09,8
2022-03-10,5
2022-03-11,4
2022-03-12,5
2022-03-13,4
2022-03-14,4
2022-03-15,3
2022-03-16,2
2022-03-17,3
2022-03-18,8
2022-03-19,6
2022-03-20,5
2022-03-21,8
2022-03-22,2
2022-03-23,4
2022-03-24,2
2022-03-25,5
2022-03-26,4
2022-03-27,4
2022-03-28,7
2022-03-29,4
2022-03-30,3
2022-03-31,4
2022-04-01,6
2022-04-02,4
2022-04-03,3
2022-04-04,6
2022-04-05,8
2022-04-06,3
2022-04-07,8
2022-04-08,8
2022-04-09,3
2022-04-10,4
2022-04-11,5
2022-04-12,7
2022-04-13,8
2022-04-14,7
2022-04-15,7
2022-04-16,10
2022-04-17,7
2022-04-18,6
2022-04-19,6
2022-04-20,7
2022-04-21,11
2022-04-22,11
2022-04-23,14
2022-04-24,6
2022-04-25,11
2022-04-26,8
2022-04-27,10
2022-04-28,10
2022-04-29,13
2022-04-30,5
2022-05-01,13
2022-05-02,5
2022-05-03,9
2022-05-04,11
2022-05-05,8
2022-05-06,10
2022-05-07,6
2022-05-08,9
2022-05-09,6
2022-05-10,11
2022-05-11,8
2022-05-12,12
2022-05-13,6
2022-05-14,7
2022-05-15,8
2022-05-16,7
2022-05-17,11
2022-05-18,7
2022-05-19,6
2022-05-20,5
2022-05-21,9
2022-05-22,10
2022-05-23,4
2022-05-24,7
2022-05-25,5
2022-05-26,5
2022-05-27,5
2022-05-28,1
2022-05-29,5
2022-05-30,8
2022-05-31,5
2022-06-01,3
2022-06-02,0
2022-06-03,6
2022-06-04,10
2022-06-05,3
2022-06-06,2
2022-06-07,2
2022-06-08,4
2022-06-09,3
2022-06-10,2
2022-06-11,1
2022-06-12,4
2022-06-13,2
2022-06-14,1
2022-06-15,1
2022-06-16,0
2022-06-17,0
2022-06-18,5
2022-06-19,4
2022-06-20,2
2022-06-21,3
2022-06-22,3
2022-06-23,3
2022-06-24,4
2022-06-25,2
2022-06-26,1
2022-06-27,1
2022-06-28,1
2022-06-29,2
2022-06-30,2
2022-07-01,4
2022-07-02,0
2022-07-03,3
2022-07-04,1
2022-07-05,4
2022-07-06,1
2022-07-07,3
2022-07-08,2
2022-07-09,4
2022-07-10,1
2022-07-11,4
2022-07-12,1
2022-07-13,1
2022-07-14,3
2022-07-15,2
2022-07-16,1
2022-07-17,1
2022-07-18,1
2022-07-19,2
2022-07-20,3
2022-07-21,2
2022-07-22,2
2022-07-23,3
2022-07-24,1
2022-07-25,6
2022-07-26,4
2022-07-27,2
2022-07-28,4
2022-07-29,2
2022-07-30,2
2022-07-31,11
2022-08-01,3
2022-08-02,3
2022-08-03,3
2022-08-04,2
2022-08-05,2
2022-08-06,7
2022-08-07,1
2022-08-08,6
2022-08-09,5
2022-08-10,1
2022-08-11,4
2022-08-12,1
2022-08-13,1
2022-08-14,5
2022-08-15,2
2022-08-16,4
2022-08-17,5
2022-08-18,6
2022-08-19,6
2022-08-20,7
2022-08-21,4
2022-08-22,3
2022-08-23,3
2022-08-24,3
2022-08-25,4
2022-08-26,4
2022-08-27,6
2022-08-28,7
2022-08-29,10
2022-08-30,5
2022-08-31,8
2022-09-01,2
2022-09-02,1
2022-09-03,4
2022-09-04,2
2022-09-05,2
2022-09-06,1
2022-09-07,9
2022-09-08,1
2022-09-09,3
2022-09-10,3
2022-09-11,6
2022-09-12,4
2022-09-13,4
2022-09-14,4
2022-09-15,1
2022-09-16,3
2022-09-17,5
2022-09-18,5
2022-09-19,4
2022-09-20,5
2022-09-21,3
2022-09-22,4
2022-09-23,3
2022-09-24,5
2022-09-25,9
2022-09-26,5
2022-09-27,2
2022-09-28,4
2022-09-29,6
2022-09-30,3
2022-10-01,2
2022-10-02,4
2022-10-03,4
2022-10-04,8
2022-10-05,3
2022-10-06,6
2022-10-07,4
2022-10-08,5
2022-10-09,6
2022-10-10,3
2022-10-11,5
2022-10-12,4
2022-10-13,6
2022-10-14,6
2022-10-15,3
2022-10-16,6
2022-10-17,3
2022-10-18,8
2022-10-19,4
2022-10-20,6
2022-10-21,3
2022-10-22,9
2022-10-23,9
2022-10-24,4
2022-10-25,6
2022-10-26,5
2022-10-27,8
2022-10-28,6
2022-10-29,5
2022-10-30,3
2022-10-31,5
2022-11-01,3
2022-11-02,8
2022-11-03,6
2022-11-04,5
2022-11-05,6
2022-11-06,5
2022-11-07,6
2022-11-08,8
2022-11-09,8
2022-11-10,5
2022-11-11,4
2022-11-12,4
2022-11-13,5
2022-11-14,4
2022-11-15,11
2022-11-16,7
2022-11-17,12
2022-11-18,15
2022-11-19,3
2022-11-20,3
2022-11-21,5
2022-11-22,7
2022-11-23,5
2022-11-24,6
2022-11-25,9
2022-11-26,7
2022-11-27,5
2022-11-28,8
2022-11-29,8
2022-11-30,10
2022-12-01,1
2022-12-02,6
2022-12-03,4
2022-12-04,0
2022-12-05,3
2022-12-06,4
2022-12-07,6
2022-12-08,4
2022-12-09,3
2022-12-10,7
2022-12-11,5
2022-12-12,8
2022-12-13,2
2022-12-14,3
2022-12-15,4
2022-12-16,5
2022-12-17,4
2022-12-18,5
2022-12-19,4
2022-12-20,4
2022-12-21,4
2022-12-22,4
2022-12-23,5
2022-12-24,3
2022-12-25,2
2022-12-26,7
2022-12-27,3
2022-12-28,7
2022-12-29,1
2022-12-30,1
2022-12-31,5
2023-01-01,3
2023-01-02,1
2023-01-03,3
2023-01-04,2
2023-01-05,6
2023-01-06,4
2023-01-07,4
2023-01-08,2
2023-01-09,2
2023-01-10,3
2023-01-11,5
2023-01-12,6
2023-01-13,7
2023-01-14,6
2023-01-15,3
2023-01-16,2
2023-01-17,4
2023-01-18,5
2023-01-19,4
2023-01-20,5
2023-01-21,7
2023-01-22,3
2023-01-23,2
2023-01-24,2
2023-01-25,3
2023-01-26,8
2023-01-27,6
2023-01-28,4
2023-01-29,3
2023-01-30,3
2023-01-31,6
2023-02-01,4
2023-02-02,2
2023-02-03,1
2023-02-04,3
2023-02-05,1
2023-02-06,3
2023-02-07,2
2023-02-08,3
2023-02-09,1
2023-02-10,0
2023-02-11,1
2023-02-12,3
2023-02-13,2
2023-02-14,2
2023-02-15,3
2023-02-16,0
2023-02-17,0
2023-02-18,4
2023-02-19,4
2023-02-20,3
2023-02-21,1
2023-02-22,1
2023-02-23,0
2023-02-24,1
2023-02-25,3
2023-02-26,1
2023-02-27,5
2023-02-28,0
2023-03-01,2
2023-03-02,1
2023-03-03,1
2023-03-04,1
2023-03-05,3
2023-03-06,2
2023-03-07,0
2023-03-08,1
2023-03-09,3
2023-03-10,4
2023-03-11,2
2023-03-12,5
2023-03-13,0
2023-03-14,1
2023-03-15,3
2023-03-16,0
2023-03-17,2
2023-03-18,1
2023-03-19,2
2023-03-20,0
2023-03-21,1
2023-03-22,1
2023-03-23,2
2023-03-24,1
2023-03-25,0
2023-03-26,4
2023-03-27,0
2023-03-28,0
2023-03-29,0
2023-03-30,6
2023-03-31,1
2023-04-01,2
2023-04-02,2
2023-04-03,4
2023-04-04,2
2023-04-05,7
2023-04-06,2
2023-04-07,2
2023-04-08,3
2023-04-09,1
2023-04-10,2
2023-04-11,0
2023-04-12,2
2023-04-13,1
2023-04-14,3
2023-04-15,1
2023-04-16,6
2023-04-17,1
2023-04-18,3
2023-04-19,3
2023-04-20,1
2023-04-21,1
2023-04-22,3
2023-04-23,1
2023-04-24,3
2023-04-25,4
2023-04-26,4
2023-04-27,5
2023-04-28,2
2023-04-29,0
2023-04-30,2
2023-05-01,0
2023-05-02,2
2023-05-03,2
2023-05-04,1
2023-05-05,2
2023-05-06,2
2023-05-07,0
2023-05-08,5
2023-05-09,1
2023-05-10,2
2023-05-11,2
2023-05-12,4
2023-05-13,1
2023-05-14,1
2023-05-15,2
2023-05-16,2
2023-05-17,2
2023-05-18,2
2023-05-19,1
2023-05-20,2
2023-05-21,0
2023-05-22,1
2023-05-23,1
2023-05-24,0
2023-05-25,0
2023-05-26,1
2023-05-27,0
2023-05-28,0
2023-05-29,2
2023-05-30,2
2023-05-31,0
2023-06-01,0
2023-06-02,1
2023-06-03,0
2023-06-04,0
2023-06-05,0
