Age group,
Under 1 year,889.4
1-4 years,794.6
5-9 years,596.8
10-19 years,223.3
20-29 years,197.4
30-39 years,327.4
40-49 years,296.8
50-59 years,267.8
60-69 years,303.8
70-79 years,394.3
80-89 years,673.7
90+ years,1149.3
