Week,Calgary Zone,Central Zone,Edmonton Zone,North Zone,South Zone,Unknown,,,,,
2019-08-25,0,0,1,3,0,0,664.0,,,,
2019-09-01,5,1,0,0,0,0,,,,,
2019-09-08,1,0,1,0,0,0,,,,,
2019-09-15,4,0,3,3,1,0,,,,,
2019-09-22,3,0,4,1,0,0,,,,,
2019-09-29,6,1,3,0,0,0,,,,,
2019-10-06,8,1,4,0,0,0,,,,,
2019-10-13,15,0,7,1,0,0,,,,,
2019-10-20,11,1,3,2,0,1,,,,,
2019-10-27,17,1,12,0,10,0,,,,,
2019-11-03,41,4,21,5,15,1,,,,,
2019-11-10,44,7,25,2,24,3,,,,,
2019-11-17,62,10,31,11,20,2,,,,,
2019-11-24,109,25,36,16,16,4,,,,,
2019-12-01,125,37,33,26,15,4,,,,,
2019-12-08,213,56,82,29,23,1,,,,,
2019-12-15,282,100,112,63,17,2,,,,,
2019-12-22,245,95,160,91,22,2,,,,,
2019-12-29,226,91,151,107,29,1,,,,,
2020-01-05,194,81,156,106,36,5,,,,,
2020-01-12,161,64,125,101,48,4,,,,,
2020-01-19,171,64,163,108,75,3,,,,,
2020-01-26,218,69,149,108,83,6,,,,,
2020-02-02,165,60,125,106,56,3,,,,,
2020-02-09,161,60,83,75,72,2,,,,,
2020-02-16,116,52,87,87,50,3,,,,,
2020-02-23,123,50,73,72,51,1,,,,,
2020-03-01,127,66,132,72,59,6,,,,,
2020-03-08,127,70,146,89,72,4,,,,,
2020-03-15,57,33,83,43,31,2,,,,,
2020-03-22,12,4,17,16,4,1,,,,,
2020-03-29,1,1,2,1,4,0,,,,,
2020-04-05,2,1,2,1,0,0,,,,,
2020-04-12,1,0,2,0,1,0,,,,,
2020-04-19,1,0,0,0,0,0,,,,,
2020-04-26,2,0,1,0,0,0,,,,,
2020-05-03,0,0,0,1,0,0,,,,,
2020-05-10,0,2,0,0,1,0,,,,,
2020-05-17,0,0,0,0,0,0,,,,,
2020-05-24,0,0,0,0,0,0,,,,,
2020-05-31,0,0,0,0,1,0,,,,,
2020-06-07,0,0,0,0,0,0,,,,,
2020-06-14,0,0,1,0,0,0,,,,,
2020-06-21,0,0,0,0,0,0,,,,,
2020-06-28,0,0,0,0,0,0,,,,,
2020-07-05,0,0,0,0,0,0,,,,,
2020-07-12,0,0,0,0,0,0,,,,,
2020-07-19,0,0,0,0,0,0,,,,,
2020-07-26,0,0,0,0,0,0,,,,,
2020-08-02,0,0,0,0,0,0,,,,,
2020-08-09,0,0,0,1,0,0,,,,,
2020-08-16,1,0,0,0,0,0,,,,,
2020-08-23,0,0,0,0,0,0,,664.0,,,
2020-08-30,0,0,0,0,0,0,,,,,
2020-09-06,0,0,0,0,0,0,,,,,
2020-09-13,0,0,0,0,0,0,,,,,
2020-09-20,0,0,0,0,0,0,,,,,
2020-09-27,0,0,0,0,0,0,,,,,
2020-10-04,0,0,0,0,0,0,,,,,
2020-10-11,0,0,0,0,0,0,,,,,
2020-10-18,0,0,0,0,0,0,,,,,
2020-10-25,0,0,0,0,0,0,,,,,
2020-11-01,0,0,0,0,0,0,,,,,
2020-11-08,0,0,0,0,0,0,,,,,
2020-11-15,0,0,0,0,0,0,,,,,
2020-11-22,0,0,0,0,0,0,,,,,
2020-11-29,0,0,0,0,0,0,,,,,
2020-12-06,0,0,0,0,0,0,,,,,
2020-12-13,0,0,0,0,0,0,,,,,
2020-12-20,0,0,0,0,0,0,,,,,
2020-12-27,0,0,0,0,0,0,,,,,
2021-01-03,0,0,0,0,0,0,,,,,
2021-01-10,0,0,0,0,0,0,,,,,
2021-01-17,0,0,0,0,0,0,,,,,
2021-01-24,0,0,0,0,0,0,,,,,
2021-01-31,0,0,0,0,0,0,,,,,
2021-02-07,0,0,0,0,0,0,,,,,
2021-02-14,0,0,0,0,0,0,,,,,
2021-02-21,0,0,0,0,0,0,,,,,
2021-02-28,0,0,0,0,0,0,,,,,
2021-03-07,0,0,0,0,0,0,,,,,
2021-03-14,0,0,0,0,0,0,,,,,
2021-03-21,0,0,0,0,0,0,,,,,
2021-03-28,0,0,0,0,0,0,,,,,
2021-04-04,0,0,0,0,0,0,,,,,
2021-04-11,0,0,0,0,0,0,,,,,
2021-04-18,0,0,0,0,0,0,,,,,
2021-04-25,0,0,0,0,0,0,,,,,
2021-05-02,0,0,0,0,0,0,,,,,
2021-05-09,0,0,0,0,0,0,,,,,
2021-05-16,0,0,0,0,0,0,,,,,
2021-05-23,0,0,0,0,0,0,,,,,
2021-05-30,0,0,0,0,0,0,,,,,
2021-06-06,0,0,0,0,0,0,,,,,
2021-06-13,0,0,0,0,0,0,,,,,
2021-06-20,0,0,0,0,0,0,,,,,
2021-06-27,0,0,0,0,0,0,,,,,
2021-07-04,0,0,0,0,0,0,,,,,
2021-07-11,0,0,0,0,0,0,,,,,
2021-07-18,0,0,0,0,0,0,,,,,
2021-07-25,0,0,0,0,0,0,,,,,
2021-08-01,0,0,0,0,0,0,,,,,
2021-08-08,0,0,0,0,0,0,,,,,
2021-08-15,0,0,0,0,0,0,,,,,
2021-08-22,0,0,0,0,0,0,,,,,
2021-08-29,1,0,0,0,0,0,,,664.0,,
2021-09-05,0,0,0,0,0,0,,,,,
2021-09-12,0,0,2,0,0,0,,,,,
2021-09-19,0,0,0,0,0,0,,,,,
2021-09-26,0,0,0,0,0,0,,,,,
2021-10-03,0,0,0,0,0,0,,,,,
2021-10-10,0,0,0,0,0,0,,,,,
2021-10-17,0,0,0,0,0,0,,,,,
2021-10-24,0,0,0,0,0,0,,,,,
2021-10-31,0,0,0,0,0,0,,,,,
2021-11-07,0,0,1,0,0,0,,,,,
2021-11-14,0,0,1,0,0,0,,,,,
2021-11-21,0,0,0,0,0,0,,,,,
2021-11-28,0,0,1,0,0,0,,,,,
2021-12-05,1,0,10,0,0,0,,,,,
2021-12-12,2,0,4,0,0,0,,,,,
2021-12-19,0,0,3,2,0,0,,,,,
2021-12-26,4,0,0,0,2,0,,,,,
2022-01-02,1,0,0,0,1,0,,,,,
2022-01-09,1,0,2,0,0,0,,,,,
2022-01-16,0,0,0,0,0,0,,,,,
2022-01-23,0,0,0,0,1,0,,,,,
2022-01-30,1,0,0,0,0,0,,,,,
2022-02-06,0,0,0,0,0,0,,,,,
2022-02-13,0,0,1,0,1,0,,,,,
2022-02-20,0,0,1,0,0,0,,,,,
2022-02-27,0,0,4,2,0,0,,,,,
2022-03-06,1,0,1,1,2,0,,,,,
2022-03-13,3,0,0,2,12,0,,,,,
2022-03-20,24,1,4,1,23,0,,,,,
2022-03-27,31,7,7,8,24,0,,,,,
2022-04-03,39,12,14,14,31,0,,,,,
2022-04-10,55,13,24,20,36,0,,,,,
2022-04-17,72,19,41,37,75,1,,,,,
2022-04-24,88,27,82,69,47,0,,,,,
2022-05-01,85,35,80,68,39,1,,,,,
2022-05-08,112,33,73,57,20,0,,,,,
2022-05-15,104,48,69,48,9,1,,,,,
2022-05-22,90,22,73,62,11,0,,,,,
2022-05-29,67,45,66,53,9,0,,,,,
2022-06-05,57,18,57,46,9,0,,,,,
2022-06-12,34,15,24,29,2,0,,,,,
2022-06-19,21,6,16,28,0,0,,,,,
2022-06-26,15,8,25,18,2,0,,,,,
2022-07-03,5,3,4,9,0,0,,,,,
2022-07-10,2,5,0,3,1,0,,,,,
2022-07-17,12,1,6,1,0,0,,,,,
2022-07-24,3,0,5,1,0,0,,,,,
2022-07-31,1,0,7,1,0,0,,,,,
2022-08-07,0,0,1,2,0,0,,,,,
2022-08-14,1,0,2,1,0,0,,,,,
2022-08-21,2,0,0,0,0,0,,,,,
2022-08-28,3,1,3,1,0,0,,,,664.0,
2022-09-04,2,0,1,0,0,0,,,,,
2022-09-11,2,0,1,0,0,0,,,,,
2022-09-18,4,2,5,0,0,0,,,,,
2022-09-25,3,2,8,1,0,0,,,,,
2022-10-02,10,1,13,2,0,0,,,,,
2022-10-09,8,5,8,3,1,0,,,,,
2022-10-16,20,0,22,3,2,0,,,,,
2022-10-23,56,11,87,12,9,0,,,,,
2022-10-30,172,39,297,51,18,1,,,,,
2022-11-06,403,117,429,178,30,0,,,,,
2022-11-13,542,163,500,312,54,0,,,,,
2022-11-20,605,177,376,293,97,0,,,,,
2022-11-27,393,140,244,244,98,0,,,,,
2022-12-04,250,134,151,185,81,0,,,,,
2022-12-11,164,85,118,104,97,0,,,,,
2022-12-18,116,56,79,68,69,0,,,,,
2022-12-25,50,59,55,41,60,0,,,,,
2023-01-01,58,31,33,26,35,0,,,,,
2023-01-08,38,9,17,10,15,0,,,,,
2023-01-15,21,6,17,14,4,0,,,,,
2023-01-22,12,6,23,8,4,0,,,,,
2023-01-29,13,8,20,11,3,0,,,,,
2023-02-05,10,4,37,6,0,0,,,,,
2023-02-12,13,3,23,6,0,0,,,,,
2023-02-19,16,2,17,5,2,0,,,,,
2023-02-26,9,2,12,5,2,0,,,,,
2023-03-05,17,4,7,4,2,0,,,,,
2023-03-12,28,10,21,8,6,0,,,,,
2023-03-19,32,4,14,7,0,0,,,,,
2023-03-26,26,3,15,7,2,0,,,,,
2023-04-02,36,6,17,5,4,0,,,,,
2023-04-09,25,4,19,7,5,0,,,,,
2023-04-16,17,6,20,9,2,0,,,,,
2023-04-23,26,3,29,7,1,0,,,,,
2023-04-30,22,11,31,10,3,0,,,,,
2023-05-07,18,6,31,11,6,0,,,,,
2023-05-14,12,4,22,3,0,0,,,,,
2023-05-21,12,1,13,11,3,0,,,,,
2023-05-28,11,1,12,4,1,0,,,,,
2023-06-04,6,1,8,2,2,0,,,,,
2023-06-11,6,1,3,2,0,0,,,,,
2023-06-18,4,0,3,0,0,0,,,,,
2023-06-25,5,2,4,1,0,0,,,,,
2023-07-02,8,3,5,0,0,0,,,,,
2023-07-09,5,1,4,0,1,0,,,,,
2023-07-16,3,1,0,1,1,0,,,,,
2023-07-23,3,0,1,1,0,0,,,,,
2023-07-30,5,2,5,0,0,0,,,,,
2023-08-06,10,0,9,1,1,0,,,,,
2023-08-13,7,0,0,1,0,0,,,,,
2023-08-20,5,0,2,0,0,0,,,,,
2023-08-27,11,2,3,1,1,0,,,,,664.0
2023-09-03,9,4,1,0,0,0,,,,,
2023-09-10,11,2,1,2,0,0,,,,,
2023-09-17,14,3,3,2,0,0,,,,,
2023-09-24,15,0,4,1,0,0,,,,,
2023-10-01,26,3,8,1,0,0,,,,,
2023-10-08,15,3,12,1,3,0,,,,,
2023-10-15,35,6,13,3,1,0,,,,,
2023-10-22,38,10,35,3,1,0,,,,,
2023-10-29,100,14,89,22,4,0,,,,,
2023-11-05,155,41,123,54,7,0,,,,,
2023-11-12,260,120,228,100,22,0,,,,,
2023-11-19,341,136,343,163,36,0,,,,,
2023-11-26,376,239,474,210,77,0,,,,,
2023-12-03,413,306,664,280,115,0,,,,,
2023-12-10,430,251,611,299,116,0,,,,,
2023-12-17,324,195,463,318,142,0,,,,,
2023-12-24,275,164,339,234,110,0,,,,,
2023-12-31,237,104,190,171,77,0,,,,,
2024-01-07,125,36,103,56,25,0,,,,,
2024-01-14,92,23,88,16,25,0,,,,,
2024-01-21,73,23,65,18,7,0,,,,,
2024-01-28,90,18,61,17,7,0,,,,,
2024-02-04,86,24,68,18,12,0,,,,,
2024-02-11,100,29,64,23,7,0,,,,,
2024-02-18,114,25,68,41,15,0,,,,,
2024-02-25,125,37,71,39,19,0,,,,,
2024-03-03,122,31,96,43,17,0,,,,,
2024-03-10,141,28,118,58,23,0,,,,,
2024-03-17,103,41,128,91,15,0,,,,,
2024-03-24,101,50,152,87,32,0,,,,,
2024-03-31,90,35,136,90,22,0,,,,,
2024-04-07,54,35,106,74,25,0,,,,,
2024-04-14,46,26,92,59,17,0,,,,,
2024-04-21,71,23,85,53,19,0,,,,,
2024-04-28,57,36,75,32,19,0,,,,,
2024-05-05,37,22,69,39,13,0,,,,,
2024-05-12,30,12,41,6,11,0,,,,,
2024-05-19,22,8,26,16,2,0,,,,,
2024-05-26,21,7,22,3,4,0,,,,,
2024-06-02,16,2,11,0,0,0,,,,,
2024-06-09,8,3,12,0,0,0,,,,,
2024-06-16,6,0,2,0,0,0,,,,,
2024-06-23,5,0,9,1,0,0,,,,,
2024-06-30,12,1,9,0,0,0,,,,,
2024-07-07,5,2,2,0,0,0,,,,,
2024-07-14,9,0,6,0,0,0,,,,,
2024-07-21,6,0,4,0,0,0,,,,,
2024-07-28,3,0,2,0,0,0,,,,,
2024-08-04,1,0,1,0,0,0,,,,,
2024-08-11,1,0,0,0,0,0,,,,,
2024-08-18,1,0,2,0,0,0,,,,,
