file	figure	geographic	xaxis	yaxis	yaxis2	xaxis2	xaxis3	yaxis3	legend
htmlwidget-f71129bab90b9e1bd3db	Laboratory-confirmed seasonal influenza by age group, 2024-2025		Age group	Rate (per 100,000 population)					
htmlwidget-95e58284dade6d060f36	Laboratory-confirmed RSV by age group, 2024-2025		Age group	Rate (per 100,000 population)					
htmlwidget-1f40df529928d3d55a94	Laboratory-confirmed COVID-19 by age group, 2024-2025		Age group	Rate (per 100,000 population)					
htmlwidget-e296bed62f0883a7f13f	Laboratory-confirmed seasonal influenza cases in Alberta by zone, 2024-2025		{'text': 'Week', 'standoff': 10}	Influenza cases (n)					
htmlwidget-336380fa0c36047e26e6	Laboratory-confirmed seasonal influenza cases in Alberta by zone, 2020-2021 to 2024-2025		{'text': 'Week', 'standoff': 10}	Influenza cases (n)					
htmlwidget-3c02b914f74eb8437ea8	Map of laboratory-confirmed seasonal influenza case rates by zone compared to Alberta, 2024-2025	True							
htmlwidget-3d30e908700e3bb31530	Laboratory-confirmed RSV cases in Alberta by zone, 2024-2025		{'text': 'Week', 'standoff': 10}	RSV cases (n)					
htmlwidget-759e305b34df836869f2	Laboratory-confirmed RSV cases in Alberta by zone, 2020-2021 to 2024-2025		{'text': 'Week', 'standoff': 10}	RSV cases (n)					
htmlwidget-3d50e49a5c75d11a589a	Map of laboratory-confirmed RSV case rates by zone compared to Alberta, 2024-2025	True							
htmlwidget-d5025d99f3b2c73e8f76	Laboratory-confirmed COVID-19 cases in Alberta by zone, 2024-2025		{'text': 'Week', 'standoff': 10}	COVID-19 cases (n)					
htmlwidget-6488644d49f423a785a4	Laboratory-confirmed COVID-19 cases in Alberta by zone, 2020-2021 to 2024-2025		{'text': 'Week', 'standoff': 10}	COVID-19 cases (n)					
htmlwidget-c45f13d5d61c8a0c48a9	Map of laboratory-confirmed COVID-19 case rates by zone compared to Alberta, 2024-2025	True							
htmlwidget-79888f5b5c06ba908d49			Week	Infuenza vaccine doses (n)					
htmlwidget-1c536b7675d259e83a0f			Week	Infuenza vaccine doses (n)					
htmlwidget-783b36c4890be0a29d5a			{'text': 'Week', 'standoff': 10}	Influenza  immunizaion coverage (%)					
htmlwidget-c1b6a9c33b0d9a2fa64a		True							
htmlwidget-703b18491f49cf5044ef			Number of events						
htmlwidget-6a5826695f7d9499bc3c			Week	COVID-19 vaccine doses (n)					
htmlwidget-8baa1857370fbcaa1200			Week	COVID-19 vaccine doses (n)					
htmlwidget-4d4eb1d1478c1d4f4359			{'text': 'Week', 'standoff': 10}	COVID-19  immunizaion coverage (%)					
htmlwidget-2b8b2baa06e4cab4bb3d		True							
htmlwidget-f34b549cf22157064db0			Number of events						
htmlwidget-c729140a9f2bf382a547	Respiratory virus test positivity by week, 2024-2025		Week	Percent Positivity (%)					
htmlwidget-21483c3c1361bf37ff1e	Respiratory virus test positivity by week for the 2024-2025 season compared to historical trends		Week	Test Positivity (%)					
htmlwidget-3cd866e868e9a8f71607	SARS-CoV-2 testing and positivity by week, 2020-2021 to 2024-2025		Week	Total tests (n)	Percent Positivity				
htmlwidget-9c6118a0cd0907e8403c	Influenza testing and positivity by week, 2020-2021 to 2024-2025		Week	Total tests (n)	Percent Positivity				
htmlwidget-12d80fdbd63fce885ffe	Respiratory syncytial virus testing and positivity by week, 2020-2021 to 2024-2025		Week	Total tests (n)	Percent Positivity				
htmlwidget-20c869af817614bad306	Adenovirus testing and positivity by week, 2020-2021 to 2024-2025		Week	Total tests (n)	Percent Positivity				
htmlwidget-e9f687fca43b351989e1	Coronavirus testing and positivity by week, 2020-2021 to 2024-2025		Week	Total tests (n)	Percent Positivity				
htmlwidget-531903a947dce8e3ce10	Rhinovirus/enterovirus testing and positivity by week, 2020-2021 to 2024-2025		Week	Total tests (n)	Percent Positivity				
htmlwidget-d1fac54373b1b447f9e8	Human metapneumovirus (hMPV) testing and positivity by week, 2020-2021 to 2024-2025		Week	Total tests (n)	Percent Positivity				
htmlwidget-15c64e33b87b8492eb7b	Parainfluenza testing and positivity by week, 2020-2021 to 2024-2025		Week	Total tests (n)	Percent Positivity				
htmlwidget-bd1ec979089d351576bc	Number of respiratory virus outbreaks by week, 2020-2021 to 2024-2025		Date	Outbreaks (n)					
htmlwidget-c2456be3f161b1307742	Total hospital admissions, ICU admissions, and deaths among laboratory-confirmed seasonal influenza cases in Alberta by age group, 2024-2025							Age Group	
htmlwidget-1ce97e726bd40160bdd2	Number of weekly hospital admissions (ICU and non-ICU) and deaths due to laboratory-confirmed seasonal influenza, 2020-2021 to 2024-2025		Week	Hospitalization/ICU/Deaths (n)					
htmlwidget-607534fac60873526a51	Total hospital admissions, ICU admissions, and deaths among laboratory-confirmed RSV cases in Alberta by age group, 2024-2025							Age Group	
htmlwidget-1283544655a8d9d5acc0	Number of weekly hospital admissions (ICU and non-ICU) and deaths due to laboratory-confirmed RSV, 2024-2025		Week	Hospitalization/ICU/Deaths (n)					
htmlwidget-046b4f11d09d5afa9e5a	Total hospital admissions, ICU admissions, and deaths among laboratory-confirmed COVID-19 cases in Alberta by age group, 2024-2025							Age Group	
htmlwidget-d7e5c52eb3700d627f2c	Number of weekly hospital admissions (ICU and non-ICU) and deaths due to laboratory-confirmed COVID-19, 2024-2025		Week	Hospitalization/ICU/Deaths (n)					
htmlwidget-a0e70db74d66181092a0	Total weekly laboratory-confirmed seasonal influenza cases by subtype in Alberta, 2024-2025		{'text': 'Week', 'standoff': 10}	Influenza cases (n)					
htmlwidget-29e6e31644ecebe3afbc	Total weekly laboratory-confirmed seasonal influenza cases by subtype in Alberta, 2020-2021 to 2024-2025		{'text': 'Week', 'standoff': 10}	Influenza cases (n)					
htmlwidget-707ad920eab7786c58f4	Laboratory-confirmed seasonal influenza cases in Alberta since the 2009-2010 season		{'text': 'Week', 'standoff': 10}	Influenza cases (n)					
htmlwidget-4e84c96940144c6093ad	Total weekly laboratory-confirmed RSV cases in Alberta, 2024-2025		{'text': 'Week', 'standoff': 10}	RSV cases (n)					
htmlwidget-fdc417d21dbf1ebb03b2	Total weekly laboratory-confirmed RSV cases in Alberta, 2020-2021 to 2024-2025		{'text': 'Week', 'standoff': 10}	RSV cases (n)					
htmlwidget-568d6c885280371188d1	Total weekly laboratory-confirmed COVID-19 cases in Alberta, 2024-2025		{'text': 'Week', 'standoff': 10}	COVID-19 cases (n)					
htmlwidget-4a5fdafa1978b04fc2ff	Proportion of whole genome sequenced COVID-19 variants by type (10 weeks).		Date Reported to Alberta Health	COVID-19 Sequencing Results (Percentage)					
htmlwidget-1ee398152be885614c5c	Population normalized quantity of SARS CoV-2 virus over time		Date	Normalized viral <br> copies per person					['Edmonton Zone', 'Edmonton Zone', 'Edmonton Zone', 'Edmonton Zone', 'Edmonton Zone', 'Edmonton Zone', 'Edmonton Zone', 'Edmonton Zone', 'Edmonton Zone', 'Edmonton Zone', 'Edmonton Zone', 'Edmonton Zone', 'Edmonton Zone', 'Edmonton Zone', 'Edmonton Zone', 'Edmonton Zone', 'Edmonton Zone', 'Edmonton Zone', 'Edmonton Zone', 'Edmonton Zone', 'Edmonton Zone', 'Edmonton Zone', 'Edmonton Zone', 'Edmonton Zone', 'Edmonton Zone', 'Edmonton Zone', 'Edmonton Zone', 'Edmonton Zone', 'Edmonton Zone', 'Edmonton Zone', 'Edmonton Zone', 'Edmonton Zone', 'Edmonton Zone', 'Edmonton Zone', 'Edmonton Zone', 'Edmonton Zone', 'Edmonton Zone', 'Edmonton Zone', 'Edmonton Zone', 'Edmonton Zone', 'Edmonton Zone', 'Edmonton Zone', 'Edmonton Zone', 'Edmonton Zone', 'Edmonton Zone', 'Edmonton Zone', 'Edmonton Zone', 'Edmonton Zone', 'Edmonton Zone', 'Edmonton Zone', 'Edmonton Zone', 'Edmonton Zone', 'Edmonton Zone', 'Edmonton Zone', 'Edmonton Zone', 'Edmonton Zone', 'Edmonton Zone', 'Edmonton Zone', 'Edmonton Zone', 'Edmonton Zone', 'Edmonton Zone', 'Edmonton Zone', 'Edmonton Zone', 'Edmonton Zone', 'Edmonton Zone', 'Edmonton Zone', 'Edmonton Zone', 'Edmonton Zone', 'Edmonton Zone', 'Edmonton Zone', 'Edmonton Zone', 'Edmonton Zone', 'Edmonton Zone', 'Edmonton Zone', 'Edmonton Zone', 'Edmonton Zone', 'Edmonton Zone', 'Edmonton Zone', 'Edmonton Zone', 'Edmonton Zone', 'Edmonton Zone', 'Edmonton Zone', 'Edmonton Zone', 'Edmonton Zone', 'Edmonton Zone', 'Edmonton Zone', 'Edmonton Zone', 'Edmonton Zone', 'Edmonton Zone', 'Edmonton Zone', 'Edmonton Zone', 'Edmonton Zone', 'Edmonton Zone', 'Edmonton Zone', 'Edmonton Zone', 'Edmonton Zone', 'Edmonton Zone', 'Edmonton Zone', 'Edmonton Zone', 'Edmonton Zone', 'Edmonton Zone', 'Edmonton Zone', 'Edmonton Zone', 'Edmonton Zone', 'Edmonton Zone', 'Edmonton Zone', 'Edmonton Zone', 'Edmonton Zone', 'Edmonton Zone', 'Edmonton Zone', 'Edmonton Zone', 'Edmonton Zone', 'Edmonton Zone', 'Edmonton Zone', 'Edmonton Zone', 'Edmonton Zone', 'Edmonton Zone', 'Edmonton Zone', 'Edmonton Zone', 'Edmonton Zone', 'Edmonton Zone', 'Edmonton Zone', 'Edmonton Zone', 'Edmonton Zone', 'Edmonton Zone', 'Edmonton Zone', 'Edmonton Zone', 'Edmonton Zone', 'Edmonton Zone', 'Edmonton Zone', 'Edmonton Zone', 'Edmonton Zone', 'Edmonton Zone', 'Edmonton Zone', 'Edmonton Zone', 'Edmonton Zone', 'Edmonton Zone', 'Edmonton Zone', 'Edmonton Zone', 'Edmonton Zone', 'Edmonton Zone', 'Edmonton Zone', 'Edmonton Zone', 'Edmonton Zone', 'Edmonton Zone', 'Edmonton Zone', 'Edmonton Zone', 'Edmonton Zone', 'Edmonton Zone', 'Edmonton Zone', 'Edmonton Zone', 'Edmonton Zone', 'Edmonton Zone', 'Edmonton Zone', 'Edmonton Zone', 'Edmonton Zone', 'Edmonton Zone', 'Edmonton Zone', 'Edmonton Zone', 'Edmonton Zone', 'Edmonton Zone', 'Calgary Zone', 'Calgary Zone', 'Calgary Zone', 'Calgary Zone', 'Calgary Zone', 'Calgary Zone', 'Calgary Zone', 'Calgary Zone', 'Calgary Zone', 'Calgary Zone', 'Calgary Zone', 'Calgary Zone', 'Calgary Zone', 'Calgary Zone', 'Calgary Zone', 'Calgary Zone', 'Calgary Zone', 'Calgary Zone', 'Calgary Zone', 'Calgary Zone', 'Calgary Zone', 'Calgary Zone', 'Calgary Zone', 'Calgary Zone', 'Calgary Zone', 'Calgary Zone', 'Calgary Zone', 'Calgary Zone', 'Calgary Zone', 'Calgary Zone', 'Calgary Zone', 'Calgary Zone', 'Calgary Zone', 'Calgary Zone', 'Calgary Zone', 'Calgary Zone', 'Calgary Zone', 'Calgary Zone', 'Calgary Zone', 'Calgary Zone', 'Calgary Zone', 'Calgary Zone', 'Calgary Zone', 'Calgary Zone', 'Calgary Zone', 'Calgary Zone', 'Calgary Zone', 'Calgary Zone', 'Calgary Zone', 'Calgary Zone', 'Calgary Zone', 'Calgary Zone', 'Calgary Zone', 'Calgary Zone', 'Calgary Zone', 'Calgary Zone', 'Calgary Zone', 'Calgary Zone', 'Calgary Zone', 'Calgary Zone', 'Calgary Zone', 'Calgary Zone', 'Calgary Zone', 'Calgary Zone', 'Calgary Zone', 'Calgary Zone', 'Calgary Zone', 'Calgary Zone', 'Calgary Zone', 'Calgary Zone', 'Calgary Zone', 'Calgary Zone', 'Calgary Zone', 'Calgary Zone', 'Calgary Zone', 'Calgary Zone', 'Calgary Zone', 'Calgary Zone', 'Calgary Zone', 'Calgary Zone', 'Calgary Zone', 'Calgary Zone', 'Calgary Zone', 'Calgary Zone', 'Calgary Zone', 'Calgary Zone', 'Calgary Zone', 'Calgary Zone', 'Calgary Zone', 'Calgary Zone', 'Calgary Zone', 'Calgary Zone', 'Calgary Zone', 'Calgary Zone', 'Calgary Zone', 'Calgary Zone', 'Calgary Zone', 'Calgary Zone', 'Calgary Zone', 'Calgary Zone', 'Calgary Zone', 'Calgary Zone', 'Calgary Zone', 'Calgary Zone', 'Calgary Zone', 'Calgary Zone', 'Calgary Zone', 'Calgary Zone', 'Calgary Zone', 'Calgary Zone', 'Calgary Zone', 'Calgary Zone', 'Calgary Zone', 'Calgary Zone', 'Calgary Zone', 'Calgary Zone', 'Calgary Zone', 'Calgary Zone', 'Calgary Zone', 'Calgary Zone', 'Calgary Zone', 'Calgary Zone', 'Calgary Zone', 'Calgary Zone', 'Calgary Zone', 'Calgary Zone', 'Calgary Zone', 'Calgary Zone', 'Calgary Zone', 'Calgary Zone', 'Calgary Zone', 'Calgary Zone', 'Calgary Zone', 'Calgary Zone', 'Calgary Zone', 'Calgary Zone', 'Calgary Zone', 'Calgary Zone', 'Calgary Zone', 'Calgary Zone', 'Calgary Zone', 'Calgary Zone', 'Calgary Zone', 'Calgary Zone', 'Calgary Zone', 'Calgary Zone', 'Calgary Zone', 'Calgary Zone', 'Calgary Zone', 'Calgary Zone', 'Calgary Zone', 'Calgary Zone', 'Calgary Zone', 'Calgary Zone', 'Calgary Zone', 'Calgary Zone', 'Calgary Zone', 'Calgary Zone', 'Calgary Zone', 'South Zone', 'South Zone', 'South Zone', 'South Zone', 'South Zone', 'South Zone', 'South Zone', 'South Zone', 'South Zone', 'South Zone', 'South Zone', 'South Zone', 'South Zone', 'South Zone', 'South Zone', 'South Zone', 'South Zone', 'South Zone', 'South Zone', 'South Zone', 'South Zone', 'South Zone', 'South Zone', 'South Zone', 'South Zone', 'South Zone', 'South Zone', 'South Zone', 'South Zone', 'South Zone', 'South Zone', 'South Zone', 'South Zone', 'South Zone', 'South Zone', 'South Zone', 'South Zone', 'South Zone', 'South Zone', 'South Zone', 'South Zone', 'South Zone', 'South Zone', 'South Zone', 'South Zone', 'South Zone', 'South Zone', 'South Zone', 'South Zone', 'South Zone', 'South Zone', 'South Zone', 'South Zone', 'South Zone', 'South Zone', 'South Zone', 'South Zone', 'South Zone', 'South Zone', 'South Zone', 'South Zone', 'South Zone', 'South Zone', 'South Zone', 'South Zone', 'South Zone', 'South Zone', 'South Zone', 'South Zone', 'South Zone', 'South Zone', 'South Zone', 'South Zone', 'South Zone', 'South Zone', 'South Zone', 'South Zone', 'South Zone', 'South Zone', 'South Zone', 'South Zone', 'South Zone', 'South Zone', 'South Zone', 'South Zone', 'South Zone', 'South Zone', 'South Zone', 'South Zone', 'South Zone', 'South Zone', 'South Zone', 'South Zone', 'South Zone', 'South Zone', 'South Zone', 'South Zone', 'South Zone', 'South Zone', 'South Zone', 'South Zone', 'South Zone', 'South Zone', 'South Zone', 'South Zone', 'South Zone', 'South Zone', 'South Zone', 'South Zone', 'South Zone', 'South Zone', 'South Zone', 'South Zone', 'South Zone', 'South Zone', 'South Zone', 'South Zone', 'South Zone', 'South Zone', 'South Zone', 'South Zone', 'South Zone', 'South Zone', 'South Zone', 'South Zone', 'South Zone', 'South Zone', 'South Zone', 'South Zone', 'South Zone', 'South Zone', 'South Zone', 'South Zone', 'South Zone', 'South Zone', 'South Zone', 'South Zone', 'South Zone', 'South Zone', 'South Zone', 'South Zone', 'North Zone', 'North Zone', 'North Zone', 'North Zone', 'North Zone', 'North Zone', 'North Zone', 'North Zone', 'North Zone', 'North Zone', 'North Zone', 'North Zone', 'North Zone', 'North Zone', 'North Zone', 'North Zone', 'North Zone', 'North Zone', 'North Zone', 'North Zone', 'North Zone', 'North Zone', 'North Zone', 'North Zone', 'North Zone', 'North Zone', 'North Zone', 'North Zone', 'North Zone', 'North Zone', 'North Zone', 'North Zone', 'North Zone', 'North Zone', 'North Zone', 'North Zone', 'North Zone', 'North Zone', 'North Zone', 'North Zone', 'North Zone', 'North Zone', 'North Zone', 'North Zone', 'North Zone', 'North Zone', 'North Zone', 'North Zone', 'North Zone', 'North Zone', 'North Zone', 'North Zone', 'North Zone', 'North Zone', 'North Zone', 'North Zone', 'North Zone', 'North Zone', 'North Zone', 'North Zone', 'North Zone', 'North Zone', 'North Zone', 'North Zone', 'North Zone', 'North Zone', 'North Zone', 'North Zone', 'North Zone', 'North Zone', 'North Zone', 'North Zone', 'North Zone', 'North Zone', 'North Zone', 'North Zone', 'North Zone', 'North Zone', 'North Zone', 'North Zone', 'North Zone', 'North Zone', 'North Zone', 'North Zone', 'North Zone', 'North Zone', 'North Zone', 'North Zone', 'North Zone', 'North Zone', 'North Zone', 'North Zone', 'North Zone', 'North Zone', 'North Zone', 'North Zone', 'North Zone', 'North Zone', 'North Zone', 'North Zone', 'North Zone', 'North Zone', 'North Zone', 'North Zone', 'North Zone', 'North Zone', 'North Zone', 'North Zone', 'North Zone', 'North Zone', 'North Zone', 'North Zone', 'North Zone', 'North Zone', 'North Zone', 'North Zone', 'North Zone', 'North Zone', 'North Zone', 'North Zone', 'North Zone', 'North Zone', 'North Zone', 'North Zone', 'North Zone', 'North Zone', 'North Zone', 'North Zone', 'North Zone', 'North Zone', 'North Zone', 'North Zone', 'North Zone', 'North Zone', 'North Zone', 'North Zone', 'North Zone', 'North Zone', 'North Zone', 'North Zone', 'North Zone', 'North Zone', 'North Zone', 'North Zone', 'North Zone', 'North Zone', 'North Zone', 'North Zone', 'North Zone', 'North Zone', 'North Zone', 'North Zone', 'North Zone', 'North Zone', 'North Zone', 'Edmonton Zone', 'Edmonton Zone', 'Edmonton Zone', 'Edmonton Zone', 'Edmonton Zone', 'Edmonton Zone', 'Edmonton Zone', 'Edmonton Zone', 'Edmonton Zone', 'Edmonton Zone', 'Edmonton Zone', 'Edmonton Zone', 'Edmonton Zone', 'Edmonton Zone', 'Edmonton Zone', 'Edmonton Zone', 'Edmonton Zone', 'Edmonton Zone', 'Edmonton Zone', 'Edmonton Zone', 'Edmonton Zone', 'Edmonton Zone', 'Edmonton Zone', 'Edmonton Zone', 'Edmonton Zone', 'Edmonton Zone', 'Edmonton Zone', 'Edmonton Zone', 'Edmonton Zone', 'Edmonton Zone', 'Edmonton Zone', 'Edmonton Zone', 'Edmonton Zone', 'Edmonton Zone', 'Edmonton Zone', 'Edmonton Zone', 'Edmonton Zone', 'Edmonton Zone', 'Edmonton Zone', 'Edmonton Zone', 'Edmonton Zone', 'Edmonton Zone', 'Edmonton Zone', 'Edmonton Zone', 'Edmonton Zone', 'Edmonton Zone', 'Edmonton Zone', 'Edmonton Zone', 'Edmonton Zone', 'Edmonton Zone', 'Edmonton Zone', 'Edmonton Zone', 'Edmonton Zone', 'Edmonton Zone', 'Edmonton Zone', 'Edmonton Zone', 'Edmonton Zone', 'Edmonton Zone', 'Edmonton Zone', 'Edmonton Zone', 'Edmonton Zone', 'Edmonton Zone', 'Edmonton Zone', 'Edmonton Zone', 'Edmonton Zone', 'Edmonton Zone', 'Edmonton Zone', 'Edmonton Zone', 'Edmonton Zone', 'Edmonton Zone', 'Edmonton Zone', 'Edmonton Zone', 'Edmonton Zone', 'Edmonton Zone', 'Edmonton Zone', 'Edmonton Zone', 'Edmonton Zone', 'Edmonton Zone', 'Edmonton Zone', 'Edmonton Zone', 'Edmonton Zone', 'Edmonton Zone', 'Edmonton Zone', 'Edmonton Zone', 'Edmonton Zone', 'Edmonton Zone', 'Edmonton Zone', 'Edmonton Zone', 'Edmonton Zone', 'Edmonton Zone', 'Edmonton Zone', 'Edmonton Zone', 'Edmonton Zone', 'Edmonton Zone', 'Edmonton Zone', 'Edmonton Zone', 'Edmonton Zone', 'Edmonton Zone', 'Edmonton Zone', 'Edmonton Zone', 'Edmonton Zone', 'Edmonton Zone', 'Edmonton Zone', 'Edmonton Zone', 'Edmonton Zone', 'Edmonton Zone', 'Edmonton Zone', 'Edmonton Zone', 'Edmonton Zone', 'Edmonton Zone', 'Edmonton Zone', 'Edmonton Zone', 'Edmonton Zone', 'Edmonton Zone', 'Edmonton Zone', 'Edmonton Zone', 'Edmonton Zone', 'Edmonton Zone', 'Edmonton Zone', 'Edmonton Zone', 'Edmonton Zone', 'Edmonton Zone', 'Edmonton Zone', 'Edmonton Zone', 'Edmonton Zone', 'Edmonton Zone', 'Edmonton Zone', 'Edmonton Zone', 'Edmonton Zone', 'Edmonton Zone', 'Edmonton Zone', 'Edmonton Zone', 'Edmonton Zone', 'Edmonton Zone', 'Edmonton Zone', 'Edmonton Zone', 'Edmonton Zone', 'Edmonton Zone', 'Edmonton Zone', 'Edmonton Zone', 'Edmonton Zone', 'Edmonton Zone', 'Edmonton Zone', 'Edmonton Zone', 'Edmonton Zone', 'Central Zone', 'Central Zone', 'Central Zone', 'Central Zone', 'Central Zone', 'Central Zone', 'Central Zone', 'Central Zone', 'Central Zone', 'Central Zone', 'Central Zone', 'Central Zone', 'Central Zone', 'Central Zone', 'Central Zone', 'Central Zone', 'Central Zone', 'Central Zone', 'Central Zone', 'Central Zone', 'Central Zone', 'Central Zone', 'Central Zone', 'Central Zone', 'Central Zone', 'Central Zone', 'Central Zone', 'Central Zone', 'Central Zone', 'Central Zone', 'Central Zone', 'Central Zone', 'Central Zone', 'Central Zone', 'Central Zone', 'Central Zone', 'Central Zone', 'Central Zone', 'Central Zone', 'Central Zone', 'Central Zone', 'Central Zone', 'Central Zone', 'Central Zone', 'Central Zone', 'Central Zone', 'Central Zone', 'Central Zone', 'Central Zone', 'Central Zone', 'Central Zone', 'Central Zone', 'Central Zone', 'Central Zone', 'Central Zone', 'Central Zone', 'Central Zone', 'Central Zone', 'Central Zone', 'Central Zone', 'Central Zone', 'Central Zone', 'Central Zone', 'Central Zone', 'Central Zone', 'Central Zone', 'Central Zone', 'Central Zone', 'Central Zone', 'Central Zone', 'Central Zone', 'Central Zone', 'Central Zone', 'Central Zone', 'Central Zone', 'Central Zone', 'Central Zone', 'Central Zone', 'Central Zone', 'Central Zone', 'Central Zone', 'Central Zone', 'Central Zone', 'Central Zone', 'Central Zone', 'Central Zone', 'Central Zone', 'Central Zone', 'Central Zone', 'Central Zone', 'Central Zone', 'Central Zone', 'Central Zone', 'Central Zone', 'Central Zone', 'Central Zone', 'Central Zone', 'Central Zone', 'Central Zone', 'Central Zone', 'Central Zone', 'Central Zone', 'Central Zone', 'Central Zone', 'Central Zone', 'Central Zone', 'Central Zone', 'Central Zone', 'Central Zone', 'Central Zone', 'Central Zone', 'Central Zone', 'Central Zone', 'Central Zone', 'Central Zone', 'Central Zone', 'Central Zone', 'Central Zone', 'Central Zone', 'Central Zone', 'Central Zone', 'Central Zone', 'Central Zone', 'Central Zone', 'Central Zone', 'Central Zone', 'Central Zone', 'Central Zone', 'Central Zone', 'Central Zone', 'Central Zone', 'Central Zone', 'Central Zone', 'Central Zone', 'Central Zone', 'Central Zone', 'Central Zone', 'Central Zone', 'Central Zone', 'Central Zone', 'Central Zone', 'South Zone', 'South Zone', 'South Zone', 'South Zone', 'South Zone', 'South Zone', 'South Zone', 'South Zone', 'South Zone', 'South Zone', 'South Zone', 'South Zone', 'South Zone', 'South Zone', 'South Zone', 'South Zone', 'South Zone', 'South Zone', 'South Zone', 'South Zone', 'South Zone', 'South Zone', 'South Zone', 'South Zone', 'South Zone', 'South Zone', 'South Zone', 'South Zone', 'South Zone', 'South Zone', 'South Zone', 'South Zone', 'South Zone', 'South Zone', 'South Zone', 'South Zone', 'South Zone', 'South Zone', 'South Zone', 'South Zone', 'South Zone', 'South Zone', 'South Zone', 'South Zone', 'South Zone', 'South Zone', 'South Zone', 'South Zone', 'South Zone', 'South Zone', 'South Zone', 'South Zone', 'South Zone', 'South Zone', 'South Zone', 'South Zone', 'South Zone', 'South Zone', 'South Zone', 'South Zone', 'South Zone', 'South Zone', 'South Zone', 'South Zone', 'South Zone', 'South Zone', 'South Zone', 'South Zone', 'South Zone', 'South Zone', 'South Zone', 'South Zone', 'South Zone', 'South Zone', 'South Zone', 'South Zone', 'South Zone', 'South Zone', 'South Zone', 'South Zone', 'South Zone', 'South Zone', 'South Zone', 'South Zone', 'South Zone', 'South Zone', 'South Zone', 'South Zone', 'South Zone', 'South Zone', 'South Zone', 'South Zone', 'South Zone', 'South Zone', 'South Zone', 'South Zone', 'South Zone', 'South Zone', 'South Zone', 'South Zone', 'South Zone', 'South Zone', 'South Zone', 'South Zone', 'South Zone', 'South Zone', 'South Zone', 'South Zone', 'South Zone', 'South Zone', 'South Zone', 'South Zone', 'South Zone', 'South Zone', 'South Zone', 'South Zone', 'South Zone', 'South Zone', 'South Zone', 'South Zone', 'South Zone', 'South Zone', 'South Zone', 'South Zone', 'South Zone', 'South Zone', 'South Zone', 'South Zone', 'South Zone', 'South Zone', 'South Zone', 'South Zone', 'South Zone', 'South Zone', 'South Zone', 'South Zone', 'South Zone', 'South Zone', 'South Zone', 'South Zone', 'South Zone', 'South Zone', 'South Zone', 'South Zone', 'North Zone', 'North Zone', 'North Zone', 'North Zone', 'North Zone', 'North Zone', 'North Zone', 'North Zone', 'North Zone', 'North Zone', 'North Zone', 'North Zone', 'North Zone', 'North Zone', 'North Zone', 'North Zone', 'North Zone', 'North Zone', 'North Zone', 'North Zone', 'North Zone', 'North Zone', 'North Zone', 'North Zone', 'North Zone', 'North Zone', 'North Zone', 'North Zone', 'North Zone', 'North Zone', 'North Zone', 'North Zone', 'North Zone', 'North Zone', 'North Zone', 'North Zone', 'North Zone', 'North Zone', 'North Zone', 'North Zone', 'North Zone', 'North Zone', 'North Zone', 'North Zone', 'North Zone', 'North Zone', 'North Zone', 'North Zone', 'North Zone', 'North Zone', 'North Zone', 'North Zone', 'North Zone', 'North Zone', 'North Zone', 'North Zone', 'North Zone', 'North Zone', 'North Zone', 'North Zone', 'North Zone', 'North Zone', 'North Zone', 'North Zone', 'North Zone', 'North Zone', 'North Zone', 'North Zone', 'North Zone', 'North Zone', 'North Zone', 'North Zone', 'North Zone', 'North Zone', 'North Zone', 'North Zone', 'North Zone', 'North Zone', 'North Zone', 'North Zone', 'North Zone', 'North Zone', 'North Zone', 'North Zone', 'North Zone', 'North Zone', 'North Zone', 'North Zone', 'North Zone', 'North Zone', 'North Zone', 'North Zone', 'North Zone', 'North Zone', 'North Zone', 'North Zone', 'North Zone', 'North Zone', 'North Zone', 'North Zone', 'North Zone', 'North Zone', 'North Zone', 'North Zone', 'North Zone', 'North Zone', 'North Zone', 'North Zone', 'North Zone', 'North Zone', 'North Zone', 'North Zone', 'North Zone', 'North Zone', 'North Zone', 'North Zone', 'North Zone', 'North Zone', 'North Zone', 'North Zone', 'North Zone', 'North Zone', 'North Zone', 'North Zone', 'North Zone', 'North Zone', 'North Zone', 'North Zone', 'North Zone', 'North Zone', 'North Zone', 'North Zone', 'North Zone', 'North Zone', 'North Zone', 'North Zone', 'North Zone', 'North Zone', 'North Zone', 'North Zone', 'North Zone', 'North Zone', 'North Zone', 'North Zone', 'North Zone', 'North Zone', 'North Zone', 'North Zone', 'North Zone', 'North Zone', 'North Zone', 'North Zone', 'North Zone', 'North Zone', 'North Zone', 'North Zone', 'North Zone', 'North Zone', 'North Zone', 'North Zone', 'North Zone', 'North Zone', 'North Zone', 'North Zone', 'North Zone', 'North Zone', 'North Zone', 'North Zone', 'North Zone', 'North Zone', 'North Zone', 'North Zone', 'North Zone', 'North Zone', 'North Zone', 'North Zone', 'North Zone', 'North Zone', 'North Zone', 'North Zone', 'North Zone', 'North Zone', 'North Zone', 'North Zone', 'North Zone', 'North Zone', 'North Zone', 'North Zone', 'North Zone', 'North Zone', 'North Zone', 'North Zone', 'North Zone', 'North Zone', 'North Zone', 'North Zone', 'North Zone', 'North Zone', 'North Zone', 'North Zone', 'North Zone', 'North Zone', 'North Zone', 'North Zone', 'North Zone', 'North Zone', 'North Zone', 'North Zone', 'North Zone', 'North Zone', 'North Zone', 'North Zone', 'North Zone', 'North Zone', 'North Zone', 'North Zone', 'North Zone', 'North Zone', 'North Zone', 'North Zone', 'North Zone', 'North Zone', 'North Zone', 'North Zone', 'North Zone', 'North Zone', 'North Zone', 'North Zone', 'North Zone', 'North Zone', 'North Zone', 'North Zone', 'North Zone', 'North Zone', 'North Zone', 'North Zone', 'North Zone', 'North Zone', 'North Zone', 'North Zone', 'North Zone', 'North Zone', 'North Zone', 'North Zone', 'North Zone', 'North Zone', 'North Zone', 'North Zone', 'North Zone', 'North Zone', 'North Zone', 'North Zone', 'North Zone', 'North Zone', 'North Zone', 'North Zone', 'North Zone', 'North Zone', 'North Zone', 'North Zone', 'North Zone', 'North Zone', 'North Zone', 'North Zone', 'North Zone', 'North Zone', 'North Zone', 'North Zone', 'North Zone', 'North Zone', 'North Zone', 'North Zone', 'North Zone', 'North Zone', 'North Zone', 'Calgary Zone', 'Calgary Zone', 'Calgary Zone', 'Calgary Zone', 'Calgary Zone', 'Calgary Zone', 'Calgary Zone', 'Calgary Zone', 'Calgary Zone', 'Calgary Zone', 'Calgary Zone', 'Calgary Zone', 'Calgary Zone', 'Calgary Zone', 'Calgary Zone', 'Calgary Zone', 'Calgary Zone', 'Calgary Zone', 'Calgary Zone', 'Calgary Zone', 'Calgary Zone', 'Calgary Zone', 'Calgary Zone', 'Calgary Zone', 'Calgary Zone', 'Calgary Zone', 'Calgary Zone', 'Calgary Zone', 'Calgary Zone', 'Calgary Zone', 'Calgary Zone', 'Calgary Zone', 'Calgary Zone', 'Calgary Zone', 'Calgary Zone', 'Calgary Zone', 'Calgary Zone', 'Calgary Zone', 'Calgary Zone', 'Calgary Zone', 'Calgary Zone', 'Calgary Zone', 'Calgary Zone', 'Calgary Zone', 'Calgary Zone', 'Calgary Zone', 'Calgary Zone', 'Calgary Zone', 'Calgary Zone', 'Calgary Zone', 'Calgary Zone', 'Calgary Zone', 'Calgary Zone', 'Calgary Zone', 'Calgary Zone', 'Calgary Zone', 'Calgary Zone', 'Calgary Zone', 'Calgary Zone', 'Calgary Zone', 'Calgary Zone', 'Calgary Zone', 'Calgary Zone', 'Calgary Zone', 'Calgary Zone', 'Calgary Zone', 'Calgary Zone', 'Calgary Zone', 'Calgary Zone', 'Calgary Zone', 'Calgary Zone', 'Calgary Zone', 'Calgary Zone', 'Calgary Zone', 'Calgary Zone', 'Calgary Zone', 'Calgary Zone', 'Calgary Zone', 'Calgary Zone', 'Calgary Zone', 'Calgary Zone', 'Calgary Zone', 'Calgary Zone', 'Calgary Zone', 'Calgary Zone', 'Calgary Zone', 'Calgary Zone', 'Calgary Zone', 'Calgary Zone', 'Calgary Zone', 'Calgary Zone', 'Calgary Zone', 'Calgary Zone', 'Calgary Zone', 'Calgary Zone', 'Calgary Zone', 'Calgary Zone', 'Calgary Zone', 'Calgary Zone', 'Calgary Zone', 'Calgary Zone', 'Calgary Zone', 'Calgary Zone', 'Calgary Zone', 'Calgary Zone', 'Calgary Zone', 'Calgary Zone', 'Calgary Zone', 'Calgary Zone', 'Calgary Zone', 'Calgary Zone', 'Calgary Zone', 'Calgary Zone', 'Calgary Zone', 'Calgary Zone', 'Calgary Zone', 'Calgary Zone', 'Calgary Zone', 'Calgary Zone', 'Calgary Zone', 'Calgary Zone', 'Calgary Zone', 'Calgary Zone', 'Calgary Zone', 'Calgary Zone', 'Calgary Zone', 'Calgary Zone', 'Calgary Zone', 'Calgary Zone', 'Calgary Zone', 'Calgary Zone', 'Calgary Zone', 'Calgary Zone', 'Calgary Zone', 'Calgary Zone', 'Calgary Zone', 'Calgary Zone', 'Calgary Zone', 'Calgary Zone', 'Calgary Zone', 'Calgary Zone', 'Calgary Zone', 'Calgary Zone', 'Calgary Zone', 'Calgary Zone', 'Calgary Zone', 'Calgary Zone', 'Calgary Zone', 'Calgary Zone', 'Calgary Zone', 'Calgary Zone', 'Calgary Zone', 'Calgary Zone', 'Calgary Zone', 'Calgary Zone', 'Calgary Zone', 'Calgary Zone', 'Calgary Zone', 'Calgary Zone', 'Calgary Zone', 'Calgary Zone', 'Calgary Zone', 'Calgary Zone', 'Calgary Zone', 'Calgary Zone', 'Calgary Zone', 'Calgary Zone', 'Calgary Zone', 'Calgary Zone', 'Calgary Zone', 'Calgary Zone', 'Calgary Zone', 'Calgary Zone', 'Calgary Zone', 'Calgary Zone', 'Calgary Zone', 'Calgary Zone', 'Calgary Zone', 'Calgary Zone', 'Calgary Zone', 'Calgary Zone', 'Calgary Zone', 'Calgary Zone', 'Calgary Zone', 'Calgary Zone', 'Calgary Zone', 'Calgary Zone', 'Calgary Zone', 'Calgary Zone', 'Calgary Zone', 'Calgary Zone', 'Calgary Zone', 'Calgary Zone', 'Calgary Zone', 'Calgary Zone', 'Calgary Zone', 'Calgary Zone', 'Calgary Zone', 'Calgary Zone', 'Calgary Zone', 'Calgary Zone', 'Calgary Zone']
