file	figure	geographic	xaxis	yaxis	yaxis2	xaxis2	xaxis3	yaxis3	legend
htmlwidget-ceec894e80710a09b213	Laboratory-confirmed seasonal influenza by age group, 2024-2025		Age group	Rate (per 100,000 population)					
htmlwidget-b4bb6fedd288ef73b49d	Laboratory-confirmed RSV by age group, 2024-2025		Age group	Rate (per 100,000 population)					
htmlwidget-03b73be3ebb4b4b35627	Laboratory-confirmed COVID-19 by age group, 2024-2025		Age group	Rate (per 100,000 population)					
htmlwidget-ff2d172da5a3b25ecf9e	Laboratory-confirmed seasonal influenza cases in Alberta by zone, 2024-2025		Week	Influenza cases (n)					
htmlwidget-3266a259e9c43961186f	Laboratory-confirmed seasonal influenza cases in Alberta by zone, 2020-2021 to 2024-2025		Week	Influenza cases (n)					
htmlwidget-b752e28c4462dc8356ac	Map of laboratory-confirmed seasonal influenza case rates by zone compared to Alberta, 2024-2025	True							
htmlwidget-9354f1ced1f819c719a5	Laboratory-confirmed RSV cases in Alberta by zone, 2024-2025		Week	RSV cases (n)					
htmlwidget-17e93dfccc119ce72305	Laboratory-confirmed RSV cases in Alberta by zone, 2020-2021 to 2024-2025		Week	RSV cases (n)					
htmlwidget-687b5d597c86e0af5ad2	Map of laboratory-confirmed RSV case rates by zone compared to Alberta, 2024-2025	True							
htmlwidget-ed709364223c8ae6cd5e	Laboratory-confirmed COVID-19 cases in Alberta by zone, 2024-2025		Week	COVID-19 cases (n)					
htmlwidget-2bbd9d9acc1025fb96f8	Laboratory-confirmed COVID-19 cases in Alberta by zone, 2020-2021 to 2024-2025		Week	COVID-19 cases (n)					
htmlwidget-8cdb411fe5e2f77a2c65	Map of laboratory-confirmed COVID-19 case rates by zone compared to Alberta, 2024-2025	True							
htmlwidget-3ae46eb98195e0124491	Cumulative COVID-19 vaccine doses administered by week in Alberta, 2024-2025		Week	COVID-19 vaccine doses (n)					
htmlwidget-bc0fe27f72d03adbaef3	COVID-19 vaccine doses administered by week in Alberta, 2024-2025		Week	COVID-19 vaccine doses (n)					
htmlwidget-39368da2ca79cd67277e	COVID-19 vaccine coverage by week and age group in Alberta, 2024-2025		Week	COVID-19 vaccine coverage (%)					
htmlwidget-1bfa39edc36bead3cf16	COVID-19 vaccine coverage rate by local geographic area, 2024-2025	True							
htmlwidget-2ec9c32af1d9a0254493	Number of adverse events following COVID-19 immunization (AEFI) by condition reported in Alberta, 2024-2025		Number of events						
htmlwidget-6a9f430e8c96a2c0d816	Respiratory virus test positivity by week, 2024-2025		Week	Percent Positivity (%)					
htmlwidget-3698c7deb801bc99cf23	Respiratory virus test positivity by week for the 2024-2025 season compared to historical trends		Week	Test Positivity (%)					
htmlwidget-f095bbdc500628629820	SARS-CoV-2 testing and positivity by week, 2020-2021 to 2024-2025		Week	Total tests (n)	Percent Positivity				
htmlwidget-151d484679a960c08509	Influenza testing and positivity by week, 2020-2021 to 2024-2025		Week	Total tests (n)	Percent Positivity				
htmlwidget-27b44091a0108374ae38	Respiratory syncytial virus testing and positivity by week, 2020-2021 to 2024-2025		Week	Total tests (n)	Percent Positivity				
htmlwidget-dce78c3d021335378ad0	Adenovirus testing and positivity by week, 2020-2021 to 2024-2025		Week	Total tests (n)	Percent Positivity				
htmlwidget-068e666acdd5df2b19bd	Coronavirus testing and positivity by week, 2020-2021 to 2024-2025		Week	Total tests (n)	Percent Positivity				
htmlwidget-be0de7c7414598817610	Rhinovirus/enterovirus testing and positivity by week, 2020-2021 to 2024-2025		Week	Total tests (n)	Percent Positivity				
htmlwidget-8046b425af77b818d695	Human metapneumovirus (hMPV) testing and positivity by week, 2020-2021 to 2024-2025		Week	Total tests (n)	Percent Positivity				
htmlwidget-2ac08db7c6f744df48bf	Parainfluenza testing and positivity by week, 2020-2021 to 2024-2025		Week	Total tests (n)	Percent Positivity				
htmlwidget-d5eff8009582ce805e37	Number of respiratory virus outbreaks by week, 2020-2021 to 2024-2025		Date	Outbreaks (n)					
htmlwidget-e23b4ac64f6eb4a46dfc	Total hospital admissions, ICU admissions, and deaths among laboratory-confirmed seasonal influenza cases in Alberta by age group, 2024-2025							Age Group	
htmlwidget-2b3d154520fdf43ed551	Number of weekly hospital admissions (ICU and non-ICU) and deaths due to laboratory-confirmed seasonal influenza, 2020-2021 to 2024-2025		Week	Hospitalization/ICU/Deaths (n)					
htmlwidget-713f0789337be8c984ca	Total hospital admissions, ICU admissions, and deaths among laboratory-confirmed RSV cases in Alberta by age group, 2024-2025							Age Group	
htmlwidget-ae3598b28e27da7defcc	Number of weekly hospital admissions (ICU and non-ICU) and deaths due to laboratory-confirmed RSV, 2024-2025		Week	Hospitalization/ICU/Deaths (n)					
htmlwidget-ebc2e4bcc440fa5e4067	Total hospital admissions, ICU admissions, and deaths among laboratory-confirmed COVID-19 cases in Alberta by age group, 2024-2025							Age Group	
htmlwidget-bd28500f49eec22850fe	Number of weekly hospital admissions (ICU and non-ICU) and deaths due to laboratory-confirmed COVID-19, 2020-2021 to 2024-2025		Week	Hospitalization/ICU/Deaths (n)					
htmlwidget-2b01222165b5e859ab52	Total weekly laboratory-confirmed seasonal influenza cases by subtype in Alberta, 2024-2025		Week	Influenza cases (n)					
htmlwidget-9b4dada96dc289faf3dd	Total weekly laboratory-confirmed seasonal influenza cases by subtype in Alberta, 2020-2021 to 2024-2025		Week	Influenza cases (n)					
htmlwidget-de25b7325feb954083be	Laboratory-confirmed seasonal influenza cases in Alberta since the 2009-2010 season		Week	Influenza cases (n)					
htmlwidget-32b33fe1d49523162b25	Total weekly laboratory-confirmed RSV cases in Alberta, 2024-2025		Week	RSV cases (n)					
htmlwidget-6cd895bda22abf99f049	Total weekly laboratory-confirmed RSV cases in Alberta, 2020-2021 to 2024-2025		Week	RSV cases (n)					
htmlwidget-48cc91f36d60f88ff65b	Total weekly laboratory-confirmed COVID-19 cases in Alberta, 2024-2025		Week	COVID-19 cases (n)					
htmlwidget-795f8388b36297152ca3	Proportion of whole genome sequenced COVID-19 variants by type (10 weeks).		Date Reported to Alberta Health	COVID-19 Sequencing Results (Percentage)					
htmlwidget-da5a026861dd40abbf15	Population normalized quantity of SARS CoV-2 virus over time		Date	Normalized viral <br> copies per person					['Edmonton Zone', 'Edmonton Zone', 'Edmonton Zone', 'Edmonton Zone', 'Edmonton Zone', 'Edmonton Zone', 'Edmonton Zone', 'Edmonton Zone', 'Edmonton Zone', 'Edmonton Zone', 'Edmonton Zone', 'Edmonton Zone', 'Edmonton Zone', 'Edmonton Zone', 'Edmonton Zone', 'Edmonton Zone', 'Edmonton Zone', 'Edmonton Zone', 'Edmonton Zone', 'Edmonton Zone', 'Edmonton Zone', 'Edmonton Zone', 'Edmonton Zone', 'Edmonton Zone', 'Edmonton Zone', 'Edmonton Zone', 'Edmonton Zone', 'Edmonton Zone', 'Edmonton Zone', 'Edmonton Zone', 'Edmonton Zone', 'Edmonton Zone', 'Edmonton Zone', 'Edmonton Zone', 'Edmonton Zone', 'Edmonton Zone', 'Edmonton Zone', 'Edmonton Zone', 'Edmonton Zone', 'Edmonton Zone', 'Edmonton Zone', 'Edmonton Zone', 'Edmonton Zone', 'Edmonton Zone', 'Edmonton Zone', 'Edmonton Zone', 'Edmonton Zone', 'Edmonton Zone', 'Edmonton Zone', 'Edmonton Zone', 'Edmonton Zone', 'Edmonton Zone', 'Edmonton Zone', 'Edmonton Zone', 'Edmonton Zone', 'Edmonton Zone', 'Edmonton Zone', 'Edmonton Zone', 'Edmonton Zone', 'Edmonton Zone', 'Edmonton Zone', 'Edmonton Zone', 'Edmonton Zone', 'Edmonton Zone', 'Edmonton Zone', 'Edmonton Zone', 'Edmonton Zone', 'Edmonton Zone', 'Edmonton Zone', 'Edmonton Zone', 'Edmonton Zone', 'Edmonton Zone', 'Edmonton Zone', 'Edmonton Zone', 'Edmonton Zone', 'Edmonton Zone', 'Edmonton Zone', 'Edmonton Zone', 'Edmonton Zone', 'Edmonton Zone', 'Edmonton Zone', 'Edmonton Zone', 'Edmonton Zone', 'Edmonton Zone', 'Edmonton Zone', 'Edmonton Zone', 'Edmonton Zone', 'Edmonton Zone', 'Edmonton Zone', 'Edmonton Zone', 'Edmonton Zone', 'Edmonton Zone', 'Edmonton Zone', 'Edmonton Zone', 'Edmonton Zone', 'Edmonton Zone', 'Edmonton Zone', 'Edmonton Zone', 'Edmonton Zone', 'Edmonton Zone', 'Edmonton Zone', 'Edmonton Zone', 'Edmonton Zone', 'Edmonton Zone', 'Edmonton Zone', 'Edmonton Zone', 'Edmonton Zone', 'Edmonton Zone', 'Edmonton Zone', 'Edmonton Zone', 'Edmonton Zone', 'Edmonton Zone', 'Edmonton Zone', 'Edmonton Zone', 'Edmonton Zone', 'Edmonton Zone', 'Edmonton Zone', 'Edmonton Zone', 'Edmonton Zone', 'Edmonton Zone', 'Edmonton Zone', 'Edmonton Zone', 'Edmonton Zone', 'Edmonton Zone', 'Calgary Zone', 'Calgary Zone', 'Calgary Zone', 'Calgary Zone', 'Calgary Zone', 'Calgary Zone', 'Calgary Zone', 'Calgary Zone', 'Calgary Zone', 'Calgary Zone', 'Calgary Zone', 'Calgary Zone', 'Calgary Zone', 'Calgary Zone', 'Calgary Zone', 'Calgary Zone', 'Calgary Zone', 'Calgary Zone', 'Calgary Zone', 'Calgary Zone', 'Calgary Zone', 'Calgary Zone', 'Calgary Zone', 'Calgary Zone', 'Calgary Zone', 'Calgary Zone', 'Calgary Zone', 'Calgary Zone', 'Calgary Zone', 'Calgary Zone', 'Calgary Zone', 'Calgary Zone', 'Calgary Zone', 'Calgary Zone', 'Calgary Zone', 'Calgary Zone', 'Calgary Zone', 'Calgary Zone', 'Calgary Zone', 'Calgary Zone', 'Calgary Zone', 'Calgary Zone', 'Calgary Zone', 'Calgary Zone', 'Calgary Zone', 'Calgary Zone', 'Calgary Zone', 'Calgary Zone', 'Calgary Zone', 'Calgary Zone', 'Calgary Zone', 'Calgary Zone', 'Calgary Zone', 'Calgary Zone', 'Calgary Zone', 'Calgary Zone', 'Calgary Zone', 'Calgary Zone', 'Calgary Zone', 'Calgary Zone', 'Calgary Zone', 'Calgary Zone', 'Calgary Zone', 'Calgary Zone', 'Calgary Zone', 'Calgary Zone', 'Calgary Zone', 'Calgary Zone', 'Calgary Zone', 'Calgary Zone', 'Calgary Zone', 'Calgary Zone', 'Calgary Zone', 'Calgary Zone', 'Calgary Zone', 'Calgary Zone', 'Calgary Zone', 'Calgary Zone', 'Calgary Zone', 'Calgary Zone', 'Calgary Zone', 'Calgary Zone', 'Calgary Zone', 'Calgary Zone', 'Calgary Zone', 'Calgary Zone', 'Calgary Zone', 'Calgary Zone', 'Calgary Zone', 'Calgary Zone', 'Calgary Zone', 'Calgary Zone', 'Calgary Zone', 'Calgary Zone', 'Calgary Zone', 'Calgary Zone', 'Calgary Zone', 'Calgary Zone', 'Calgary Zone', 'Calgary Zone', 'Calgary Zone', 'Calgary Zone', 'Calgary Zone', 'Calgary Zone', 'Calgary Zone', 'Calgary Zone', 'Calgary Zone', 'Calgary Zone', 'Calgary Zone', 'Calgary Zone', 'Calgary Zone', 'Calgary Zone', 'Calgary Zone', 'Calgary Zone', 'Calgary Zone', 'Calgary Zone', 'Calgary Zone', 'Calgary Zone', 'Calgary Zone', 'Calgary Zone', 'Calgary Zone', 'South Zone', 'South Zone', 'South Zone', 'South Zone', 'South Zone', 'South Zone', 'South Zone', 'South Zone', 'South Zone', 'South Zone', 'South Zone', 'South Zone', 'South Zone', 'South Zone', 'South Zone', 'South Zone', 'South Zone', 'South Zone', 'South Zone', 'South Zone', 'South Zone', 'South Zone', 'South Zone', 'South Zone', 'South Zone', 'South Zone', 'South Zone', 'South Zone', 'South Zone', 'South Zone', 'South Zone', 'South Zone', 'South Zone', 'South Zone', 'South Zone', 'South Zone', 'South Zone', 'South Zone', 'South Zone', 'South Zone', 'South Zone', 'South Zone', 'South Zone', 'South Zone', 'South Zone', 'South Zone', 'South Zone', 'South Zone', 'South Zone', 'South Zone', 'South Zone', 'South Zone', 'South Zone', 'South Zone', 'South Zone', 'South Zone', 'South Zone', 'South Zone', 'South Zone', 'South Zone', 'South Zone', 'South Zone', 'South Zone', 'South Zone', 'South Zone', 'South Zone', 'South Zone', 'South Zone', 'South Zone', 'South Zone', 'South Zone', 'South Zone', 'South Zone', 'South Zone', 'South Zone', 'South Zone', 'South Zone', 'South Zone', 'South Zone', 'South Zone', 'South Zone', 'South Zone', 'South Zone', 'South Zone', 'South Zone', 'South Zone', 'South Zone', 'South Zone', 'South Zone', 'South Zone', 'South Zone', 'South Zone', 'South Zone', 'South Zone', 'South Zone', 'South Zone', 'South Zone', 'South Zone', 'South Zone', 'South Zone', 'South Zone', 'South Zone', 'South Zone', 'South Zone', 'South Zone', 'South Zone', 'South Zone', 'South Zone', 'South Zone', 'South Zone', 'South Zone', 'South Zone', 'North Zone', 'North Zone', 'North Zone', 'North Zone', 'North Zone', 'North Zone', 'North Zone', 'North Zone', 'North Zone', 'North Zone', 'North Zone', 'North Zone', 'North Zone', 'North Zone', 'North Zone', 'North Zone', 'North Zone', 'North Zone', 'North Zone', 'North Zone', 'North Zone', 'North Zone', 'North Zone', 'North Zone', 'North Zone', 'North Zone', 'North Zone', 'North Zone', 'North Zone', 'North Zone', 'North Zone', 'North Zone', 'North Zone', 'North Zone', 'North Zone', 'North Zone', 'North Zone', 'North Zone', 'North Zone', 'North Zone', 'North Zone', 'North Zone', 'North Zone', 'North Zone', 'North Zone', 'North Zone', 'North Zone', 'North Zone', 'North Zone', 'North Zone', 'North Zone', 'North Zone', 'North Zone', 'North Zone', 'North Zone', 'North Zone', 'North Zone', 'North Zone', 'North Zone', 'North Zone', 'North Zone', 'North Zone', 'North Zone', 'North Zone', 'North Zone', 'North Zone', 'North Zone', 'North Zone', 'North Zone', 'North Zone', 'North Zone', 'North Zone', 'North Zone', 'North Zone', 'North Zone', 'North Zone', 'North Zone', 'North Zone', 'North Zone', 'North Zone', 'North Zone', 'North Zone', 'North Zone', 'North Zone', 'North Zone', 'North Zone', 'North Zone', 'North Zone', 'North Zone', 'North Zone', 'North Zone', 'North Zone', 'North Zone', 'North Zone', 'North Zone', 'North Zone', 'North Zone', 'North Zone', 'North Zone', 'North Zone', 'North Zone', 'North Zone', 'North Zone', 'North Zone', 'North Zone', 'North Zone', 'North Zone', 'North Zone', 'North Zone', 'North Zone', 'North Zone', 'North Zone', 'North Zone', 'North Zone', 'North Zone', 'North Zone', 'North Zone', 'North Zone', 'North Zone', 'North Zone', 'Edmonton Zone', 'Edmonton Zone', 'Edmonton Zone', 'Edmonton Zone', 'Edmonton Zone', 'Edmonton Zone', 'Edmonton Zone', 'Edmonton Zone', 'Edmonton Zone', 'Edmonton Zone', 'Edmonton Zone', 'Edmonton Zone', 'Edmonton Zone', 'Edmonton Zone', 'Edmonton Zone', 'Edmonton Zone', 'Edmonton Zone', 'Edmonton Zone', 'Edmonton Zone', 'Edmonton Zone', 'Edmonton Zone', 'Edmonton Zone', 'Edmonton Zone', 'Edmonton Zone', 'Edmonton Zone', 'Edmonton Zone', 'Edmonton Zone', 'Edmonton Zone', 'Edmonton Zone', 'Edmonton Zone', 'Edmonton Zone', 'Edmonton Zone', 'Edmonton Zone', 'Edmonton Zone', 'Edmonton Zone', 'Edmonton Zone', 'Edmonton Zone', 'Edmonton Zone', 'Edmonton Zone', 'Edmonton Zone', 'Edmonton Zone', 'Edmonton Zone', 'Edmonton Zone', 'Edmonton Zone', 'Edmonton Zone', 'Edmonton Zone', 'Edmonton Zone', 'Edmonton Zone', 'Edmonton Zone', 'Edmonton Zone', 'Edmonton Zone', 'Edmonton Zone', 'Edmonton Zone', 'Edmonton Zone', 'Edmonton Zone', 'Edmonton Zone', 'Edmonton Zone', 'Edmonton Zone', 'Edmonton Zone', 'Edmonton Zone', 'Edmonton Zone', 'Edmonton Zone', 'Edmonton Zone', 'Edmonton Zone', 'Edmonton Zone', 'Edmonton Zone', 'Edmonton Zone', 'Edmonton Zone', 'Edmonton Zone', 'Edmonton Zone', 'Edmonton Zone', 'Edmonton Zone', 'Edmonton Zone', 'Edmonton Zone', 'Edmonton Zone', 'Edmonton Zone', 'Edmonton Zone', 'Edmonton Zone', 'Edmonton Zone', 'Edmonton Zone', 'Edmonton Zone', 'Edmonton Zone', 'Edmonton Zone', 'Edmonton Zone', 'Edmonton Zone', 'Edmonton Zone', 'Edmonton Zone', 'Edmonton Zone', 'Edmonton Zone', 'Edmonton Zone', 'Edmonton Zone', 'Edmonton Zone', 'Edmonton Zone', 'Edmonton Zone', 'Edmonton Zone', 'Edmonton Zone', 'Edmonton Zone', 'Edmonton Zone', 'Edmonton Zone', 'Edmonton Zone', 'Edmonton Zone', 'Edmonton Zone', 'Edmonton Zone', 'Edmonton Zone', 'Edmonton Zone', 'Edmonton Zone', 'Edmonton Zone', 'Edmonton Zone', 'Edmonton Zone', 'Edmonton Zone', 'Central Zone', 'Central Zone', 'Central Zone', 'Central Zone', 'Central Zone', 'Central Zone', 'Central Zone', 'Central Zone', 'Central Zone', 'Central Zone', 'Central Zone', 'Central Zone', 'Central Zone', 'Central Zone', 'Central Zone', 'Central Zone', 'Central Zone', 'Central Zone', 'Central Zone', 'Central Zone', 'Central Zone', 'Central Zone', 'Central Zone', 'Central Zone', 'Central Zone', 'Central Zone', 'Central Zone', 'Central Zone', 'Central Zone', 'Central Zone', 'Central Zone', 'Central Zone', 'Central Zone', 'Central Zone', 'Central Zone', 'Central Zone', 'Central Zone', 'Central Zone', 'Central Zone', 'Central Zone', 'Central Zone', 'Central Zone', 'Central Zone', 'Central Zone', 'Central Zone', 'Central Zone', 'Central Zone', 'Central Zone', 'Central Zone', 'Central Zone', 'Central Zone', 'Central Zone', 'Central Zone', 'Central Zone', 'Central Zone', 'Central Zone', 'Central Zone', 'Central Zone', 'Central Zone', 'Central Zone', 'Central Zone', 'Central Zone', 'Central Zone', 'Central Zone', 'Central Zone', 'Central Zone', 'Central Zone', 'Central Zone', 'Central Zone', 'Central Zone', 'Central Zone', 'Central Zone', 'Central Zone', 'Central Zone', 'Central Zone', 'Central Zone', 'Central Zone', 'Central Zone', 'Central Zone', 'Central Zone', 'Central Zone', 'Central Zone', 'Central Zone', 'Central Zone', 'Central Zone', 'Central Zone', 'Central Zone', 'Central Zone', 'Central Zone', 'Central Zone', 'Central Zone', 'Central Zone', 'Central Zone', 'Central Zone', 'Central Zone', 'Central Zone', 'Central Zone', 'Central Zone', 'Central Zone', 'Central Zone', 'Central Zone', 'Central Zone', 'Central Zone', 'Central Zone', 'Central Zone', 'Central Zone', 'Central Zone', 'Central Zone', 'Central Zone', 'Central Zone', 'Central Zone', 'Central Zone', 'South Zone', 'South Zone', 'South Zone', 'South Zone', 'South Zone', 'South Zone', 'South Zone', 'South Zone', 'South Zone', 'South Zone', 'South Zone', 'South Zone', 'South Zone', 'South Zone', 'South Zone', 'South Zone', 'South Zone', 'South Zone', 'South Zone', 'South Zone', 'South Zone', 'South Zone', 'South Zone', 'South Zone', 'South Zone', 'South Zone', 'South Zone', 'South Zone', 'South Zone', 'South Zone', 'South Zone', 'South Zone', 'South Zone', 'South Zone', 'South Zone', 'South Zone', 'South Zone', 'South Zone', 'South Zone', 'South Zone', 'South Zone', 'South Zone', 'South Zone', 'South Zone', 'South Zone', 'South Zone', 'South Zone', 'South Zone', 'South Zone', 'South Zone', 'South Zone', 'South Zone', 'South Zone', 'South Zone', 'South Zone', 'South Zone', 'South Zone', 'South Zone', 'South Zone', 'South Zone', 'South Zone', 'South Zone', 'South Zone', 'South Zone', 'South Zone', 'South Zone', 'South Zone', 'South Zone', 'South Zone', 'South Zone', 'South Zone', 'South Zone', 'South Zone', 'South Zone', 'South Zone', 'South Zone', 'South Zone', 'South Zone', 'South Zone', 'South Zone', 'South Zone', 'South Zone', 'South Zone', 'South Zone', 'South Zone', 'South Zone', 'South Zone', 'South Zone', 'South Zone', 'South Zone', 'South Zone', 'South Zone', 'South Zone', 'South Zone', 'South Zone', 'South Zone', 'South Zone', 'South Zone', 'South Zone', 'South Zone', 'South Zone', 'South Zone', 'South Zone', 'South Zone', 'South Zone', 'South Zone', 'South Zone', 'South Zone', 'South Zone', 'South Zone', 'South Zone', 'South Zone', 'South Zone', 'South Zone', 'South Zone', 'South Zone', 'North Zone', 'North Zone', 'North Zone', 'North Zone', 'North Zone', 'North Zone', 'North Zone', 'North Zone', 'North Zone', 'North Zone', 'North Zone', 'North Zone', 'North Zone', 'North Zone', 'North Zone', 'North Zone', 'North Zone', 'North Zone', 'North Zone', 'North Zone', 'North Zone', 'North Zone', 'North Zone', 'North Zone', 'North Zone', 'North Zone', 'North Zone', 'North Zone', 'North Zone', 'North Zone', 'North Zone', 'North Zone', 'North Zone', 'North Zone', 'North Zone', 'North Zone', 'North Zone', 'North Zone', 'North Zone', 'North Zone', 'North Zone', 'North Zone', 'North Zone', 'North Zone', 'North Zone', 'North Zone', 'North Zone', 'North Zone', 'North Zone', 'North Zone', 'North Zone', 'North Zone', 'North Zone', 'North Zone', 'North Zone', 'North Zone', 'North Zone', 'North Zone', 'North Zone', 'North Zone', 'North Zone', 'North Zone', 'North Zone', 'North Zone', 'North Zone', 'North Zone', 'North Zone', 'North Zone', 'North Zone', 'North Zone', 'North Zone', 'North Zone', 'North Zone', 'North Zone', 'North Zone', 'North Zone', 'North Zone', 'North Zone', 'North Zone', 'North Zone', 'North Zone', 'North Zone', 'North Zone', 'North Zone', 'North Zone', 'North Zone', 'North Zone', 'North Zone', 'North Zone', 'North Zone', 'North Zone', 'North Zone', 'North Zone', 'North Zone', 'North Zone', 'North Zone', 'North Zone', 'North Zone', 'North Zone', 'North Zone', 'North Zone', 'North Zone', 'North Zone', 'North Zone', 'North Zone', 'North Zone', 'North Zone', 'North Zone', 'North Zone', 'North Zone', 'North Zone', 'North Zone', 'North Zone', 'North Zone', 'North Zone', 'North Zone', 'North Zone', 'North Zone', 'North Zone', 'North Zone', 'North Zone', 'North Zone', 'North Zone', 'North Zone', 'North Zone', 'North Zone', 'North Zone', 'North Zone', 'North Zone', 'North Zone', 'North Zone', 'North Zone', 'North Zone', 'North Zone', 'North Zone', 'North Zone', 'North Zone', 'North Zone', 'North Zone', 'North Zone', 'North Zone', 'North Zone', 'North Zone', 'North Zone', 'North Zone', 'North Zone', 'North Zone', 'North Zone', 'North Zone', 'North Zone', 'North Zone', 'North Zone', 'North Zone', 'North Zone', 'North Zone', 'North Zone', 'North Zone', 'North Zone', 'North Zone', 'North Zone', 'North Zone', 'North Zone', 'North Zone', 'North Zone', 'North Zone', 'North Zone', 'North Zone', 'North Zone', 'North Zone', 'North Zone', 'North Zone', 'North Zone', 'North Zone', 'North Zone', 'North Zone', 'North Zone', 'North Zone', 'North Zone', 'North Zone', 'North Zone', 'North Zone', 'North Zone', 'North Zone', 'North Zone', 'North Zone', 'North Zone', 'North Zone', 'North Zone', 'North Zone', 'North Zone', 'North Zone', 'North Zone', 'North Zone', 'North Zone', 'North Zone', 'North Zone', 'North Zone', 'North Zone', 'North Zone', 'North Zone', 'North Zone', 'North Zone', 'North Zone', 'North Zone', 'North Zone', 'North Zone', 'North Zone', 'North Zone', 'North Zone', 'North Zone', 'Calgary Zone', 'Calgary Zone', 'Calgary Zone', 'Calgary Zone', 'Calgary Zone', 'Calgary Zone', 'Calgary Zone', 'Calgary Zone', 'Calgary Zone', 'Calgary Zone', 'Calgary Zone', 'Calgary Zone', 'Calgary Zone', 'Calgary Zone', 'Calgary Zone', 'Calgary Zone', 'Calgary Zone', 'Calgary Zone', 'Calgary Zone', 'Calgary Zone', 'Calgary Zone', 'Calgary Zone', 'Calgary Zone', 'Calgary Zone', 'Calgary Zone', 'Calgary Zone', 'Calgary Zone', 'Calgary Zone', 'Calgary Zone', 'Calgary Zone', 'Calgary Zone', 'Calgary Zone', 'Calgary Zone', 'Calgary Zone', 'Calgary Zone', 'Calgary Zone', 'Calgary Zone', 'Calgary Zone', 'Calgary Zone', 'Calgary Zone', 'Calgary Zone', 'Calgary Zone', 'Calgary Zone', 'Calgary Zone', 'Calgary Zone', 'Calgary Zone', 'Calgary Zone', 'Calgary Zone', 'Calgary Zone', 'Calgary Zone', 'Calgary Zone', 'Calgary Zone', 'Calgary Zone', 'Calgary Zone', 'Calgary Zone', 'Calgary Zone', 'Calgary Zone', 'Calgary Zone', 'Calgary Zone', 'Calgary Zone', 'Calgary Zone', 'Calgary Zone', 'Calgary Zone', 'Calgary Zone', 'Calgary Zone', 'Calgary Zone', 'Calgary Zone', 'Calgary Zone', 'Calgary Zone', 'Calgary Zone', 'Calgary Zone', 'Calgary Zone', 'Calgary Zone', 'Calgary Zone', 'Calgary Zone', 'Calgary Zone', 'Calgary Zone', 'Calgary Zone', 'Calgary Zone', 'Calgary Zone', 'Calgary Zone', 'Calgary Zone', 'Calgary Zone', 'Calgary Zone', 'Calgary Zone', 'Calgary Zone', 'Calgary Zone', 'Calgary Zone', 'Calgary Zone', 'Calgary Zone', 'Calgary Zone', 'Calgary Zone', 'Calgary Zone', 'Calgary Zone', 'Calgary Zone', 'Calgary Zone', 'Calgary Zone', 'Calgary Zone', 'Calgary Zone', 'Calgary Zone', 'Calgary Zone', 'Calgary Zone', 'Calgary Zone', 'Calgary Zone', 'Calgary Zone', 'Calgary Zone', 'Calgary Zone', 'Calgary Zone', 'Calgary Zone', 'Calgary Zone', 'Calgary Zone', 'Calgary Zone', 'Calgary Zone', 'Calgary Zone', 'Calgary Zone', 'Calgary Zone', 'Calgary Zone', 'Calgary Zone', 'Calgary Zone', 'Calgary Zone', 'Calgary Zone', 'Calgary Zone', 'Calgary Zone', 'Calgary Zone', 'Calgary Zone', 'Calgary Zone', 'Calgary Zone', 'Calgary Zone', 'Calgary Zone', 'Calgary Zone', 'Calgary Zone', 'Calgary Zone', 'Calgary Zone', 'Calgary Zone', 'Calgary Zone', 'Calgary Zone', 'Calgary Zone', 'Calgary Zone', 'Calgary Zone', 'Calgary Zone', 'Calgary Zone', 'Calgary Zone', 'Calgary Zone', 'Calgary Zone', 'Calgary Zone', 'Calgary Zone', 'Calgary Zone', 'Calgary Zone', 'Calgary Zone', 'Calgary Zone', 'Calgary Zone', 'Calgary Zone', 'Calgary Zone', 'Calgary Zone', 'Calgary Zone', 'Calgary Zone', 'Calgary Zone', 'Calgary Zone']
