file	figure	geographic	xaxis	yaxis	yaxis2	xaxis2	xaxis3	yaxis3	legend
htmlwidget-04818433ab6d55c06c9f	Laboratory-confirmed seasonal influenza by age group, 2024-2025		Age group	Rate (per 100,000 population)					
htmlwidget-aafbfe62ef1aa1988f14	Laboratory-confirmed RSV by age group, 2024-2025		Age group	Rate (per 100,000 population)					
htmlwidget-47845dd7a0fb4fbd9ccb	Laboratory-confirmed COVID-19 by age group, 2024-2025		Age group	Rate (per 100,000 population)					
htmlwidget-ce5dc9fba93ebd27f18d	Laboratory-confirmed seasonal influenza cases in Alberta by zone, 2020-2021 to 2024-2025		Week	Influenza cases (n)					
htmlwidget-123ca115f1ef4d284c96	Laboratory-confirmed seasonal influenza cases in Alberta by zone, 2020-2021 to 2024-2025		Week	Influenza cases (n)					
htmlwidget-de4dff5829bc225a71ea	Map of laboratory-confirmed seasonal influenza case rates by zone compared to Alberta, 2024-2025	True							
htmlwidget-0c0d57a2064883d3fa23	Laboratory-confirmed RSV cases in Alberta by zone, 2024-2025		Week	Influenza cases (n)					
htmlwidget-3916a08ee3e4a28bc1cf	Laboratory-confirmed RSV cases in Alberta by zone, 2020-2021 to 2024-2025		Week	Influenza cases (n)					
htmlwidget-3869f84a0c8ef3e0992a	Map of laboratory-confirmed RSV case rates by zone compared to Alberta, 2024-2025	True							
htmlwidget-cfbc9469fcf1e3bcb4a7	Laboratory-confirmed COVID-19 cases in Alberta by zone, 2024-2025		Week	COVID-19 cases (n)					
htmlwidget-343e63f6628c3f8d39fa	Laboratory-confirmed COVID-19 cases in Alberta by zone, 2020-2021 to 2024-2025		Week	COVID-19 cases (n)					
htmlwidget-10421eb209a5156ff52a	Map of laboratory-confirmed COVID-19 case rates by zone compared to Alberta, 2024-2025	True							
htmlwidget-cc0da6b486a0cd4aa42c	Cumulative COVID-19 vaccine doses administered by week in Alberta, 2024-2025		{'text': 'Week', 'standoff': 10}	Influenza vaccine doses (n)					
htmlwidget-ac804724437c8d8c92d2	Cumulative COVID-19 vaccine doses administered by week in Alberta, 2024-2025		{'text': 'Week', 'standoff': 10}	Influenza vaccine doses (n)					
htmlwidget-d7e15fda21fc08d07d1d	Cumulative COVID-19 vaccine doses administered by week in Alberta, 2024-2025		{'text': 'Week', 'standoff': 10}	Influenza vaccine coverage (%)					
htmlwidget-e339ea941b33e1c4d105	Cumulative COVID-19 vaccine doses administered by week in Alberta, 2024-2025	True							
htmlwidget-2eb6663f7b22a58b61de	Cumulative COVID-19 vaccine doses administered by week in Alberta, 2024-2025		Number of events						
htmlwidget-dbf10eef36abdf3c53d4	Cumulative COVID-19 vaccine doses administered by week in Alberta, 2024-2025		Week	COVID-19 vaccine doses (n)					
htmlwidget-9d2265014bd6b9a4a6d6	COVID-19 vaccine doses administered by week in Alberta, 2024-2025		Week	COVID-19 vaccine doses (n)					
htmlwidget-45484ad5aa0ed293b784	COVID-19 vaccine coverage by week and age group in Alberta, 2024-2025		Week	COVID-19 vaccine coverage (%)					
htmlwidget-b2cec24271947cad6414	COVID-19 vaccine coverage rate by local geographic area, 2024-2025	True							
htmlwidget-8037776a37f24f459158	Number of adverse events following COVID-19 immunization (AEFI) by condition reported in Alberta, 2024-2025		Number of events						
htmlwidget-ff04ab2e68b1e2dd9ec8	Respiratory virus test positivity by week, 2024-2025		Week	Percent Positivity (%)					
htmlwidget-78051e6a8733a7366a83	Respiratory virus test positivity by week for the 2024-2025 season compared to historical trends		Week	Test Positivity (%)					
htmlwidget-fa929e9b30347b73a9ac	SARS-CoV-2 testing and positivity by week, 2020-2021 to 2024-2025		Week	Total tests (n)	Percent Positivity				
htmlwidget-490db8825c2cd8776a68	Influenza testing and positivity by week, 2020-2021 to 2024-2025		Week	Total tests (n)	Percent Positivity				
htmlwidget-83a7813293354c193b35	Respiratory syncytial virus testing and positivity by week, 2020-2021 to 2024-2025		Week	Total tests (n)	Percent Positivity				
htmlwidget-73a18126f6ac9a9bae52	Adenovirus testing and positivity by week, 2020-2021 to 2024-2025		Week	Total tests (n)	Percent Positivity				
htmlwidget-4fa16eff1c28e88196f6	Coronavirus testing and positivity by week, 2020-2021 to 2024-2025		Week	Total tests (n)	Percent Positivity				
htmlwidget-1dce837154d5f34b11dc	Rhinovirus/enterovirus testing and positivity by week, 2020-2021 to 2024-2025		Week	Total tests (n)	Percent Positivity				
htmlwidget-e6e16eda0866156f5d4d	Human metapneumovirus (hMPV) testing and positivity by week, 2020-2021 to 2024-2025		Week	Total tests (n)	Percent Positivity				
htmlwidget-0d39d6f511a4d9dcc22c	Parainfluenza testing and positivity by week, 2020-2021 to 2024-2025		Week	Total tests (n)	Percent Positivity				
htmlwidget-c5e2359269d7dc426d90	Number of respiratory virus outbreaks by week, 2020-2021 to 2024-2025		Date	Outbreaks (n)					
htmlwidget-29ec46b5b972b091148e	Total hospital admissions, ICU admissions, and deaths among laboratory-confirmed seasonal influenza cases in Alberta by age group, 2024-2025							Age Group	
htmlwidget-788197c2df09d2d76522	Number of weekly hospital admissions (ICU and non-ICU) and deaths due to laboratory-confirmed seasonal influenza, 2020-2021 to 2024-2025		Week	Hospitalization/ICU/Deaths (n)					
htmlwidget-92661500ff03749ddc9f	Total hospital admissions, ICU admissions, and deaths among laboratory-confirmed RSV cases in Alberta by age group, 2024-2025							Age Group	
htmlwidget-6efd0223538aaf472808	Number of weekly hospital admissions (ICU and non-ICU) and deaths due to laboratory-confirmed RSV, 2024-2025		Week	Hospitalization/ICU/Deaths (n)					
htmlwidget-879bf0b418c70028afe3	Total hospital admissions, ICU admissions, and deaths among laboratory-confirmed COVID-19 cases in Alberta by age group, 2024-2025							Age Group	
htmlwidget-e52c5fb92458f83bc159	Number of weekly hospital admissions (ICU and non-ICU) and deaths due to laboratory-confirmed COVID-19, 2020-2021 to 2024-2025		Week	Hospitalization/ICU/Deaths (n)					
htmlwidget-96092b0086af7650bbd7	Total weekly laboratory-confirmed seasonal influenza cases by subtype in Alberta, 2024-2025		Week	Influenza cases (n)					
htmlwidget-ffa9ff41724961b2b0aa	Total weekly laboratory-confirmed seasonal influenza cases by subtype in Alberta, 2020-2021 to 2024-2025		Week	Influenza cases (n)					
htmlwidget-3674a1018aef12acbb3d	Laboratory-confirmed seasonal influenza cases in Alberta since the 2009-2010 season		Week	Influenza cases (n)					
htmlwidget-228a0669524c0f64f146	Total weekly laboratory-confirmed RSV cases in Alberta, 2024-2025		Week	RSV cases (n)					
htmlwidget-2f84d0d0b4fcecb567e5	Total weekly laboratory-confirmed RSV cases in Alberta, 2020-2021 to 2024-2025		Week	RSV cases (n)					
htmlwidget-dcb6513049c7b3330696	Total weekly laboratory-confirmed COVID-19 cases in Alberta, 2024-2025		Week	COVID-19 cases (n)					
htmlwidget-a801a3d88a04f6b2ec9d	Proportion of whole genome sequenced COVID-19 variants by type (10 weeks).		Date Reported to Alberta Health	COVID-19 Sequencing Results (Percentage)					
htmlwidget-bbb6e619aea5e4f61df7	Population normalized quantity of SARS CoV-2 virus over time		Date	Normalized viral <br> copies per person					['Edmonton Zone', 'Edmonton Zone', 'Edmonton Zone', 'Edmonton Zone', 'Edmonton Zone', 'Edmonton Zone', 'Edmonton Zone', 'Edmonton Zone', 'Edmonton Zone', 'Edmonton Zone', 'Edmonton Zone', 'Edmonton Zone', 'Edmonton Zone', 'Edmonton Zone', 'Edmonton Zone', 'Edmonton Zone', 'Edmonton Zone', 'Edmonton Zone', 'Edmonton Zone', 'Edmonton Zone', 'Edmonton Zone', 'Edmonton Zone', 'Edmonton Zone', 'Edmonton Zone', 'Edmonton Zone', 'Edmonton Zone', 'Edmonton Zone', 'Edmonton Zone', 'Edmonton Zone', 'Edmonton Zone', 'Edmonton Zone', 'Edmonton Zone', 'Edmonton Zone', 'Edmonton Zone', 'Edmonton Zone', 'Edmonton Zone', 'Edmonton Zone', 'Edmonton Zone', 'Edmonton Zone', 'Edmonton Zone', 'Edmonton Zone', 'Edmonton Zone', 'Edmonton Zone', 'Edmonton Zone', 'Edmonton Zone', 'Edmonton Zone', 'Edmonton Zone', 'Edmonton Zone', 'Edmonton Zone', 'Edmonton Zone', 'Edmonton Zone', 'Edmonton Zone', 'Edmonton Zone', 'Edmonton Zone', 'Edmonton Zone', 'Edmonton Zone', 'Edmonton Zone', 'Edmonton Zone', 'Edmonton Zone', 'Edmonton Zone', 'Edmonton Zone', 'Edmonton Zone', 'Edmonton Zone', 'Edmonton Zone', 'Edmonton Zone', 'Edmonton Zone', 'Edmonton Zone', 'Edmonton Zone', 'Edmonton Zone', 'Edmonton Zone', 'Edmonton Zone', 'Edmonton Zone', 'Edmonton Zone', 'Edmonton Zone', 'Edmonton Zone', 'Edmonton Zone', 'Edmonton Zone', 'Edmonton Zone', 'Edmonton Zone', 'Edmonton Zone', 'Edmonton Zone', 'Edmonton Zone', 'Edmonton Zone', 'Edmonton Zone', 'Edmonton Zone', 'Edmonton Zone', 'Edmonton Zone', 'Edmonton Zone', 'Edmonton Zone', 'Edmonton Zone', 'Edmonton Zone', 'Edmonton Zone', 'Edmonton Zone', 'Edmonton Zone', 'Edmonton Zone', 'Edmonton Zone', 'Edmonton Zone', 'Edmonton Zone', 'Edmonton Zone', 'Edmonton Zone', 'Edmonton Zone', 'Edmonton Zone', 'Edmonton Zone', 'Edmonton Zone', 'Edmonton Zone', 'Edmonton Zone', 'Edmonton Zone', 'Edmonton Zone', 'Edmonton Zone', 'Edmonton Zone', 'Edmonton Zone', 'Edmonton Zone', 'Edmonton Zone', 'Edmonton Zone', 'Edmonton Zone', 'Edmonton Zone', 'Edmonton Zone', 'Edmonton Zone', 'Edmonton Zone', 'Calgary Zone', 'Calgary Zone', 'Calgary Zone', 'Calgary Zone', 'Calgary Zone', 'Calgary Zone', 'Calgary Zone', 'Calgary Zone', 'Calgary Zone', 'Calgary Zone', 'Calgary Zone', 'Calgary Zone', 'Calgary Zone', 'Calgary Zone', 'Calgary Zone', 'Calgary Zone', 'Calgary Zone', 'Calgary Zone', 'Calgary Zone', 'Calgary Zone', 'Calgary Zone', 'Calgary Zone', 'Calgary Zone', 'Calgary Zone', 'Calgary Zone', 'Calgary Zone', 'Calgary Zone', 'Calgary Zone', 'Calgary Zone', 'Calgary Zone', 'Calgary Zone', 'Calgary Zone', 'Calgary Zone', 'Calgary Zone', 'Calgary Zone', 'Calgary Zone', 'Calgary Zone', 'Calgary Zone', 'Calgary Zone', 'Calgary Zone', 'Calgary Zone', 'Calgary Zone', 'Calgary Zone', 'Calgary Zone', 'Calgary Zone', 'Calgary Zone', 'Calgary Zone', 'Calgary Zone', 'Calgary Zone', 'Calgary Zone', 'Calgary Zone', 'Calgary Zone', 'Calgary Zone', 'Calgary Zone', 'Calgary Zone', 'Calgary Zone', 'Calgary Zone', 'Calgary Zone', 'Calgary Zone', 'Calgary Zone', 'Calgary Zone', 'Calgary Zone', 'Calgary Zone', 'Calgary Zone', 'Calgary Zone', 'Calgary Zone', 'Calgary Zone', 'Calgary Zone', 'Calgary Zone', 'Calgary Zone', 'Calgary Zone', 'Calgary Zone', 'Calgary Zone', 'Calgary Zone', 'Calgary Zone', 'Calgary Zone', 'Calgary Zone', 'Calgary Zone', 'Calgary Zone', 'Calgary Zone', 'Calgary Zone', 'Calgary Zone', 'Calgary Zone', 'Calgary Zone', 'Calgary Zone', 'Calgary Zone', 'Calgary Zone', 'Calgary Zone', 'Calgary Zone', 'Calgary Zone', 'Calgary Zone', 'Calgary Zone', 'Calgary Zone', 'Calgary Zone', 'Calgary Zone', 'Calgary Zone', 'Calgary Zone', 'Calgary Zone', 'Calgary Zone', 'Calgary Zone', 'Calgary Zone', 'Calgary Zone', 'Calgary Zone', 'Calgary Zone', 'Calgary Zone', 'Calgary Zone', 'Calgary Zone', 'Calgary Zone', 'Calgary Zone', 'Calgary Zone', 'Calgary Zone', 'Calgary Zone', 'Calgary Zone', 'Calgary Zone', 'Calgary Zone', 'South Zone', 'South Zone', 'South Zone', 'South Zone', 'South Zone', 'South Zone', 'South Zone', 'South Zone', 'South Zone', 'South Zone', 'South Zone', 'South Zone', 'South Zone', 'South Zone', 'South Zone', 'South Zone', 'South Zone', 'South Zone', 'South Zone', 'South Zone', 'South Zone', 'South Zone', 'South Zone', 'South Zone', 'South Zone', 'South Zone', 'South Zone', 'South Zone', 'South Zone', 'South Zone', 'South Zone', 'South Zone', 'South Zone', 'South Zone', 'South Zone', 'South Zone', 'South Zone', 'South Zone', 'South Zone', 'South Zone', 'South Zone', 'South Zone', 'South Zone', 'South Zone', 'South Zone', 'South Zone', 'South Zone', 'South Zone', 'South Zone', 'South Zone', 'South Zone', 'South Zone', 'South Zone', 'South Zone', 'South Zone', 'South Zone', 'South Zone', 'South Zone', 'South Zone', 'South Zone', 'South Zone', 'South Zone', 'South Zone', 'South Zone', 'South Zone', 'South Zone', 'South Zone', 'South Zone', 'South Zone', 'South Zone', 'South Zone', 'South Zone', 'South Zone', 'South Zone', 'South Zone', 'South Zone', 'South Zone', 'South Zone', 'South Zone', 'South Zone', 'South Zone', 'South Zone', 'South Zone', 'South Zone', 'South Zone', 'South Zone', 'South Zone', 'South Zone', 'South Zone', 'South Zone', 'South Zone', 'South Zone', 'South Zone', 'South Zone', 'South Zone', 'South Zone', 'South Zone', 'South Zone', 'South Zone', 'South Zone', 'South Zone', 'South Zone', 'South Zone', 'South Zone', 'South Zone', 'South Zone', 'South Zone', 'North Zone', 'North Zone', 'North Zone', 'North Zone', 'North Zone', 'North Zone', 'North Zone', 'North Zone', 'North Zone', 'North Zone', 'North Zone', 'North Zone', 'North Zone', 'North Zone', 'North Zone', 'North Zone', 'North Zone', 'North Zone', 'North Zone', 'North Zone', 'North Zone', 'North Zone', 'North Zone', 'North Zone', 'North Zone', 'North Zone', 'North Zone', 'North Zone', 'North Zone', 'North Zone', 'North Zone', 'North Zone', 'North Zone', 'North Zone', 'North Zone', 'North Zone', 'North Zone', 'North Zone', 'North Zone', 'North Zone', 'North Zone', 'North Zone', 'North Zone', 'North Zone', 'North Zone', 'North Zone', 'North Zone', 'North Zone', 'North Zone', 'North Zone', 'North Zone', 'North Zone', 'North Zone', 'North Zone', 'North Zone', 'North Zone', 'North Zone', 'North Zone', 'North Zone', 'North Zone', 'North Zone', 'North Zone', 'North Zone', 'North Zone', 'North Zone', 'North Zone', 'North Zone', 'North Zone', 'North Zone', 'North Zone', 'North Zone', 'North Zone', 'North Zone', 'North Zone', 'North Zone', 'North Zone', 'North Zone', 'North Zone', 'North Zone', 'North Zone', 'North Zone', 'North Zone', 'North Zone', 'North Zone', 'North Zone', 'North Zone', 'North Zone', 'North Zone', 'North Zone', 'North Zone', 'North Zone', 'North Zone', 'North Zone', 'North Zone', 'North Zone', 'North Zone', 'North Zone', 'North Zone', 'North Zone', 'North Zone', 'North Zone', 'North Zone', 'North Zone', 'North Zone', 'North Zone', 'North Zone', 'North Zone', 'North Zone', 'North Zone', 'North Zone', 'North Zone', 'North Zone', 'North Zone', 'Edmonton Zone', 'Edmonton Zone', 'Edmonton Zone', 'Edmonton Zone', 'Edmonton Zone', 'Edmonton Zone', 'Edmonton Zone', 'Edmonton Zone', 'Edmonton Zone', 'Edmonton Zone', 'Edmonton Zone', 'Edmonton Zone', 'Edmonton Zone', 'Edmonton Zone', 'Edmonton Zone', 'Edmonton Zone', 'Edmonton Zone', 'Edmonton Zone', 'Edmonton Zone', 'Edmonton Zone', 'Edmonton Zone', 'Edmonton Zone', 'Edmonton Zone', 'Edmonton Zone', 'Edmonton Zone', 'Edmonton Zone', 'Edmonton Zone', 'Edmonton Zone', 'Edmonton Zone', 'Edmonton Zone', 'Edmonton Zone', 'Edmonton Zone', 'Edmonton Zone', 'Edmonton Zone', 'Edmonton Zone', 'Edmonton Zone', 'Edmonton Zone', 'Edmonton Zone', 'Edmonton Zone', 'Edmonton Zone', 'Edmonton Zone', 'Edmonton Zone', 'Edmonton Zone', 'Edmonton Zone', 'Edmonton Zone', 'Edmonton Zone', 'Edmonton Zone', 'Edmonton Zone', 'Edmonton Zone', 'Edmonton Zone', 'Edmonton Zone', 'Edmonton Zone', 'Edmonton Zone', 'Edmonton Zone', 'Edmonton Zone', 'Edmonton Zone', 'Edmonton Zone', 'Edmonton Zone', 'Edmonton Zone', 'Edmonton Zone', 'Edmonton Zone', 'Edmonton Zone', 'Edmonton Zone', 'Edmonton Zone', 'Edmonton Zone', 'Edmonton Zone', 'Edmonton Zone', 'Edmonton Zone', 'Edmonton Zone', 'Edmonton Zone', 'Edmonton Zone', 'Edmonton Zone', 'Edmonton Zone', 'Edmonton Zone', 'Edmonton Zone', 'Edmonton Zone', 'Edmonton Zone', 'Edmonton Zone', 'Edmonton Zone', 'Edmonton Zone', 'Edmonton Zone', 'Edmonton Zone', 'Edmonton Zone', 'Edmonton Zone', 'Edmonton Zone', 'Edmonton Zone', 'Edmonton Zone', 'Edmonton Zone', 'Edmonton Zone', 'Edmonton Zone', 'Edmonton Zone', 'Edmonton Zone', 'Edmonton Zone', 'Edmonton Zone', 'Edmonton Zone', 'Edmonton Zone', 'Edmonton Zone', 'Edmonton Zone', 'Edmonton Zone', 'Edmonton Zone', 'Edmonton Zone', 'Edmonton Zone', 'Edmonton Zone', 'Edmonton Zone', 'Edmonton Zone', 'Central Zone', 'Central Zone', 'Central Zone', 'Central Zone', 'Central Zone', 'Central Zone', 'Central Zone', 'Central Zone', 'Central Zone', 'Central Zone', 'Central Zone', 'Central Zone', 'Central Zone', 'Central Zone', 'Central Zone', 'Central Zone', 'Central Zone', 'Central Zone', 'Central Zone', 'Central Zone', 'Central Zone', 'Central Zone', 'Central Zone', 'Central Zone', 'Central Zone', 'Central Zone', 'Central Zone', 'Central Zone', 'Central Zone', 'Central Zone', 'Central Zone', 'Central Zone', 'Central Zone', 'Central Zone', 'Central Zone', 'Central Zone', 'Central Zone', 'Central Zone', 'Central Zone', 'Central Zone', 'Central Zone', 'Central Zone', 'Central Zone', 'Central Zone', 'Central Zone', 'Central Zone', 'Central Zone', 'Central Zone', 'Central Zone', 'Central Zone', 'Central Zone', 'Central Zone', 'Central Zone', 'Central Zone', 'Central Zone', 'Central Zone', 'Central Zone', 'Central Zone', 'Central Zone', 'Central Zone', 'Central Zone', 'Central Zone', 'Central Zone', 'Central Zone', 'Central Zone', 'Central Zone', 'Central Zone', 'Central Zone', 'Central Zone', 'Central Zone', 'Central Zone', 'Central Zone', 'Central Zone', 'Central Zone', 'Central Zone', 'Central Zone', 'Central Zone', 'Central Zone', 'Central Zone', 'Central Zone', 'Central Zone', 'Central Zone', 'Central Zone', 'Central Zone', 'Central Zone', 'Central Zone', 'Central Zone', 'Central Zone', 'Central Zone', 'Central Zone', 'Central Zone', 'Central Zone', 'Central Zone', 'Central Zone', 'Central Zone', 'Central Zone', 'Central Zone', 'Central Zone', 'Central Zone', 'Central Zone', 'Central Zone', 'Central Zone', 'Central Zone', 'Central Zone', 'Central Zone', 'Central Zone', 'Central Zone', 'South Zone', 'South Zone', 'South Zone', 'South Zone', 'South Zone', 'South Zone', 'South Zone', 'South Zone', 'South Zone', 'South Zone', 'South Zone', 'South Zone', 'South Zone', 'South Zone', 'South Zone', 'South Zone', 'South Zone', 'South Zone', 'South Zone', 'South Zone', 'South Zone', 'South Zone', 'South Zone', 'South Zone', 'South Zone', 'South Zone', 'South Zone', 'South Zone', 'South Zone', 'South Zone', 'South Zone', 'South Zone', 'South Zone', 'South Zone', 'South Zone', 'South Zone', 'South Zone', 'South Zone', 'South Zone', 'South Zone', 'South Zone', 'South Zone', 'South Zone', 'South Zone', 'South Zone', 'South Zone', 'South Zone', 'South Zone', 'South Zone', 'South Zone', 'South Zone', 'South Zone', 'South Zone', 'South Zone', 'South Zone', 'South Zone', 'South Zone', 'South Zone', 'South Zone', 'South Zone', 'South Zone', 'South Zone', 'South Zone', 'South Zone', 'South Zone', 'South Zone', 'South Zone', 'South Zone', 'South Zone', 'South Zone', 'South Zone', 'South Zone', 'South Zone', 'South Zone', 'South Zone', 'South Zone', 'South Zone', 'South Zone', 'South Zone', 'South Zone', 'South Zone', 'South Zone', 'South Zone', 'South Zone', 'South Zone', 'South Zone', 'South Zone', 'South Zone', 'South Zone', 'South Zone', 'South Zone', 'South Zone', 'South Zone', 'South Zone', 'South Zone', 'South Zone', 'South Zone', 'South Zone', 'South Zone', 'South Zone', 'South Zone', 'South Zone', 'South Zone', 'South Zone', 'South Zone', 'South Zone', 'South Zone', 'South Zone', 'South Zone', 'South Zone', 'South Zone', 'North Zone', 'North Zone', 'North Zone', 'North Zone', 'North Zone', 'North Zone', 'North Zone', 'North Zone', 'North Zone', 'North Zone', 'North Zone', 'North Zone', 'North Zone', 'North Zone', 'North Zone', 'North Zone', 'North Zone', 'North Zone', 'North Zone', 'North Zone', 'North Zone', 'North Zone', 'North Zone', 'North Zone', 'North Zone', 'North Zone', 'North Zone', 'North Zone', 'North Zone', 'North Zone', 'North Zone', 'North Zone', 'North Zone', 'North Zone', 'North Zone', 'North Zone', 'North Zone', 'North Zone', 'North Zone', 'North Zone', 'North Zone', 'North Zone', 'North Zone', 'North Zone', 'North Zone', 'North Zone', 'North Zone', 'North Zone', 'North Zone', 'North Zone', 'North Zone', 'North Zone', 'North Zone', 'North Zone', 'North Zone', 'North Zone', 'North Zone', 'North Zone', 'North Zone', 'North Zone', 'North Zone', 'North Zone', 'North Zone', 'North Zone', 'North Zone', 'North Zone', 'North Zone', 'North Zone', 'North Zone', 'North Zone', 'North Zone', 'North Zone', 'North Zone', 'North Zone', 'North Zone', 'North Zone', 'North Zone', 'North Zone', 'North Zone', 'North Zone', 'North Zone', 'North Zone', 'North Zone', 'North Zone', 'North Zone', 'North Zone', 'North Zone', 'North Zone', 'North Zone', 'North Zone', 'North Zone', 'North Zone', 'North Zone', 'North Zone', 'North Zone', 'North Zone', 'North Zone', 'North Zone', 'North Zone', 'North Zone', 'North Zone', 'North Zone', 'North Zone', 'North Zone', 'North Zone', 'North Zone', 'North Zone', 'North Zone', 'North Zone', 'North Zone', 'North Zone', 'North Zone', 'North Zone', 'North Zone', 'North Zone', 'North Zone', 'North Zone', 'North Zone', 'North Zone', 'North Zone', 'North Zone', 'North Zone', 'North Zone', 'North Zone', 'North Zone', 'North Zone', 'North Zone', 'North Zone', 'North Zone', 'North Zone', 'North Zone', 'North Zone', 'North Zone', 'North Zone', 'North Zone', 'North Zone', 'North Zone', 'North Zone', 'North Zone', 'North Zone', 'North Zone', 'North Zone', 'North Zone', 'North Zone', 'North Zone', 'North Zone', 'North Zone', 'North Zone', 'North Zone', 'North Zone', 'North Zone', 'North Zone', 'North Zone', 'North Zone', 'North Zone', 'North Zone', 'North Zone', 'North Zone', 'North Zone', 'North Zone', 'North Zone', 'North Zone', 'North Zone', 'North Zone', 'North Zone', 'North Zone', 'North Zone', 'North Zone', 'North Zone', 'North Zone', 'North Zone', 'North Zone', 'North Zone', 'North Zone', 'North Zone', 'North Zone', 'North Zone', 'North Zone', 'North Zone', 'North Zone', 'North Zone', 'North Zone', 'North Zone', 'North Zone', 'North Zone', 'North Zone', 'North Zone', 'North Zone', 'North Zone', 'North Zone', 'North Zone', 'North Zone', 'North Zone', 'North Zone', 'North Zone', 'North Zone', 'North Zone', 'North Zone', 'North Zone', 'North Zone', 'Calgary Zone', 'Calgary Zone', 'Calgary Zone', 'Calgary Zone', 'Calgary Zone', 'Calgary Zone', 'Calgary Zone', 'Calgary Zone', 'Calgary Zone', 'Calgary Zone', 'Calgary Zone', 'Calgary Zone', 'Calgary Zone', 'Calgary Zone', 'Calgary Zone', 'Calgary Zone', 'Calgary Zone', 'Calgary Zone', 'Calgary Zone', 'Calgary Zone', 'Calgary Zone', 'Calgary Zone', 'Calgary Zone', 'Calgary Zone', 'Calgary Zone', 'Calgary Zone', 'Calgary Zone', 'Calgary Zone', 'Calgary Zone', 'Calgary Zone', 'Calgary Zone', 'Calgary Zone', 'Calgary Zone', 'Calgary Zone', 'Calgary Zone', 'Calgary Zone', 'Calgary Zone', 'Calgary Zone', 'Calgary Zone', 'Calgary Zone', 'Calgary Zone', 'Calgary Zone', 'Calgary Zone', 'Calgary Zone', 'Calgary Zone', 'Calgary Zone', 'Calgary Zone', 'Calgary Zone', 'Calgary Zone', 'Calgary Zone', 'Calgary Zone', 'Calgary Zone', 'Calgary Zone', 'Calgary Zone', 'Calgary Zone', 'Calgary Zone', 'Calgary Zone', 'Calgary Zone', 'Calgary Zone', 'Calgary Zone', 'Calgary Zone', 'Calgary Zone', 'Calgary Zone', 'Calgary Zone', 'Calgary Zone', 'Calgary Zone', 'Calgary Zone', 'Calgary Zone', 'Calgary Zone', 'Calgary Zone', 'Calgary Zone', 'Calgary Zone', 'Calgary Zone', 'Calgary Zone', 'Calgary Zone', 'Calgary Zone', 'Calgary Zone', 'Calgary Zone', 'Calgary Zone', 'Calgary Zone', 'Calgary Zone', 'Calgary Zone', 'Calgary Zone', 'Calgary Zone', 'Calgary Zone', 'Calgary Zone', 'Calgary Zone', 'Calgary Zone', 'Calgary Zone', 'Calgary Zone', 'Calgary Zone', 'Calgary Zone', 'Calgary Zone', 'Calgary Zone', 'Calgary Zone', 'Calgary Zone', 'Calgary Zone', 'Calgary Zone', 'Calgary Zone', 'Calgary Zone', 'Calgary Zone', 'Calgary Zone', 'Calgary Zone', 'Calgary Zone', 'Calgary Zone', 'Calgary Zone', 'Calgary Zone', 'Calgary Zone', 'Calgary Zone', 'Calgary Zone', 'Calgary Zone', 'Calgary Zone', 'Calgary Zone', 'Calgary Zone', 'Calgary Zone', 'Calgary Zone', 'Calgary Zone', 'Calgary Zone', 'Calgary Zone', 'Calgary Zone', 'Calgary Zone', 'Calgary Zone', 'Calgary Zone', 'Calgary Zone', 'Calgary Zone', 'Calgary Zone', 'Calgary Zone', 'Calgary Zone', 'Calgary Zone', 'Calgary Zone', 'Calgary Zone', 'Calgary Zone', 'Calgary Zone', 'Calgary Zone', 'Calgary Zone', 'Calgary Zone', 'Calgary Zone', 'Calgary Zone', 'Calgary Zone', 'Calgary Zone', 'Calgary Zone', 'Calgary Zone', 'Calgary Zone', 'Calgary Zone', 'Calgary Zone', 'Calgary Zone', 'Calgary Zone', 'Calgary Zone', 'Calgary Zone', 'Calgary Zone', 'Calgary Zone', 'Calgary Zone']
