file	figure	geographic	xaxis	yaxis	yaxis2	xaxis2	xaxis3	yaxis3	legend
htmlwidget-31795c7287fd3ae4eca1	Laboratory-confirmed influenza by age group, 2023-2024		Age group	Rate (per 100,000 population)					
htmlwidget-324b4c19b3c14b1fe96a	Laboratory-confirmed COVID-19 by age group, 2023-2024		Age group	Rate (per 100,000 population)					
htmlwidget-d230dcb2201de2fdc358	Laboratory confirmed seasonal influenza cases in Alberta by zone, 2023-2024		Week	Influenza cases (n)					
htmlwidget-a7652ee8e3732df100c0	Laboratory confirmed seasonal influenza cases in Alberta by zone, 2019-2020 to 2023-2024		Week	Influenza cases (n)					
htmlwidget-b63365a269148ace8d66	Map of laboratory-confirmed seasonal influenza case rates by Zone compared to Alberta, 2023-2024	True							
htmlwidget-a50c93b8cc99453ff353	Laboratory confirmed COVID-19 cases in Alberta by zone, 2023-2024		Week	COVID-19 cases (n)					
htmlwidget-3caa061a2ccacb7d55ea	Laboratory confirmed COVID-19 cases in Alberta by zone, 2019-2020 to 2023-2024		Week	COVID-19 cases (n)					
htmlwidget-1e4a3dd2cda7e83122c7	Map of laboratory-confirmed COVID-19 case rates by Zone compared to Alberta, 2023-2024	True							
htmlwidget-7c5b24ac77fd7998d405	Cumulative COVID-19 vaccine doses administered by week in Alberta, 2023-2024		Weeks since campaign start	Influenza vaccine doses (n)					
htmlwidget-d3dd1ce0301b9b6b107c	Cumulative COVID-19 vaccine doses administered by week in Alberta, 2023-2024		Weeks since campaign start	Influenza vaccine doses (n)					
htmlwidget-5f5e191cb1e0590e7bcc	Cumulative COVID-19 vaccine doses administered by week in Alberta, 2023-2024		Weeks since campaign start	Influenza vaccine coverage (%)					
htmlwidget-982b663802573f555c58	Cumulative COVID-19 vaccine doses administered by week in Alberta, 2023-2024	True							
htmlwidget-a31303794a7e950e6b52	Cumulative COVID-19 vaccine doses administered by week in Alberta, 2023-2024		Number of events						
htmlwidget-d34adf97dd483f1a2009	Cumulative COVID-19 vaccine doses administered by week in Alberta, 2023-2024		Week	COVID-19 vaccine doses (n)					
htmlwidget-20a936f5551054415185	COVID-19 vaccine doses administered by week in Alberta, 2023-2024		Week	COVID-19 vaccine doses (n)					
htmlwidget-10294877a72828856ff2	COVID-19 vaccine coverage by week and age group in Alberta, 2023-2024		Week	COVID-19 vaccine coverage (%)					
htmlwidget-dbf81dec4dfa9126622a	COVID-19 vaccine coverage rate by local geographic area, 2023-2024	True							
htmlwidget-65137e52e6f4f6926248	Number of adverse events following COVID-19 immunization (AEFI) by condition reported in Alberta, 2023-2024		Number of events (n)						
htmlwidget-a8b2a405b9880848cb70	Respiratory virus test positivity by week, 2023-2024		Week	Percent Positivity (%)					
htmlwidget-01f49666a7d2e3c85ee9	Respiratory virus test positivity by week for the 2023-2024 season compared to historical trends		Week	Test Positivity (%)					
htmlwidget-be35c8f2de644c460bbb	SARS-CoV-2 testing and positivity by week, 2019-2020 to 2023-2024		Week	Total tests (n)	Percent Positivity				
htmlwidget-2eb9bd134eaddc67d424	Influenza testing and positivity by week, 2019-2020 to 2023-2024		Week	Total tests (n)	Percent Positivity				
htmlwidget-6e85e36936d9d0d983b9	Respiratory syncytial virus testing and positivity by week, 2019-2020 to 2023-2024		Week	Total tests (n)	Percent Positivity				
htmlwidget-4ad42759b2d333d3575e	Adenovirus testing and positivity by week, 2019-2020 to 2023-2024		Week	Total tests (n)	Percent Positivity				
htmlwidget-179e48deaa8ea962a391	Coronavirus testing and positivity by week, 2019-2020 to 2023-2024		Week	Total tests (n)	Percent Positivity				
htmlwidget-898b93a6291319634070	Rhinovirus/enterovirus testing and positivity by week, 2019-2020 to 2023-2024		Week	Total tests (n)	Percent Positivity				
htmlwidget-0d288ae7526b5bc82581	Human metapneumovirus (hMPV) testing and positivity by week, 2019-2020 to 2023-2024		Week	Total tests (n)	Percent Positivity				
htmlwidget-96ad57df775bcff81941	Parainfluenza testing and positivity by week, 2019-2020 to 2023-2024		Week	Total tests (n)	Percent Positivity				
htmlwidget-ea352f45ace56f621738	Number of respiratory virus outbreaks by week, 2019-2020 to 2023-2024		Date	Outbreaks (n)					
htmlwidget-0b58a9760247cfd693cf	Total hospital admissions, ICU admissions, and deaths among laboratory-confirmed seasonal influenza cases in Alberta by age group, 2023-2024							Age Group	
htmlwidget-c70432b129ee2d22e83f	Number of weekly hospital admissions (ICU and non-ICU) and deaths due to laboratory-confirmed seasonal influenza, 2019-2020 to 2023-2024		Week	Hospitalization/ICU/Deaths (n)					
htmlwidget-a1713820efd524aa1415	Total hospital admissions, ICU admissions, and deaths among COVID-19 cases in Alberta by age group, 2023-2024							Age Group	
htmlwidget-b11d600c5ce28bfe717f	Number of weekly hospital admissions (ICU and non-ICU) and deaths due to COVID-19		Week	Hospitalization/ICU/Deaths (n)					
htmlwidget-8505397a9d326b44233a	Total weekly laboratory-confirmed seasonal influenza cases by subtype in Alberta, 2023-2024		Week	Influenza cases (n)					
htmlwidget-1edabf6e1f0c2280a77c	Total weekly laboratory-confirmed seasonal influenza cases by subtype in Alberta, 2019-2020 to 2023-2024		Week	Influenza cases (n)					
htmlwidget-f531f686cdd59c1a2dc1	Laboratory-confirmed seasonal influenza cases in Alberta since the 2009-2010 season		Week	Influenza cases (n)					
htmlwidget-0f1e59349342d653e63d	Total weekly laboratory-confirmed RSV cases in Alberta, 2023-2024		Week	RSV cases (n)					
htmlwidget-f884665af1c7f63525e7	Total weekly laboratory-confirmed RSV cases in Alberta, 2019-2020 to 2023-2024		Week	RSV cases (n)					
htmlwidget-4e39013ce14319128257	Total weekly laboratory-confirmed COVID-19 cases in Alberta, 2023-2024		Week	COVID-19 cases (n)					
htmlwidget-7a3d6040dbe43e8b0d17	Proportion of whole genome sequenced COVID-19 variants by type (10 weeks).		Date Reported to Alberta Health	COVID-19 Sequencing Results (Percentage)					
htmlwidget-6d00fd5500a402f8941f	Population normalized quantity of SARS CoV-2 virus over time		Date	Normalized viral <br> copies per person					['Calgary Zone', 'Calgary Zone', 'Calgary Zone', 'Calgary Zone', 'Calgary Zone', 'Calgary Zone', 'Calgary Zone', 'Calgary Zone', 'Calgary Zone', 'Calgary Zone', 'Calgary Zone', 'Calgary Zone', 'Calgary Zone', 'Calgary Zone', 'Calgary Zone', 'Calgary Zone', 'Calgary Zone', 'Calgary Zone', 'Calgary Zone', 'Calgary Zone', 'Calgary Zone', 'Calgary Zone', 'Calgary Zone', 'Calgary Zone', 'Calgary Zone', 'Calgary Zone', 'Calgary Zone', 'Calgary Zone', 'Calgary Zone', 'Calgary Zone', 'Calgary Zone', 'Calgary Zone', 'Calgary Zone', 'Calgary Zone', 'Calgary Zone', 'Calgary Zone', 'Calgary Zone', 'Calgary Zone', 'Calgary Zone', 'Calgary Zone', 'Calgary Zone', 'Calgary Zone', 'Calgary Zone', 'Calgary Zone', 'Calgary Zone', 'Calgary Zone', 'Calgary Zone', 'Calgary Zone', 'Calgary Zone', 'Calgary Zone', 'Calgary Zone', 'Calgary Zone', 'Calgary Zone', 'Calgary Zone', 'Calgary Zone', 'Calgary Zone', 'Calgary Zone', 'Calgary Zone', 'Calgary Zone', 'Calgary Zone', 'Calgary Zone', 'Calgary Zone', 'Calgary Zone', 'Calgary Zone', 'Calgary Zone', 'Calgary Zone', 'Calgary Zone', 'Calgary Zone', 'Calgary Zone', 'Calgary Zone', 'Calgary Zone', 'Calgary Zone', 'Calgary Zone', 'Calgary Zone', 'Calgary Zone', 'Calgary Zone', 'Calgary Zone', 'Calgary Zone', 'Calgary Zone', 'Calgary Zone', 'Calgary Zone', 'Calgary Zone', 'Calgary Zone', 'Calgary Zone', 'Calgary Zone', 'Calgary Zone', 'Calgary Zone', 'Calgary Zone', 'Calgary Zone', 'Calgary Zone', 'Calgary Zone', 'Calgary Zone', 'Calgary Zone', 'Calgary Zone', 'Calgary Zone', 'Calgary Zone', 'Calgary Zone', 'Calgary Zone', 'Calgary Zone', 'Calgary Zone', 'Calgary Zone', 'Calgary Zone', 'Calgary Zone', 'Calgary Zone', 'Calgary Zone', 'Calgary Zone', 'Calgary Zone', 'Calgary Zone', 'Calgary Zone', 'Calgary Zone', 'Calgary Zone', 'Calgary Zone', 'Calgary Zone', 'Calgary Zone', 'Calgary Zone', 'Calgary Zone', 'Calgary Zone', 'Calgary Zone', 'Calgary Zone', 'Calgary Zone', 'Calgary Zone', 'Calgary Zone', 'Calgary Zone', 'Calgary Zone', 'Calgary Zone', 'Calgary Zone', 'Calgary Zone', 'Calgary Zone', 'Calgary Zone', 'Calgary Zone', 'Calgary Zone', 'Calgary Zone', 'Calgary Zone', 'Calgary Zone', 'Calgary Zone', 'Calgary Zone', 'Calgary Zone', 'Calgary Zone', 'Calgary Zone', 'Calgary Zone', 'Calgary Zone', 'Calgary Zone', 'Calgary Zone', 'Calgary Zone', 'Calgary Zone', 'Calgary Zone', 'Calgary Zone', 'Calgary Zone', 'Calgary Zone', 'Calgary Zone', 'Calgary Zone', 'Calgary Zone', 'Calgary Zone', 'Calgary Zone', 'Calgary Zone', 'Calgary Zone', 'Calgary Zone', 'Calgary Zone', 'Calgary Zone', 'Calgary Zone', 'Calgary Zone', 'Calgary Zone', 'Calgary Zone', 'Calgary Zone', 'Calgary Zone', 'Calgary Zone', 'Calgary Zone', 'Calgary Zone', 'Calgary Zone', 'Calgary Zone', 'Calgary Zone', 'Calgary Zone', 'Calgary Zone', 'Calgary Zone', 'Calgary Zone', 'Calgary Zone', 'Calgary Zone', 'Calgary Zone', 'Calgary Zone', 'Calgary Zone', 'Calgary Zone', 'Calgary Zone', 'Calgary Zone', 'Calgary Zone', 'Calgary Zone', 'Calgary Zone', 'Calgary Zone', 'Calgary Zone', 'Edmonton Zone', 'Edmonton Zone', 'Edmonton Zone', 'Edmonton Zone', 'Edmonton Zone', 'Edmonton Zone', 'Edmonton Zone', 'Edmonton Zone', 'Edmonton Zone', 'Edmonton Zone', 'Edmonton Zone', 'Edmonton Zone', 'Edmonton Zone', 'Edmonton Zone', 'Edmonton Zone', 'Edmonton Zone', 'Edmonton Zone', 'Edmonton Zone', 'Edmonton Zone', 'Edmonton Zone', 'Edmonton Zone', 'Edmonton Zone', 'Edmonton Zone', 'Edmonton Zone', 'Edmonton Zone', 'Edmonton Zone', 'Edmonton Zone', 'Edmonton Zone', 'Edmonton Zone', 'Edmonton Zone', 'Edmonton Zone', 'Edmonton Zone', 'Edmonton Zone', 'Edmonton Zone', 'Edmonton Zone', 'Edmonton Zone', 'Edmonton Zone', 'Edmonton Zone', 'Edmonton Zone', 'Edmonton Zone', 'Edmonton Zone', 'Edmonton Zone', 'Edmonton Zone', 'Edmonton Zone', 'Edmonton Zone', 'Edmonton Zone', 'Edmonton Zone', 'Edmonton Zone', 'Edmonton Zone', 'Edmonton Zone', 'Edmonton Zone', 'Edmonton Zone', 'Edmonton Zone', 'Edmonton Zone', 'Edmonton Zone', 'Edmonton Zone', 'Edmonton Zone', 'Edmonton Zone', 'Edmonton Zone', 'Edmonton Zone', 'Edmonton Zone', 'Edmonton Zone', 'Edmonton Zone', 'Edmonton Zone', 'Edmonton Zone', 'Edmonton Zone', 'Edmonton Zone', 'Edmonton Zone', 'Edmonton Zone', 'Edmonton Zone', 'Edmonton Zone', 'Edmonton Zone', 'Edmonton Zone', 'Edmonton Zone', 'Edmonton Zone', 'Edmonton Zone', 'Edmonton Zone', 'Edmonton Zone', 'Edmonton Zone', 'Edmonton Zone', 'North Zone', 'North Zone', 'North Zone', 'North Zone', 'North Zone', 'North Zone', 'North Zone', 'North Zone', 'North Zone', 'North Zone', 'North Zone', 'North Zone', 'North Zone', 'North Zone', 'North Zone', 'North Zone', 'North Zone', 'North Zone', 'North Zone', 'North Zone', 'North Zone', 'North Zone', 'North Zone', 'North Zone', 'North Zone', 'North Zone', 'North Zone', 'North Zone', 'North Zone', 'North Zone', 'North Zone', 'North Zone', 'North Zone', 'North Zone', 'North Zone', 'North Zone', 'North Zone', 'North Zone', 'North Zone', 'North Zone', 'North Zone', 'North Zone', 'North Zone', 'North Zone', 'North Zone', 'North Zone', 'North Zone', 'North Zone', 'North Zone', 'North Zone', 'North Zone', 'North Zone', 'North Zone', 'North Zone', 'North Zone', 'North Zone', 'North Zone', 'North Zone', 'North Zone', 'North Zone', 'North Zone', 'North Zone', 'North Zone', 'North Zone', 'North Zone', 'North Zone', 'North Zone', 'North Zone', 'North Zone', 'North Zone', 'North Zone', 'North Zone', 'North Zone', 'North Zone', 'North Zone', 'Edmonton Zone', 'Edmonton Zone', 'Edmonton Zone', 'Edmonton Zone', 'Edmonton Zone', 'Edmonton Zone', 'Edmonton Zone', 'Edmonton Zone', 'Edmonton Zone', 'Edmonton Zone', 'Edmonton Zone', 'Edmonton Zone', 'Edmonton Zone', 'Edmonton Zone', 'Edmonton Zone', 'Edmonton Zone', 'Edmonton Zone', 'Edmonton Zone', 'Edmonton Zone', 'Edmonton Zone', 'Edmonton Zone', 'Edmonton Zone', 'Edmonton Zone', 'Edmonton Zone', 'Edmonton Zone', 'Edmonton Zone', 'Edmonton Zone', 'Edmonton Zone', 'Edmonton Zone', 'Edmonton Zone', 'Edmonton Zone', 'Edmonton Zone', 'Edmonton Zone', 'Edmonton Zone', 'Edmonton Zone', 'Edmonton Zone', 'Edmonton Zone', 'Edmonton Zone', 'Edmonton Zone', 'Edmonton Zone', 'Edmonton Zone', 'Edmonton Zone', 'Edmonton Zone', 'Edmonton Zone', 'Edmonton Zone', 'Edmonton Zone', 'Edmonton Zone', 'Edmonton Zone', 'Edmonton Zone', 'Edmonton Zone', 'Edmonton Zone', 'Edmonton Zone', 'Edmonton Zone', 'Edmonton Zone', 'Edmonton Zone', 'Edmonton Zone', 'Edmonton Zone', 'Edmonton Zone', 'Edmonton Zone', 'Edmonton Zone', 'Edmonton Zone', 'Edmonton Zone', 'Edmonton Zone', 'Edmonton Zone', 'Edmonton Zone', 'Edmonton Zone', 'Edmonton Zone', 'Edmonton Zone', 'Edmonton Zone', 'Edmonton Zone', 'Edmonton Zone', 'Edmonton Zone', 'Edmonton Zone', 'North Zone', 'North Zone', 'North Zone', 'North Zone', 'North Zone', 'North Zone', 'North Zone', 'North Zone', 'North Zone', 'North Zone', 'North Zone', 'North Zone', 'North Zone', 'North Zone', 'North Zone', 'North Zone', 'North Zone', 'North Zone', 'North Zone', 'North Zone', 'North Zone', 'North Zone', 'North Zone', 'North Zone', 'North Zone', 'North Zone', 'North Zone', 'North Zone', 'North Zone', 'North Zone', 'North Zone', 'North Zone', 'North Zone', 'North Zone', 'North Zone', 'North Zone', 'North Zone', 'North Zone', 'North Zone', 'North Zone', 'North Zone', 'North Zone', 'North Zone', 'North Zone', 'North Zone', 'North Zone', 'North Zone', 'North Zone', 'North Zone', 'North Zone', 'North Zone', 'North Zone', 'North Zone', 'North Zone', 'North Zone', 'North Zone', 'North Zone', 'North Zone', 'North Zone', 'North Zone', 'North Zone', 'North Zone', 'North Zone', 'North Zone', 'North Zone', 'North Zone', 'North Zone', 'North Zone', 'North Zone', 'North Zone', 'North Zone', 'North Zone', 'North Zone', 'North Zone', 'North Zone', 'North Zone', 'North Zone', 'North Zone', 'North Zone', 'North Zone', 'North Zone', 'North Zone', 'North Zone', 'North Zone', 'North Zone', 'North Zone', 'North Zone', 'North Zone', 'North Zone', 'North Zone', 'North Zone', 'North Zone', 'North Zone', 'North Zone', 'North Zone', 'North Zone', 'North Zone', 'North Zone', 'North Zone', 'North Zone', 'North Zone', 'North Zone', 'North Zone', 'North Zone', 'North Zone', 'North Zone', 'North Zone', 'North Zone', 'North Zone', 'North Zone', 'North Zone', 'North Zone', 'North Zone', 'North Zone', 'North Zone', 'North Zone', 'North Zone', 'North Zone', 'North Zone', 'North Zone', 'North Zone', 'North Zone', 'North Zone', 'North Zone', 'North Zone', 'North Zone', 'North Zone', 'North Zone', 'North Zone', 'North Zone', 'North Zone', 'North Zone', 'North Zone', 'North Zone', 'North Zone', 'North Zone', 'North Zone', 'North Zone', 'North Zone', 'North Zone', 'North Zone', 'North Zone', 'North Zone', 'North Zone', 'North Zone', 'North Zone', 'North Zone', 'North Zone', 'South Zone', 'South Zone', 'South Zone', 'South Zone', 'South Zone', 'South Zone', 'South Zone', 'South Zone', 'South Zone', 'South Zone', 'South Zone', 'South Zone', 'South Zone', 'South Zone', 'South Zone', 'South Zone', 'South Zone', 'South Zone', 'South Zone', 'South Zone', 'South Zone', 'South Zone', 'South Zone', 'South Zone', 'South Zone', 'South Zone', 'South Zone', 'South Zone', 'South Zone', 'South Zone', 'South Zone', 'South Zone', 'South Zone', 'South Zone', 'South Zone', 'South Zone', 'South Zone', 'South Zone', 'South Zone', 'South Zone', 'South Zone', 'South Zone', 'South Zone', 'South Zone', 'South Zone', 'South Zone', 'South Zone', 'South Zone', 'South Zone', 'South Zone', 'South Zone', 'South Zone', 'South Zone', 'South Zone', 'South Zone', 'South Zone', 'South Zone', 'South Zone', 'South Zone', 'South Zone', 'South Zone', 'South Zone', 'South Zone', 'South Zone', 'South Zone', 'South Zone', 'South Zone', 'South Zone', 'South Zone', 'South Zone', 'South Zone', 'South Zone', 'South Zone', 'South Zone', 'South Zone', 'South Zone', 'South Zone', 'South Zone', 'South Zone', 'South Zone', 'South Zone', 'South Zone', 'South Zone', 'South Zone', 'South Zone', 'South Zone', 'South Zone', 'South Zone', 'South Zone', 'South Zone', 'South Zone', 'South Zone', 'South Zone', 'South Zone', 'South Zone', 'South Zone', 'South Zone', 'South Zone', 'South Zone', 'South Zone', 'South Zone', 'South Zone', 'South Zone', 'South Zone', 'South Zone', 'South Zone', 'South Zone', 'South Zone', 'South Zone', 'South Zone', 'South Zone', 'South Zone', 'South Zone', 'South Zone', 'South Zone', 'South Zone', 'South Zone', 'South Zone', 'South Zone', 'South Zone', 'South Zone', 'South Zone', 'South Zone', 'South Zone', 'South Zone', 'South Zone', 'South Zone', 'South Zone', 'South Zone', 'South Zone', 'South Zone', 'South Zone', 'South Zone', 'South Zone', 'South Zone', 'South Zone', 'South Zone', 'South Zone', 'South Zone', 'South Zone', 'South Zone', 'South Zone', 'South Zone', 'South Zone', 'South Zone', 'South Zone', 'South Zone', 'South Zone', 'South Zone', 'South Zone', 'South Zone', 'South Zone', 'South Zone', 'South Zone', 'South Zone', 'South Zone', 'Central Zone', 'Central Zone', 'Central Zone', 'Central Zone', 'Central Zone', 'Central Zone', 'Central Zone', 'Central Zone', 'Central Zone', 'Central Zone', 'Central Zone', 'Central Zone', 'Central Zone', 'Central Zone', 'Central Zone', 'Central Zone', 'Central Zone', 'Central Zone', 'Central Zone', 'Central Zone', 'Central Zone', 'Central Zone', 'Central Zone', 'Central Zone', 'Central Zone', 'Central Zone', 'Central Zone', 'Central Zone', 'Central Zone', 'Central Zone', 'Central Zone', 'Central Zone', 'Central Zone', 'Central Zone', 'Central Zone', 'Central Zone', 'Central Zone', 'Central Zone', 'Central Zone', 'Central Zone', 'Central Zone', 'Central Zone', 'Central Zone', 'Central Zone', 'Central Zone', 'Central Zone', 'Central Zone', 'Central Zone', 'Central Zone', 'Central Zone', 'Central Zone', 'Central Zone', 'Central Zone', 'Central Zone', 'Central Zone', 'Central Zone', 'Central Zone', 'Central Zone', 'Central Zone', 'Central Zone', 'Central Zone', 'Central Zone', 'Central Zone', 'Central Zone', 'Central Zone', 'Central Zone', 'Central Zone', 'Central Zone', 'Central Zone', 'Central Zone', 'Central Zone', 'Central Zone', 'Central Zone', 'Central Zone', 'Central Zone', 'Central Zone']
