file	figure	geographic	xaxis	yaxis	yaxis2	xaxis2	xaxis3	yaxis3	legend
htmlwidget-2ab1be18a1fb81616304	Laboratory-confirmed seasonal influenza by age group, 2024-2025		Age group	Rate (per 100,000 population)					
htmlwidget-348ead66c4d9231e861b	Laboratory-confirmed RSV by age group, 2024-2025		Age group	Rate (per 100,000 population)					
htmlwidget-b08791eeb58e4bbca347	Laboratory-confirmed COVID-19 by age group, 2024-2025		Age group	Rate (per 100,000 population)					
htmlwidget-5633e6d00825d2152315	Laboratory-confirmed seasonal influenza cases in Alberta by zone, 2024-2025		Week	Influenza cases (n)					
htmlwidget-292a4b618bf9d90391fe	Laboratory-confirmed seasonal influenza cases in Alberta by zone, 2020-2021 to 2024-2025		Week	Influenza cases (n)					
htmlwidget-35495b5c63998e5b0557	Map of laboratory-confirmed seasonal influenza case rates by zone compared to Alberta, 2024-2025	True							
htmlwidget-950209fde266c8f8d31e	Laboratory-confirmed RSV cases in Alberta by zone, 2024-2025		Week	RSV cases (n)					
htmlwidget-d3f8e047c87ff3c18331	Laboratory-confirmed RSV cases in Alberta by zone, 2020-2021 to 2024-2025		Week	RSV cases (n)					
htmlwidget-dc650dec3f57e1951dc8	Map of laboratory-confirmed RSV case rates by zone compared to Alberta, 2024-2025	True							
htmlwidget-5cfda772961920b31193	Laboratory-confirmed COVID-19 cases in Alberta by zone, 2024-2025		Week	COVID-19 cases (n)					
htmlwidget-6e8714e6484da593dc30	Laboratory-confirmed COVID-19 cases in Alberta by zone, 2020-2021 to 2024-2025		Week	COVID-19 cases (n)					
htmlwidget-f5123d56450434573544	Map of laboratory-confirmed COVID-19 case rates by zone compared to Alberta, 2024-2025	True							
htmlwidget-c9eff2569cfee3db2e30	Cumulative COVID-19 vaccine doses administered by week in Alberta, 2024-2025		{'text': 'Week', 'standoff': 10}	Influenza vaccine doses (n)					
htmlwidget-b589ca978e0bcdee8794	Cumulative COVID-19 vaccine doses administered by week in Alberta, 2024-2025		{'text': 'Week', 'standoff': 10}	Influenza vaccine doses (n)					
htmlwidget-40df6854dcf36d2f4262	Cumulative COVID-19 vaccine doses administered by week in Alberta, 2024-2025		{'text': 'Week', 'standoff': 10}	Influenza vaccine coverage (%)					
htmlwidget-f2db873a643209d2494b	Cumulative COVID-19 vaccine doses administered by week in Alberta, 2024-2025	True							
htmlwidget-0f52cbe6f4da67384481	Cumulative COVID-19 vaccine doses administered by week in Alberta, 2024-2025		Number of events						
htmlwidget-074296aa99582adff837	Cumulative COVID-19 vaccine doses administered by week in Alberta, 2024-2025		Week	COVID-19 vaccine doses (n)					
htmlwidget-7fd06ec9f34195f4f9b1	COVID-19 vaccine doses administered by week in Alberta, 2024-2025		Week	COVID-19 vaccine doses (n)					
htmlwidget-c18909b38c038065d9a6	COVID-19 vaccine coverage by week and age group in Alberta, 2024-2025		Week	COVID-19 vaccine coverage (%)					
htmlwidget-ca5a6c4effa228300dd7	COVID-19 vaccine coverage rate by local geographic area, 2024-2025	True							
htmlwidget-958d43fc19a5b2705d93	Number of adverse events following COVID-19 immunization (AEFI) by condition reported in Alberta, 2024-2025		Number of events						
htmlwidget-d770b168fd4da83ff15b	Respiratory virus test positivity by week, 2024-2025		Week	Percent Positivity (%)					
htmlwidget-e5db7e6db720e2216bf5	Respiratory virus test positivity by week for the 2024-2025 season compared to historical trends		Week	Test Positivity (%)					
htmlwidget-4675cfda05282448ad44	SARS-CoV-2 testing and positivity by week, 2020-2021 to 2024-2025		Week	Total tests (n)	Percent Positivity				
htmlwidget-763a6e0df3b2f831bb0c	Influenza testing and positivity by week, 2020-2021 to 2024-2025		Week	Total tests (n)	Percent Positivity				
htmlwidget-1e3961fd79b3fae2eca1	Respiratory syncytial virus testing and positivity by week, 2020-2021 to 2024-2025		Week	Total tests (n)	Percent Positivity				
htmlwidget-1e629b5d7c293bef6cb2	Adenovirus testing and positivity by week, 2020-2021 to 2024-2025		Week	Total tests (n)	Percent Positivity				
htmlwidget-37343963b38e3afbac05	Coronavirus testing and positivity by week, 2020-2021 to 2024-2025		Week	Total tests (n)	Percent Positivity				
htmlwidget-83662a80df2b02544cba	Rhinovirus/enterovirus testing and positivity by week, 2020-2021 to 2024-2025		Week	Total tests (n)	Percent Positivity				
htmlwidget-bad73736d29c69db23b4	Human metapneumovirus (hMPV) testing and positivity by week, 2020-2021 to 2024-2025		Week	Total tests (n)	Percent Positivity				
htmlwidget-ee8cf5f128cf69602670	Parainfluenza testing and positivity by week, 2020-2021 to 2024-2025		Week	Total tests (n)	Percent Positivity				
htmlwidget-f90ca5dafd067209ebd5	Number of respiratory virus outbreaks by week, 2020-2021 to 2024-2025		Date	Outbreaks (n)					
htmlwidget-e80551a5f17bfe289c8c	Total hospital admissions, ICU admissions, and deaths among laboratory-confirmed seasonal influenza cases in Alberta by age group, 2024-2025							Age Group	
htmlwidget-03e1b4b8f3296969709d	Number of weekly hospital admissions (ICU and non-ICU) and deaths due to laboratory-confirmed seasonal influenza, 2020-2021 to 2024-2025		Week	Hospitalization/ICU/Deaths (n)					
htmlwidget-36b17f36db756f0b7afe	Total hospital admissions, ICU admissions, and deaths among laboratory-confirmed RSV cases in Alberta by age group, 2024-2025							Age Group	
htmlwidget-b5a87d3a72f0a380a326	Number of weekly hospital admissions (ICU and non-ICU) and deaths due to laboratory-confirmed RSV, 2024-2025		Week	Hospitalization/ICU/Deaths (n)					
htmlwidget-085ed8fe42ba7840a28f	Total hospital admissions, ICU admissions, and deaths among laboratory-confirmed COVID-19 cases in Alberta by age group, 2024-2025							Age Group	
htmlwidget-14c5ef00697fbe453750	Number of weekly hospital admissions (ICU and non-ICU) and deaths due to laboratory-confirmed COVID-19, 2020-2021 to 2024-2025		Week	Hospitalization/ICU/Deaths (n)					
htmlwidget-a217b1b66b0ad3164db5	Total weekly laboratory-confirmed seasonal influenza cases by subtype in Alberta, 2024-2025		Week	Influenza cases (n)					
htmlwidget-a08f8df1b311e9bed3fc	Total weekly laboratory-confirmed seasonal influenza cases by subtype in Alberta, 2020-2021 to 2024-2025		Week	Influenza cases (n)					
htmlwidget-ef112c9772b15f151dc0	Laboratory-confirmed seasonal influenza cases in Alberta since the 2009-2010 season		Week	Influenza cases (n)					
htmlwidget-5ee6b0497eb14b232c15	Total weekly laboratory-confirmed RSV cases in Alberta, 2024-2025		Week	RSV cases (n)					
htmlwidget-94d0e71faea976f8cfb4	Total weekly laboratory-confirmed RSV cases in Alberta, 2020-2021 to 2024-2025		Week	RSV cases (n)					
htmlwidget-43ab23d149afb18c8ecf	Total weekly laboratory-confirmed COVID-19 cases in Alberta, 2024-2025		Week	COVID-19 cases (n)					
htmlwidget-213a42434148d3260dc4	Proportion of whole genome sequenced COVID-19 variants by type (10 weeks).		Date Reported to Alberta Health	COVID-19 Sequencing Results (Percentage)					
htmlwidget-67ad1666d97923bbe58e	Population normalized quantity of SARS CoV-2 virus over time		Date	Normalized viral <br> copies per person					['Edmonton Zone', 'Edmonton Zone', 'Edmonton Zone', 'Edmonton Zone', 'Edmonton Zone', 'Edmonton Zone', 'Edmonton Zone', 'Edmonton Zone', 'Edmonton Zone', 'Edmonton Zone', 'Edmonton Zone', 'Edmonton Zone', 'Edmonton Zone', 'Edmonton Zone', 'Edmonton Zone', 'Edmonton Zone', 'Edmonton Zone', 'Edmonton Zone', 'Edmonton Zone', 'Edmonton Zone', 'Edmonton Zone', 'Edmonton Zone', 'Edmonton Zone', 'Edmonton Zone', 'Edmonton Zone', 'Edmonton Zone', 'Edmonton Zone', 'Edmonton Zone', 'Edmonton Zone', 'Edmonton Zone', 'Edmonton Zone', 'Edmonton Zone', 'Edmonton Zone', 'Edmonton Zone', 'Edmonton Zone', 'Edmonton Zone', 'Edmonton Zone', 'Edmonton Zone', 'Edmonton Zone', 'Edmonton Zone', 'Edmonton Zone', 'Edmonton Zone', 'Edmonton Zone', 'Edmonton Zone', 'Edmonton Zone', 'Edmonton Zone', 'Edmonton Zone', 'Edmonton Zone', 'Edmonton Zone', 'Edmonton Zone', 'Edmonton Zone', 'Edmonton Zone', 'Edmonton Zone', 'Edmonton Zone', 'Edmonton Zone', 'Edmonton Zone', 'Edmonton Zone', 'Edmonton Zone', 'Edmonton Zone', 'Edmonton Zone', 'Edmonton Zone', 'Edmonton Zone', 'Edmonton Zone', 'Edmonton Zone', 'Edmonton Zone', 'Edmonton Zone', 'Edmonton Zone', 'Edmonton Zone', 'Edmonton Zone', 'Edmonton Zone', 'Edmonton Zone', 'Edmonton Zone', 'Edmonton Zone', 'Edmonton Zone', 'Edmonton Zone', 'Edmonton Zone', 'Edmonton Zone', 'Edmonton Zone', 'Edmonton Zone', 'Edmonton Zone', 'Edmonton Zone', 'Edmonton Zone', 'Edmonton Zone', 'Edmonton Zone', 'Edmonton Zone', 'Edmonton Zone', 'Edmonton Zone', 'Edmonton Zone', 'Edmonton Zone', 'Edmonton Zone', 'Edmonton Zone', 'Edmonton Zone', 'Edmonton Zone', 'Edmonton Zone', 'Edmonton Zone', 'Edmonton Zone', 'Edmonton Zone', 'Edmonton Zone', 'Edmonton Zone', 'Edmonton Zone', 'Edmonton Zone', 'Edmonton Zone', 'Edmonton Zone', 'Edmonton Zone', 'Edmonton Zone', 'Edmonton Zone', 'Edmonton Zone', 'Edmonton Zone', 'Edmonton Zone', 'Edmonton Zone', 'Edmonton Zone', 'Edmonton Zone', 'Edmonton Zone', 'Edmonton Zone', 'Edmonton Zone', 'Edmonton Zone', 'Edmonton Zone', 'Edmonton Zone', 'Edmonton Zone', 'Edmonton Zone', 'Edmonton Zone', 'Edmonton Zone', 'Edmonton Zone', 'Edmonton Zone', 'Edmonton Zone', 'Edmonton Zone', 'Edmonton Zone', 'Edmonton Zone', 'Edmonton Zone', 'Edmonton Zone', 'Edmonton Zone', 'Edmonton Zone', 'Edmonton Zone', 'Edmonton Zone', 'Edmonton Zone', 'Edmonton Zone', 'Edmonton Zone', 'Edmonton Zone', 'Edmonton Zone', 'Edmonton Zone', 'Edmonton Zone', 'Calgary Zone', 'Calgary Zone', 'Calgary Zone', 'Calgary Zone', 'Calgary Zone', 'Calgary Zone', 'Calgary Zone', 'Calgary Zone', 'Calgary Zone', 'Calgary Zone', 'Calgary Zone', 'Calgary Zone', 'Calgary Zone', 'Calgary Zone', 'Calgary Zone', 'Calgary Zone', 'Calgary Zone', 'Calgary Zone', 'Calgary Zone', 'Calgary Zone', 'Calgary Zone', 'Calgary Zone', 'Calgary Zone', 'Calgary Zone', 'Calgary Zone', 'Calgary Zone', 'Calgary Zone', 'Calgary Zone', 'Calgary Zone', 'Calgary Zone', 'Calgary Zone', 'Calgary Zone', 'Calgary Zone', 'Calgary Zone', 'Calgary Zone', 'Calgary Zone', 'Calgary Zone', 'Calgary Zone', 'Calgary Zone', 'Calgary Zone', 'Calgary Zone', 'Calgary Zone', 'Calgary Zone', 'Calgary Zone', 'Calgary Zone', 'Calgary Zone', 'Calgary Zone', 'Calgary Zone', 'Calgary Zone', 'Calgary Zone', 'Calgary Zone', 'Calgary Zone', 'Calgary Zone', 'Calgary Zone', 'Calgary Zone', 'Calgary Zone', 'Calgary Zone', 'Calgary Zone', 'Calgary Zone', 'Calgary Zone', 'Calgary Zone', 'Calgary Zone', 'Calgary Zone', 'Calgary Zone', 'Calgary Zone', 'Calgary Zone', 'Calgary Zone', 'Calgary Zone', 'Calgary Zone', 'Calgary Zone', 'Calgary Zone', 'Calgary Zone', 'Calgary Zone', 'Calgary Zone', 'Calgary Zone', 'Calgary Zone', 'Calgary Zone', 'Calgary Zone', 'Calgary Zone', 'Calgary Zone', 'Calgary Zone', 'Calgary Zone', 'Calgary Zone', 'Calgary Zone', 'Calgary Zone', 'Calgary Zone', 'Calgary Zone', 'Calgary Zone', 'Calgary Zone', 'Calgary Zone', 'Calgary Zone', 'Calgary Zone', 'Calgary Zone', 'Calgary Zone', 'Calgary Zone', 'Calgary Zone', 'Calgary Zone', 'Calgary Zone', 'Calgary Zone', 'Calgary Zone', 'Calgary Zone', 'Calgary Zone', 'Calgary Zone', 'Calgary Zone', 'Calgary Zone', 'Calgary Zone', 'Calgary Zone', 'Calgary Zone', 'Calgary Zone', 'Calgary Zone', 'Calgary Zone', 'Calgary Zone', 'Calgary Zone', 'Calgary Zone', 'Calgary Zone', 'Calgary Zone', 'Calgary Zone', 'Calgary Zone', 'Calgary Zone', 'Calgary Zone', 'Calgary Zone', 'Calgary Zone', 'Calgary Zone', 'Calgary Zone', 'Calgary Zone', 'Calgary Zone', 'Calgary Zone', 'Calgary Zone', 'Calgary Zone', 'Calgary Zone', 'Calgary Zone', 'Calgary Zone', 'Calgary Zone', 'Calgary Zone', 'Calgary Zone', 'Calgary Zone', 'Calgary Zone', 'South Zone', 'South Zone', 'South Zone', 'South Zone', 'South Zone', 'South Zone', 'South Zone', 'South Zone', 'South Zone', 'South Zone', 'South Zone', 'South Zone', 'South Zone', 'South Zone', 'South Zone', 'South Zone', 'South Zone', 'South Zone', 'South Zone', 'South Zone', 'South Zone', 'South Zone', 'South Zone', 'South Zone', 'South Zone', 'South Zone', 'South Zone', 'South Zone', 'South Zone', 'South Zone', 'South Zone', 'South Zone', 'South Zone', 'South Zone', 'South Zone', 'South Zone', 'South Zone', 'South Zone', 'South Zone', 'South Zone', 'South Zone', 'South Zone', 'South Zone', 'South Zone', 'South Zone', 'South Zone', 'South Zone', 'South Zone', 'South Zone', 'South Zone', 'South Zone', 'South Zone', 'South Zone', 'South Zone', 'South Zone', 'South Zone', 'South Zone', 'South Zone', 'South Zone', 'South Zone', 'South Zone', 'South Zone', 'South Zone', 'South Zone', 'South Zone', 'South Zone', 'South Zone', 'South Zone', 'South Zone', 'South Zone', 'South Zone', 'South Zone', 'South Zone', 'South Zone', 'South Zone', 'South Zone', 'South Zone', 'South Zone', 'South Zone', 'South Zone', 'South Zone', 'South Zone', 'South Zone', 'South Zone', 'South Zone', 'South Zone', 'South Zone', 'South Zone', 'South Zone', 'South Zone', 'South Zone', 'South Zone', 'South Zone', 'South Zone', 'South Zone', 'South Zone', 'South Zone', 'South Zone', 'South Zone', 'South Zone', 'South Zone', 'South Zone', 'South Zone', 'South Zone', 'South Zone', 'South Zone', 'South Zone', 'South Zone', 'South Zone', 'South Zone', 'South Zone', 'South Zone', 'South Zone', 'South Zone', 'South Zone', 'South Zone', 'South Zone', 'South Zone', 'South Zone', 'South Zone', 'South Zone', 'South Zone', 'South Zone', 'South Zone', 'South Zone', 'North Zone', 'North Zone', 'North Zone', 'North Zone', 'North Zone', 'North Zone', 'North Zone', 'North Zone', 'North Zone', 'North Zone', 'North Zone', 'North Zone', 'North Zone', 'North Zone', 'North Zone', 'North Zone', 'North Zone', 'North Zone', 'North Zone', 'North Zone', 'North Zone', 'North Zone', 'North Zone', 'North Zone', 'North Zone', 'North Zone', 'North Zone', 'North Zone', 'North Zone', 'North Zone', 'North Zone', 'North Zone', 'North Zone', 'North Zone', 'North Zone', 'North Zone', 'North Zone', 'North Zone', 'North Zone', 'North Zone', 'North Zone', 'North Zone', 'North Zone', 'North Zone', 'North Zone', 'North Zone', 'North Zone', 'North Zone', 'North Zone', 'North Zone', 'North Zone', 'North Zone', 'North Zone', 'North Zone', 'North Zone', 'North Zone', 'North Zone', 'North Zone', 'North Zone', 'North Zone', 'North Zone', 'North Zone', 'North Zone', 'North Zone', 'North Zone', 'North Zone', 'North Zone', 'North Zone', 'North Zone', 'North Zone', 'North Zone', 'North Zone', 'North Zone', 'North Zone', 'North Zone', 'North Zone', 'North Zone', 'North Zone', 'North Zone', 'North Zone', 'North Zone', 'North Zone', 'North Zone', 'North Zone', 'North Zone', 'North Zone', 'North Zone', 'North Zone', 'North Zone', 'North Zone', 'North Zone', 'North Zone', 'North Zone', 'North Zone', 'North Zone', 'North Zone', 'North Zone', 'North Zone', 'North Zone', 'North Zone', 'North Zone', 'North Zone', 'North Zone', 'North Zone', 'North Zone', 'North Zone', 'North Zone', 'North Zone', 'North Zone', 'North Zone', 'North Zone', 'North Zone', 'North Zone', 'North Zone', 'North Zone', 'North Zone', 'North Zone', 'North Zone', 'North Zone', 'North Zone', 'North Zone', 'North Zone', 'North Zone', 'North Zone', 'North Zone', 'North Zone', 'North Zone', 'North Zone', 'North Zone', 'North Zone', 'North Zone', 'North Zone', 'North Zone', 'North Zone', 'North Zone', 'North Zone', 'Edmonton Zone', 'Edmonton Zone', 'Edmonton Zone', 'Edmonton Zone', 'Edmonton Zone', 'Edmonton Zone', 'Edmonton Zone', 'Edmonton Zone', 'Edmonton Zone', 'Edmonton Zone', 'Edmonton Zone', 'Edmonton Zone', 'Edmonton Zone', 'Edmonton Zone', 'Edmonton Zone', 'Edmonton Zone', 'Edmonton Zone', 'Edmonton Zone', 'Edmonton Zone', 'Edmonton Zone', 'Edmonton Zone', 'Edmonton Zone', 'Edmonton Zone', 'Edmonton Zone', 'Edmonton Zone', 'Edmonton Zone', 'Edmonton Zone', 'Edmonton Zone', 'Edmonton Zone', 'Edmonton Zone', 'Edmonton Zone', 'Edmonton Zone', 'Edmonton Zone', 'Edmonton Zone', 'Edmonton Zone', 'Edmonton Zone', 'Edmonton Zone', 'Edmonton Zone', 'Edmonton Zone', 'Edmonton Zone', 'Edmonton Zone', 'Edmonton Zone', 'Edmonton Zone', 'Edmonton Zone', 'Edmonton Zone', 'Edmonton Zone', 'Edmonton Zone', 'Edmonton Zone', 'Edmonton Zone', 'Edmonton Zone', 'Edmonton Zone', 'Edmonton Zone', 'Edmonton Zone', 'Edmonton Zone', 'Edmonton Zone', 'Edmonton Zone', 'Edmonton Zone', 'Edmonton Zone', 'Edmonton Zone', 'Edmonton Zone', 'Edmonton Zone', 'Edmonton Zone', 'Edmonton Zone', 'Edmonton Zone', 'Edmonton Zone', 'Edmonton Zone', 'Edmonton Zone', 'Edmonton Zone', 'Edmonton Zone', 'Edmonton Zone', 'Edmonton Zone', 'Edmonton Zone', 'Edmonton Zone', 'Edmonton Zone', 'Edmonton Zone', 'Edmonton Zone', 'Edmonton Zone', 'Edmonton Zone', 'Edmonton Zone', 'Edmonton Zone', 'Edmonton Zone', 'Edmonton Zone', 'Edmonton Zone', 'Edmonton Zone', 'Edmonton Zone', 'Edmonton Zone', 'Edmonton Zone', 'Edmonton Zone', 'Edmonton Zone', 'Edmonton Zone', 'Edmonton Zone', 'Edmonton Zone', 'Edmonton Zone', 'Edmonton Zone', 'Edmonton Zone', 'Edmonton Zone', 'Edmonton Zone', 'Edmonton Zone', 'Edmonton Zone', 'Edmonton Zone', 'Edmonton Zone', 'Edmonton Zone', 'Edmonton Zone', 'Edmonton Zone', 'Edmonton Zone', 'Edmonton Zone', 'Edmonton Zone', 'Edmonton Zone', 'Edmonton Zone', 'Edmonton Zone', 'Edmonton Zone', 'Edmonton Zone', 'Edmonton Zone', 'Edmonton Zone', 'Edmonton Zone', 'Edmonton Zone', 'Edmonton Zone', 'Edmonton Zone', 'Edmonton Zone', 'Edmonton Zone', 'Edmonton Zone', 'Edmonton Zone', 'Edmonton Zone', 'Edmonton Zone', 'Edmonton Zone', 'Central Zone', 'Central Zone', 'Central Zone', 'Central Zone', 'Central Zone', 'Central Zone', 'Central Zone', 'Central Zone', 'Central Zone', 'Central Zone', 'Central Zone', 'Central Zone', 'Central Zone', 'Central Zone', 'Central Zone', 'Central Zone', 'Central Zone', 'Central Zone', 'Central Zone', 'Central Zone', 'Central Zone', 'Central Zone', 'Central Zone', 'Central Zone', 'Central Zone', 'Central Zone', 'Central Zone', 'Central Zone', 'Central Zone', 'Central Zone', 'Central Zone', 'Central Zone', 'Central Zone', 'Central Zone', 'Central Zone', 'Central Zone', 'Central Zone', 'Central Zone', 'Central Zone', 'Central Zone', 'Central Zone', 'Central Zone', 'Central Zone', 'Central Zone', 'Central Zone', 'Central Zone', 'Central Zone', 'Central Zone', 'Central Zone', 'Central Zone', 'Central Zone', 'Central Zone', 'Central Zone', 'Central Zone', 'Central Zone', 'Central Zone', 'Central Zone', 'Central Zone', 'Central Zone', 'Central Zone', 'Central Zone', 'Central Zone', 'Central Zone', 'Central Zone', 'Central Zone', 'Central Zone', 'Central Zone', 'Central Zone', 'Central Zone', 'Central Zone', 'Central Zone', 'Central Zone', 'Central Zone', 'Central Zone', 'Central Zone', 'Central Zone', 'Central Zone', 'Central Zone', 'Central Zone', 'Central Zone', 'Central Zone', 'Central Zone', 'Central Zone', 'Central Zone', 'Central Zone', 'Central Zone', 'Central Zone', 'Central Zone', 'Central Zone', 'Central Zone', 'Central Zone', 'Central Zone', 'Central Zone', 'Central Zone', 'Central Zone', 'Central Zone', 'Central Zone', 'Central Zone', 'Central Zone', 'Central Zone', 'Central Zone', 'Central Zone', 'Central Zone', 'Central Zone', 'Central Zone', 'Central Zone', 'Central Zone', 'Central Zone', 'Central Zone', 'Central Zone', 'Central Zone', 'Central Zone', 'Central Zone', 'Central Zone', 'Central Zone', 'Central Zone', 'Central Zone', 'Central Zone', 'Central Zone', 'Central Zone', 'Central Zone', 'Central Zone', 'Central Zone', 'Central Zone', 'Central Zone', 'Central Zone', 'South Zone', 'South Zone', 'South Zone', 'South Zone', 'South Zone', 'South Zone', 'South Zone', 'South Zone', 'South Zone', 'South Zone', 'South Zone', 'South Zone', 'South Zone', 'South Zone', 'South Zone', 'South Zone', 'South Zone', 'South Zone', 'South Zone', 'South Zone', 'South Zone', 'South Zone', 'South Zone', 'South Zone', 'South Zone', 'South Zone', 'South Zone', 'South Zone', 'South Zone', 'South Zone', 'South Zone', 'South Zone', 'South Zone', 'South Zone', 'South Zone', 'South Zone', 'South Zone', 'South Zone', 'South Zone', 'South Zone', 'South Zone', 'South Zone', 'South Zone', 'South Zone', 'South Zone', 'South Zone', 'South Zone', 'South Zone', 'South Zone', 'South Zone', 'South Zone', 'South Zone', 'South Zone', 'South Zone', 'South Zone', 'South Zone', 'South Zone', 'South Zone', 'South Zone', 'South Zone', 'South Zone', 'South Zone', 'South Zone', 'South Zone', 'South Zone', 'South Zone', 'South Zone', 'South Zone', 'South Zone', 'South Zone', 'South Zone', 'South Zone', 'South Zone', 'South Zone', 'South Zone', 'South Zone', 'South Zone', 'South Zone', 'South Zone', 'South Zone', 'South Zone', 'South Zone', 'South Zone', 'South Zone', 'South Zone', 'South Zone', 'South Zone', 'South Zone', 'South Zone', 'South Zone', 'South Zone', 'South Zone', 'South Zone', 'South Zone', 'South Zone', 'South Zone', 'South Zone', 'South Zone', 'South Zone', 'South Zone', 'South Zone', 'South Zone', 'South Zone', 'South Zone', 'South Zone', 'South Zone', 'South Zone', 'South Zone', 'South Zone', 'South Zone', 'South Zone', 'South Zone', 'South Zone', 'South Zone', 'South Zone', 'South Zone', 'South Zone', 'South Zone', 'South Zone', 'South Zone', 'South Zone', 'South Zone', 'South Zone', 'South Zone', 'South Zone', 'South Zone', 'South Zone', 'South Zone', 'North Zone', 'North Zone', 'North Zone', 'North Zone', 'North Zone', 'North Zone', 'North Zone', 'North Zone', 'North Zone', 'North Zone', 'North Zone', 'North Zone', 'North Zone', 'North Zone', 'North Zone', 'North Zone', 'North Zone', 'North Zone', 'North Zone', 'North Zone', 'North Zone', 'North Zone', 'North Zone', 'North Zone', 'North Zone', 'North Zone', 'North Zone', 'North Zone', 'North Zone', 'North Zone', 'North Zone', 'North Zone', 'North Zone', 'North Zone', 'North Zone', 'North Zone', 'North Zone', 'North Zone', 'North Zone', 'North Zone', 'North Zone', 'North Zone', 'North Zone', 'North Zone', 'North Zone', 'North Zone', 'North Zone', 'North Zone', 'North Zone', 'North Zone', 'North Zone', 'North Zone', 'North Zone', 'North Zone', 'North Zone', 'North Zone', 'North Zone', 'North Zone', 'North Zone', 'North Zone', 'North Zone', 'North Zone', 'North Zone', 'North Zone', 'North Zone', 'North Zone', 'North Zone', 'North Zone', 'North Zone', 'North Zone', 'North Zone', 'North Zone', 'North Zone', 'North Zone', 'North Zone', 'North Zone', 'North Zone', 'North Zone', 'North Zone', 'North Zone', 'North Zone', 'North Zone', 'North Zone', 'North Zone', 'North Zone', 'North Zone', 'North Zone', 'North Zone', 'North Zone', 'North Zone', 'North Zone', 'North Zone', 'North Zone', 'North Zone', 'North Zone', 'North Zone', 'North Zone', 'North Zone', 'North Zone', 'North Zone', 'North Zone', 'North Zone', 'North Zone', 'North Zone', 'North Zone', 'North Zone', 'North Zone', 'North Zone', 'North Zone', 'North Zone', 'North Zone', 'North Zone', 'North Zone', 'North Zone', 'North Zone', 'North Zone', 'North Zone', 'North Zone', 'North Zone', 'North Zone', 'North Zone', 'North Zone', 'North Zone', 'North Zone', 'North Zone', 'North Zone', 'North Zone', 'North Zone', 'North Zone', 'North Zone', 'North Zone', 'North Zone', 'North Zone', 'North Zone', 'North Zone', 'North Zone', 'North Zone', 'North Zone', 'North Zone', 'North Zone', 'North Zone', 'North Zone', 'North Zone', 'North Zone', 'North Zone', 'North Zone', 'North Zone', 'North Zone', 'North Zone', 'North Zone', 'North Zone', 'North Zone', 'North Zone', 'North Zone', 'North Zone', 'North Zone', 'North Zone', 'North Zone', 'North Zone', 'North Zone', 'North Zone', 'North Zone', 'North Zone', 'North Zone', 'North Zone', 'North Zone', 'North Zone', 'North Zone', 'North Zone', 'North Zone', 'North Zone', 'North Zone', 'North Zone', 'North Zone', 'North Zone', 'North Zone', 'North Zone', 'North Zone', 'North Zone', 'North Zone', 'North Zone', 'North Zone', 'North Zone', 'North Zone', 'North Zone', 'North Zone', 'North Zone', 'North Zone', 'North Zone', 'North Zone', 'North Zone', 'North Zone', 'North Zone', 'North Zone', 'North Zone', 'North Zone', 'North Zone', 'North Zone', 'North Zone', 'North Zone', 'North Zone', 'North Zone', 'North Zone', 'North Zone', 'North Zone', 'North Zone', 'North Zone', 'North Zone', 'North Zone', 'North Zone', 'North Zone', 'North Zone', 'North Zone', 'North Zone', 'North Zone', 'North Zone', 'North Zone', 'North Zone', 'North Zone', 'North Zone', 'North Zone', 'North Zone', 'North Zone', 'North Zone', 'North Zone', 'North Zone', 'North Zone', 'North Zone', 'North Zone', 'North Zone', 'North Zone', 'North Zone', 'North Zone', 'North Zone', 'North Zone', 'North Zone', 'North Zone', 'North Zone', 'North Zone', 'North Zone', 'North Zone', 'Calgary Zone', 'Calgary Zone', 'Calgary Zone', 'Calgary Zone', 'Calgary Zone', 'Calgary Zone', 'Calgary Zone', 'Calgary Zone', 'Calgary Zone', 'Calgary Zone', 'Calgary Zone', 'Calgary Zone', 'Calgary Zone', 'Calgary Zone', 'Calgary Zone', 'Calgary Zone', 'Calgary Zone', 'Calgary Zone', 'Calgary Zone', 'Calgary Zone', 'Calgary Zone', 'Calgary Zone', 'Calgary Zone', 'Calgary Zone', 'Calgary Zone', 'Calgary Zone', 'Calgary Zone', 'Calgary Zone', 'Calgary Zone', 'Calgary Zone', 'Calgary Zone', 'Calgary Zone', 'Calgary Zone', 'Calgary Zone', 'Calgary Zone', 'Calgary Zone', 'Calgary Zone', 'Calgary Zone', 'Calgary Zone', 'Calgary Zone', 'Calgary Zone', 'Calgary Zone', 'Calgary Zone', 'Calgary Zone', 'Calgary Zone', 'Calgary Zone', 'Calgary Zone', 'Calgary Zone', 'Calgary Zone', 'Calgary Zone', 'Calgary Zone', 'Calgary Zone', 'Calgary Zone', 'Calgary Zone', 'Calgary Zone', 'Calgary Zone', 'Calgary Zone', 'Calgary Zone', 'Calgary Zone', 'Calgary Zone', 'Calgary Zone', 'Calgary Zone', 'Calgary Zone', 'Calgary Zone', 'Calgary Zone', 'Calgary Zone', 'Calgary Zone', 'Calgary Zone', 'Calgary Zone', 'Calgary Zone', 'Calgary Zone', 'Calgary Zone', 'Calgary Zone', 'Calgary Zone', 'Calgary Zone', 'Calgary Zone', 'Calgary Zone', 'Calgary Zone', 'Calgary Zone', 'Calgary Zone', 'Calgary Zone', 'Calgary Zone', 'Calgary Zone', 'Calgary Zone', 'Calgary Zone', 'Calgary Zone', 'Calgary Zone', 'Calgary Zone', 'Calgary Zone', 'Calgary Zone', 'Calgary Zone', 'Calgary Zone', 'Calgary Zone', 'Calgary Zone', 'Calgary Zone', 'Calgary Zone', 'Calgary Zone', 'Calgary Zone', 'Calgary Zone', 'Calgary Zone', 'Calgary Zone', 'Calgary Zone', 'Calgary Zone', 'Calgary Zone', 'Calgary Zone', 'Calgary Zone', 'Calgary Zone', 'Calgary Zone', 'Calgary Zone', 'Calgary Zone', 'Calgary Zone', 'Calgary Zone', 'Calgary Zone', 'Calgary Zone', 'Calgary Zone', 'Calgary Zone', 'Calgary Zone', 'Calgary Zone', 'Calgary Zone', 'Calgary Zone', 'Calgary Zone', 'Calgary Zone', 'Calgary Zone', 'Calgary Zone', 'Calgary Zone', 'Calgary Zone', 'Calgary Zone', 'Calgary Zone', 'Calgary Zone', 'Calgary Zone', 'Calgary Zone', 'Calgary Zone', 'Calgary Zone', 'Calgary Zone', 'Calgary Zone', 'Calgary Zone', 'Calgary Zone', 'Calgary Zone', 'Calgary Zone', 'Calgary Zone', 'Calgary Zone', 'Calgary Zone', 'Calgary Zone', 'Calgary Zone', 'Calgary Zone', 'Calgary Zone', 'Calgary Zone', 'Calgary Zone', 'Calgary Zone', 'Calgary Zone', 'Calgary Zone', 'Calgary Zone', 'Calgary Zone', 'Calgary Zone', 'Calgary Zone', 'Calgary Zone', 'Calgary Zone', 'Calgary Zone', 'Calgary Zone', 'Calgary Zone', 'Calgary Zone', 'Calgary Zone', 'Calgary Zone', 'Calgary Zone', 'Calgary Zone', 'Calgary Zone', 'Calgary Zone', 'Calgary Zone', 'Calgary Zone', 'Calgary Zone', 'Calgary Zone', 'Calgary Zone', 'Calgary Zone', 'Calgary Zone', 'Calgary Zone', 'Calgary Zone', 'Calgary Zone', 'Calgary Zone', 'Calgary Zone', 'Calgary Zone', 'Calgary Zone', 'Calgary Zone']
